data/oscilloscope_data/NewFile32.csv

X,CH1,CH2,Start,Increment,
Sequence,Volt,Volt,-5.960000e-02,1.000000e-04
0,-8.00e-01,-1.60e-02,
1,8.00e-01,8.00e-03,
2,8.00e-01,-1.60e-02,
3,-4.00e-01,1.20e-02,
4,-4.00e-01,-1.20e-02,
5,8.00e-01,1.20e-02,
6,0.00e+00,-1.20e-02,
7,1.20e+00,1.60e-02,
8,1.20e+00,-8.00e-03,
9,0.00e+00,1.60e-02,
10,0.00e+00,-8.00e-03,
11,8.00e-01,2.00e-02,
12,0.00e+00,-4.00e-03,
13,1.20e+00,2.00e-02,
14,1.20e+00,2.00e-02,
15,0.00e+00,-4.00e-03,
16,8.00e-01,2.00e-02,
17,-4.00e-01,0.00e+00,
18,0.00e+00,2.40e-02,
19,1.20e+00,0.00e+00,
20,0.00e+00,2.40e-02,
21,1.20e+00,0.00e+00,
22,0.00e+00,4.00e-03,
23,1.20e+00,2.80e-02,
24,8.00e-01,4.00e-03,
25,0.00e+00,2.80e-02,
26,1.20e+00,4.00e-03,
27,-4.00e-01,2.80e-02,
28,-8.00e-01,8.00e-03,
29,8.00e-01,2.80e-02,
30,4.00e-01,8.00e-03,
31,-1.20e+00,3.20e-02,
32,-8.00e-01,1.20e-02,
33,4.00e-01,3.20e-02,
34,8.00e-01,3.20e-02,
35,-8.00e-01,1.20e-02,
36,-8.00e-01,3.20e-02,
37,4.00e-01,1.20e-02,
38,-8.00e-01,1.20e-02,
39,4.00e-01,3.60e-02,
40,8.00e-01,3.60e-02,
41,-4.00e-01,1.20e-02,
42,0.00e+00,3.60e-02,
43,1.20e+00,1.20e-02,
44,8.00e-01,1.60e-02,
45,-4.00e-01,3.60e-02,
46,-4.00e-01,3.60e-02,
47,8.00e-01,1.60e-02,
48,4.00e-01,1.60e-02,
49,-8.00e-01,4.00e-02,
50,4.00e-01,1.60e-02,
51,-8.00e-01,4.00e-02,
52,-8.00e-01,4.00e-02,
53,4.00e-01,1.60e-02,
54,8.00e-01,4.00e-02,
55,-4.00e-01,1.60e-02,
56,4.00e-01,2.00e-02,
57,-1.20e+00,5.20e-02,
58,-1.20e+00,2.00e-02,
59,4.00e-01,4.00e-02,
60,4.00e-01,1.60e-02,
61,-4.00e-01,4.00e-02,
62,-4.00e-01,2.00e-02,
63,8.00e-01,4.00e-02,
64,-4.00e-01,1.60e-02,
65,8.00e-01,4.40e-02,
66,8.00e-01,2.00e-02,
67,0.00e+00,4.40e-02,
68,8.00e-01,4.00e-02,
69,-4.00e-01,2.00e-02,
70,4.00e-01,2.00e-02,
71,-8.00e-01,4.40e-02,
72,-4.00e-01,4.40e-02,
73,1.20e+00,2.00e-02,
74,4.00e-01,4.40e-02,
75,1.60e+00,2.00e-02,
76,1.60e+00,4.40e-02,
77,4.00e-01,2.00e-02,
78,4.00e-01,4.40e-02,
79,1.60e+00,2.00e-02,
80,1.60e+00,4.40e-02,
81,0.00e+00,2.40e-02,
82,0.00e+00,4.80e-02,
83,1.20e+00,2.00e-02,
84,1.60e+00,2.40e-02,
85,4.00e-01,4.80e-02,
86,1.60e+00,2.80e-02,
87,-8.00e-01,4.80e-02,
88,-8.00e-01,2.80e-02,
89,4.00e-01,4.80e-02,
90,-4.00e-01,4.80e-02,
91,1.20e+00,2.40e-02,
92,4.00e-01,4.80e-02,
93,1.60e+00,2.80e-02,
94,1.20e+00,4.80e-02,
95,4.00e-01,2.80e-02,
96,4.00e-01,4.80e-02,
97,1.60e+00,2.80e-02,
98,1.60e+00,2.80e-02,
99,4.00e-01,5.20e-02,
100,4.00e-01,2.80e-02,
101,2.40e+00,5.20e-02,
102,8.00e-01,5.20e-02,
103,2.40e+00,2.80e-02,
104,2.40e+00,3.20e-02,
105,0.00e+00,5.20e-02,
106,4.00e-01,5.20e-02,
107,-8.00e-01,2.80e-02,
108,4.00e-01,5.20e-02,
109,-1.20e+00,3.20e-02,
110,-8.00e-01,3.20e-02,
111,4.00e-01,5.60e-02,
112,-4.00e-01,5.20e-02,
113,1.20e+00,3.20e-02,
114,8.00e-01,3.20e-02,
115,-4.00e-01,5.60e-02,
116,4.00e-01,3.20e-02,
117,-4.00e-01,5.60e-02,
118,4.00e-01,5.20e-02,
119,-4.00e-01,3.20e-02,
120,-4.00e-01,5.20e-02,
121,1.20e+00,3.20e-02,
122,1.20e+00,5.60e-02,
123,0.00e+00,3.20e-02,
124,1.60e+00,5.60e-02,
125,4.00e-01,3.20e-02,
126,1.20e+00,3.60e-02,
127,0.00e+00,5.60e-02,
128,8.00e-01,2.20e-01,
129,-1.20e+00,3.20e-02,
130,-4.00e-01,3.60e-02,
131,-1.60e+00,6.40e-02,
132,-8.00e-01,4.40e-02,
133,1.60e+00,6.80e-02,
134,8.00e-01,7.20e-02,
135,2.40e+00,4.80e-02,
136,2.40e+00,5.20e-02,
137,1.20e+00,7.20e-02,
138,2.40e+00,7.20e-02,
139,8.00e-01,4.80e-02,
140,1.60e+00,4.80e-02,
141,4.00e-01,7.20e-02,
142,1.60e+00,4.80e-02,
143,4.00e-01,6.80e-02,
144,4.00e-01,6.80e-02,
145,1.60e+00,4.40e-02,
146,4.00e-01,6.80e-02,
147,1.20e+00,4.40e-02,
148,8.00e-01,6.40e-02,
149,-4.00e-01,4.00e-02,
150,0.00e+00,4.00e-02,
151,1.60e+00,6.40e-02,
152,1.60e+00,6.40e-02,
153,0.00e+00,3.60e-02,
154,4.00e-01,3.60e-02,
155,1.60e+00,6.00e-02,
156,1.60e+00,5.60e-02,
157,4.00e-01,3.20e-02,
158,1.20e+00,5.60e-02,
159,-4.00e-01,3.20e-02,
160,4.00e-01,5.20e-02,
161,-8.00e-01,3.20e-02,
162,0.00e+00,5.20e-02,
163,-1.60e+00,3.20e-02,
164,-1.20e+00,5.20e-02,
165,-2.80e+00,2.80e-02,
166,-2.00e+00,5.20e-02,
167,-3.60e+00,2.80e-02,
168,-3.60e+00,5.20e-02,
169,-2.00e+00,2.80e-02,
170,-2.40e+00,2.80e-02,
171,-1.20e+00,5.20e-02,
172,-2.00e+00,4.80e-02,
173,-8.00e-01,2.40e-02,
174,-2.00e+00,4.80e-02,
175,-4.00e-01,2.40e-02,
176,-8.00e-01,4.80e-02,
177,8.00e-01,2.40e-02,
178,0.00e+00,4.40e-02,
179,1.60e+00,2.40e-02,
180,4.00e-01,2.40e-02,
181,1.60e+00,4.80e-02,
182,1.20e+00,4.40e-02,
183,0.00e+00,2.00e-02,
184,0.00e+00,4.40e-02,
185,1.20e+00,2.00e-02,
186,0.00e+00,4.40e-02,
187,1.20e+00,2.00e-02,
188,8.00e-01,4.00e-02,
189,-1.20e+00,2.00e-02,
190,-1.20e+00,2.00e-02,
191,8.00e-01,4.40e-02,
192,0.00e+00,4.40e-02,
193,8.00e-01,2.00e-02,
194,4.00e-01,4.00e-02,
195,-4.00e-01,2.00e-02,
196,-4.00e-01,4.00e-02,
197,8.00e-01,1.60e-02,
198,8.00e-01,4.00e-02,
199,-4.00e-01,1.60e-02,
200,-4.00e-01,4.00e-02,
201,1.60e+00,1.60e-02,
202,1.20e+00,1.60e-02,
203,0.00e+00,4.00e-02,
204,4.00e-01,1.60e-02,
205,1.60e+00,4.00e-02,
206,1.20e+00,3.60e-02,
207,4.00e-01,1.20e-02,
208,8.00e-01,3.60e-02,
209,1.60e+00,1.20e-02,
210,8.00e-01,4.00e-03,
211,2.40e+00,3.60e-02,
212,2.40e+00,3.60e-02,
213,4.00e-01,1.20e-02,
214,4.00e-01,1.60e-02,
215,1.60e+00,4.00e-02,
216,1.60e+00,1.20e-02,
217,0.00e+00,3.60e-02,
218,2.40e+00,1.20e-02,
219,0.00e+00,3.60e-02,
220,8.00e-01,1.20e-02,
221,-4.00e-01,3.60e-02,
222,-4.00e-01,3.20e-02,
223,8.00e-01,8.00e-03,
224,0.00e+00,8.00e-03,
225,1.60e+00,3.20e-02,
226,1.60e+00,3.20e-02,
227,8.00e-01,8.00e-03,
228,1.60e+00,8.00e-03,
229,0.00e+00,3.20e-02,
230,0.00e+00,2.80e-02,
231,1.20e+00,4.00e-03,
232,1.20e+00,2.80e-02,
233,0.00e+00,4.00e-03,
234,-4.00e-01,2.80e-02,
235,8.00e-01,4.00e-03,
236,-8.00e-01,2.80e-02,
237,8.00e-01,4.00e-03,
238,0.00e+00,4.00e-03,
239,2.40e+00,2.80e-02,
240,2.40e+00,2.40e-02,
241,0.00e+00,4.00e-03,
242,4.00e-01,2.40e-02,
243,1.60e+00,4.00e-03,
244,8.00e-01,2.40e-02,
245,-4.00e-01,4.00e-03,
246,-4.00e-01,4.00e-03,
247,8.00e-01,2.80e-02,
248,8.00e-01,2.40e-02,
249,-1.60e+00,4.00e-03,
250,-1.60e+00,0.00e+00,
251,4.00e-01,2.80e-02,
252,8.00e-01,4.00e-03,
253,-4.00e-01,2.40e-02,
254,0.00e+00,0.00e+00,
255,8.00e-01,2.80e-02,
256,8.00e-01,2.40e-02,
257,-4.00e-01,4.00e-03,
258,-4.00e-01,2.40e-02,
259,1.20e+00,4.00e-03,
260,1.20e+00,4.00e-03,
261,4.00e-01,2.80e-02,
262,1.60e+00,2.40e-02,
263,-4.00e-01,4.00e-03,
264,-4.00e-01,2.80e-02,
265,8.00e-01,0.00e+00,
266,0.00e+00,2.40e-02,
267,1.20e+00,4.00e-03,
268,1.20e+00,4.00e-03,
269,-8.00e-01,2.80e-02,
270,-4.00e-01,2.80e-02,
271,1.20e+00,0.00e+00,
272,1.20e+00,2.40e-02,
273,-4.00e-01,4.00e-03,
274,-4.00e-01,4.00e-03,
275,1.20e+00,2.80e-02,
276,4.00e-01,2.80e-02,
277,1.60e+00,4.00e-03,
278,1.20e+00,2.40e-02,
279,0.00e+00,0.00e+00,
280,1.60e+00,2.40e-02,
281,4.00e-01,0.00e+00,
282,1.60e+00,2.40e-02,
283,0.00e+00,0.00e+00,
284,1.60e+00,4.00e-03,
285,4.00e-01,2.40e-02,
286,4.00e-01,0.00e+00,
287,1.60e+00,2.40e-02,
288,8.00e-01,2.40e-02,
289,2.40e+00,-1.60e-01,
290,1.20e+00,2.00e-02,
291,2.80e+00,-8.00e-03,
292,1.60e+00,1.60e-02,
293,0.00e+00,-1.60e-02,
294,8.00e-01,1.20e-02,
295,-1.20e+00,-1.20e-02,
296,-1.20e+00,8.00e-03,
297,8.00e-01,-1.60e-02,
298,0.00e+00,8.00e-03,
299,1.20e+00,-1.60e-02,
300,1.20e+00,-1.60e-02,
301,-4.00e-01,8.00e-03,
302,-4.00e-01,-1.60e-02,
303,1.20e+00,1.20e-02,
304,4.00e-01,-1.60e-02,
305,1.60e+00,1.20e-02,
306,8.00e-01,8.00e-03,
307,0.00e+00,-1.60e-02,
308,0.00e+00,-1.60e-02,
309,1.20e+00,1.20e-02,
310,-4.00e-01,-1.20e-02,
311,1.20e+00,1.20e-02,
312,1.20e+00,-1.20e-02,
313,0.00e+00,1.20e-02,
314,0.00e+00,-8.00e-03,
315,1.20e+00,1.60e-02,
316,4.00e-01,-8.00e-03,
317,1.60e+00,1.60e-02,
318,8.00e-01,1.60e-02,
319,0.00e+00,-8.00e-03,
320,1.20e+00,2.00e-02,
321,0.00e+00,-8.00e-03,
322,0.00e+00,2.00e-02,
323,8.00e-01,-4.00e-03,
324,8.00e-01,0.00e+00,
325,-8.00e-01,2.00e-02,
326,0.00e+00,0.00e+00,
327,2.00e+00,2.40e-02,
328,1.60e+00,2.40e-02,
329,0.00e+00,4.00e-03,
330,0.00e+00,2.40e-02,
331,8.00e-01,4.00e-03,
332,0.00e+00,4.00e-03,
333,1.20e+00,2.80e-02,
334,1.60e+00,2.80e-02,
335,8.00e-01,4.00e-03,
336,8.00e-01,8.00e-03,
337,2.00e+00,3.20e-02,
338,2.40e+00,8.00e-03,
339,8.00e-01,3.20e-02,
340,1.20e+00,3.20e-02,
341,0.00e+00,8.00e-03,
342,4.00e-01,3.20e-02,
343,1.60e+00,8.00e-03,
344,8.00e-01,1.20e-02,
345,-4.00e-01,3.60e-02,
346,0.00e+00,3.60e-02,
347,1.20e+00,1.20e-02,
348,8.00e-01,1.60e-02,
349,-8.00e-01,3.60e-02,
350,4.00e-01,1.20e-02,
351,-8.00e-01,4.00e-02,
352,4.00e-01,3.60e-02,
353,-8.00e-01,1.60e-02,
354,4.00e-01,2.00e-02,
355,-4.00e-01,4.00e-02,
356,-4.00e-01,4.00e-02,
357,8.00e-01,1.60e-02,
358,0.00e+00,2.00e-02,
359,-8.00e-01,4.40e-02,
360,-8.00e-01,4.00e-02,
361,4.00e-01,2.00e-02,
362,-4.00e-01,4.00e-02,
363,8.00e-01,2.00e-02,
364,8.00e-01,5.20e-02,
365,-4.00e-01,1.60e-02,
366,-4.00e-01,4.00e-02,
367,8.00e-01,2.00e-02,
368,4.00e-01,4.00e-02,
369,-8.00e-01,2.00e-02,
370,8.00e-01,2.00e-02,
371,-8.00e-01,4.40e-02,
372,-8.00e-01,2.00e-02,
373,8.00e-01,4.40e-02,
374,4.00e-01,2.00e-02,
375,-4.00e-01,4.40e-02,
376,-4.00e-01,4.40e-02,
377,1.20e+00,2.00e-02,
378,8.00e-01,2.00e-02,
379,1.60e+00,4.40e-02,
380,2.40e+00,4.40e-02,
381,1.20e+00,2.00e-02,
382,2.00e+00,4.40e-02,
383,8.00e-01,2.00e-02,
384,1.60e+00,4.40e-02,
385,4.00e-01,2.00e-02,
386,1.20e+00,2.40e-02,
387,0.00e+00,4.40e-02,
388,4.00e-01,4.40e-02,
389,-8.00e-01,2.00e-02,
390,-8.00e-01,2.40e-02,
391,4.00e-01,4.40e-02,
392,-8.00e-01,2.40e-02,
393,4.00e-01,4.80e-02,
394,-4.00e-01,2.40e-02,
395,1.20e+00,4.80e-02,
396,1.20e+00,2.40e-02,
397,0.00e+00,4.80e-02,
398,1.20e+00,2.40e-02,
399,0.00e+00,4.80e-02,
400,8.00e-01,2.80e-02,
401,-4.00e-01,4.80e-02,
402,4.00e-01,2.40e-02,
403,-4.00e-01,4.80e-02,
404,-4.00e-01,4.80e-02,
405,4.00e-01,2.80e-02,
406,-4.00e-01,2.80e-02,
407,8.00e-01,4.80e-02,
408,0.00e+00,2.80e-02,
409,1.20e+00,5.20e-02,
410,8.00e-01,2.80e-02,
411,1.60e+00,5.20e-02,
412,1.20e+00,5.20e-02,
413,-4.00e-01,2.80e-02,
414,-4.00e-01,5.20e-02,
415,1.20e+00,2.80e-02,
416,1.20e+00,3.20e-02,
417,4.00e-01,5.20e-02,
418,1.20e+00,3.20e-02,
419,0.00e+00,5.20e-02,
420,0.00e+00,3.20e-02,
421,1.20e+00,5.60e-02,
422,1.20e+00,5.20e-02,
423,-4.00e-01,3.20e-02,
424,-4.00e-01,3.20e-02,
425,8.00e-01,5.60e-02,
426,8.00e-01,5.20e-02,
427,-8.00e-01,3.20e-02,
428,-8.00e-01,3.20e-02,
429,1.20e+00,5.60e-02,
430,4.00e-01,5.20e-02,
431,1.20e+00,3.20e-02,
432,8.00e-01,3.20e-02,
433,0.00e+00,5.60e-02,
434,8.00e-01,2.20e-01,
435,-4.00e-01,3.20e-02,
436,0.00e+00,3.20e-02,
437,-1.60e+00,6.40e-02,
438,-1.20e+00,4.00e-02,
439,4.00e-01,6.80e-02,
440,0.00e+00,4.80e-02,
441,1.20e+00,7.20e-02,
442,4.00e-01,5.20e-02,
443,1.60e+00,7.20e-02,
444,1.60e+00,7.20e-02,
445,4.00e-01,4.80e-02,
446,4.00e-01,5.20e-02,
447,1.20e+00,7.20e-02,
448,8.00e-01,5.20e-02,
449,-4.00e-01,7.20e-02,
450,1.20e+00,4.80e-02,
451,0.00e+00,7.20e-02,
452,1.20e+00,4.80e-02,
453,0.00e+00,7.20e-02,
454,-4.00e-01,6.80e-02,
455,8.00e-01,4.40e-02,
456,8.00e-01,6.80e-02,
457,-4.00e-01,4.40e-02,
458,0.00e+00,4.00e-02,
459,1.20e+00,6.40e-02,
460,1.20e+00,4.00e-02,
461,4.00e-01,6.40e-02,
462,8.00e-01,4.00e-02,
463,-4.00e-01,6.40e-02,
464,8.00e-01,6.00e-02,
465,-4.00e-01,3.60e-02,
466,0.00e+00,5.60e-02,
467,8.00e-01,3.60e-02,
468,-4.00e-01,3.20e-02,
469,1.20e+00,6.00e-02,
470,8.00e-01,5.20e-02,
471,-8.00e-01,3.20e-02,
472,0.00e+00,5.20e-02,
473,-1.60e+00,2.80e-02,
474,-8.00e-01,2.80e-02,
475,-2.40e+00,5.20e-02,
476,-2.40e+00,4.80e-02,
477,-1.20e+00,2.40e-02,
478,-2.00e+00,4.80e-02,
479,0.00e+00,2.80e-02,
480,-8.00e-01,4.80e-02,
481,8.00e-01,2.40e-02,
482,4.00e-01,2.40e-02,
483,1.60e+00,4.80e-02,
484,1.20e+00,4.40e-02,
485,4.00e-01,2.40e-02,
486,4.00e-01,4.40e-02,
487,1.60e+00,2.00e-02,
488,1.20e+00,2.40e-02,
489,-4.00e-01,4.80e-02,
490,-4.00e-01,2.00e-02,
491,8.00e-01,4.40e-02,
492,0.00e+00,4.40e-02,
493,1.20e+00,2.00e-02,
494,1.20e+00,2.00e-02,
495,4.00e-01,4.00e-02,
496,1.60e+00,2.00e-02,
497,4.00e-01,4.00e-02,
498,4.00e-01,4.00e-02,
499,1.20e+00,2.00e-02,
500,1.60e+00,4.00e-02,
501,4.00e-01,1.60e-02,
502,4.00e-01,1.60e-02,
503,1.20e+00,4.00e-02,
504,4.00e-01,1.60e-02,
505,1.60e+00,4.00e-02,
506,8.00e-01,1.60e-02,
507,2.40e+00,4.00e-02,
508,1.60e+00,3.60e-02,
509,4.00e-01,1.60e-02,
510,1.60e+00,1.20e-02,
511,0.00e+00,4.00e-02,
512,1.20e+00,1.60e-02,
513,0.00e+00,4.00e-02,
514,8.00e-01,3.60e-02,
515,-8.00e-01,1.20e-02,
516,0.00e+00,3.60e-02,
517,-1.20e+00,4.00e-03,
518,-4.00e-01,1.60e-02,
519,1.20e+00,4.00e-02,
520,4.00e-01,3.60e-02,
521,1.60e+00,1.20e-02,
522,8.00e-01,3.60e-02,
523,2.40e+00,1.60e-02,
524,2.00e+00,1.20e-02,
525,4.00e-01,3.60e-02,
526,8.00e-01,1.20e-02,
527,2.40e+00,3.60e-02,
528,8.00e-01,1.20e-02,
529,2.00e+00,3.60e-02,
530,2.40e+00,3.20e-02,
531,8.00e-01,1.20e-02,
532,8.00e-01,3.20e-02,
533,2.40e+00,8.00e-03,
534,1.60e+00,8.00e-03,
535,8.00e-01,3.20e-02,
536,4.00e-01,8.00e-03,
537,1.60e+00,3.20e-02,
538,8.00e-01,2.80e-02,
539,2.00e+00,4.00e-03,
540,8.00e-01,8.00e-03,
541,2.80e+00,2.80e-02,
542,2.40e+00,2.80e-02,
543,8.00e-01,8.00e-03,
544,1.60e+00,8.00e-03,
545,4.00e-01,2.80e-02,
546,1.20e+00,2.80e-02,
547,0.00e+00,4.00e-03,
548,8.00e-01,4.00e-03,
549,-4.00e-01,2.80e-02,
550,-4.00e-01,4.00e-03,
551,8.00e-01,2.80e-02,
552,8.00e-01,2.40e-02,
553,0.00e+00,0.00e+00,
554,8.00e-01,2.40e-02,
555,-4.00e-01,0.00e+00,
556,4.00e-01,2.40e-02,
557,1.60e+00,4.00e-03,
558,1.20e+00,2.40e-02,
559,0.00e+00,0.00e+00,
560,1.20e+00,2.40e-02,
561,-4.00e-01,0.00e+00,
562,4.00e-01,2.40e-02,
563,-8.00e-01,0.00e+00,
564,-4.00e-01,0.00e+00,
565,4.00e-01,2.40e-02,
566,-4.00e-01,0.00e+00,
567,8.00e-01,2.40e-02,
568,-4.00e-01,2.40e-02,
569,8.00e-01,0.00e+00,
570,0.00e+00,0.00e+00,
571,1.60e+00,2.40e-02,
572,1.60e+00,0.00e+00,
573,4.00e-01,2.40e-02,
574,8.00e-01,0.00e+00,
575,1.60e+00,2.40e-02,
576,8.00e-01,2.40e-02,
577,2.00e+00,0.00e+00,
578,1.60e+00,0.00e+00,
579,8.00e-01,2.40e-02,
580,1.60e+00,0.00e+00,
581,4.00e-01,2.40e-02,
582,8.00e-01,2.40e-02,
583,1.60e+00,0.00e+00,
584,4.00e-01,2.40e-02,
585,2.40e+00,0.00e+00,
586,2.40e+00,0.00e+00,
587,8.00e-01,2.40e-02,
588,1.60e+00,0.00e+00,
589,0.00e+00,2.40e-02,
590,0.00e+00,4.00e-03,
591,1.20e+00,2.40e-02,
592,1.20e+00,0.00e+00,
593,0.00e+00,2.40e-02,
594,-4.00e-01,2.40e-02,
595,1.20e+00,-1.64e-01,
596,4.00e-01,2.40e-02,
597,3.60e+00,-4.00e-03,
598,2.80e+00,-8.00e-03,
599,8.00e-01,1.60e-02,
600,1.20e+00,-1.20e-02,
601,4.00e-01,1.20e-02,
602,1.20e+00,-1.20e-02,
603,0.00e+00,8.00e-03,
604,4.00e-01,8.00e-03,
605,-8.00e-01,-1.60e-02,
606,4.00e-01,8.00e-03,
607,-8.00e-01,-1.60e-02,
608,-8.00e-01,8.00e-03,
609,4.00e-01,-1.60e-02,
610,0.00e+00,8.00e-03,
611,1.20e+00,-1.20e-02,
612,0.00e+00,-1.20e-02,
613,1.60e+00,1.20e-02,
614,1.20e+00,-1.20e-02,
615,4.00e-01,1.20e-02,
616,8.00e-01,1.20e-02,
617,-4.00e-01,-1.20e-02,
618,-4.00e-01,1.20e-02,
619,4.00e-01,-1.20e-02,
620,4.00e-01,-8.00e-03,
621,-1.20e+00,1.60e-02,
622,-4.00e-01,-8.00e-03,
623,1.20e+00,1.60e-02,
624,4.00e-01,-4.00e-03,
625,-8.00e-01,2.00e-02,
626,-8.00e-01,-4.00e-03,
627,8.00e-01,2.00e-02,
628,1.20e+00,-4.00e-03,
629,-4.00e-01,2.00e-02,
630,-4.00e-01,-4.00e-03,
631,4.00e-01,2.00e-02,
632,-4.00e-01,2.00e-02,
633,1.20e+00,0.00e+00,
634,1.20e+00,0.00e+00,
635,-4.00e-01,2.40e-02,
636,4.00e-01,0.00e+00,
637,-8.00e-01,2.40e-02,
638,-4.00e-01,4.00e-03,
639,8.00e-01,2.40e-02,
640,0.00e+00,0.00e+00,
641,1.20e+00,2.80e-02,
642,1.20e+00,4.00e-03,
643,-4.00e-01,2.80e-02,
644,-4.00e-01,2.80e-02,
645,8.00e-01,8.00e-03,
646,0.00e+00,8.00e-03,
647,1.20e+00,2.80e-02,
648,1.20e+00,3.20e-02,
649,-4.00e-01,8.00e-03,
650,4.00e-01,3.20e-02,
651,-8.00e-01,8.00e-03,
652,4.00e-01,1.20e-02,
653,-8.00e-01,3.60e-02,
654,-8.00e-01,1.20e-02,
655,1.20e+00,3.60e-02,
656,1.20e+00,3.60e-02,
657,0.00e+00,1.20e-02,
658,8.00e-01,1.60e-02,
659,-4.00e-01,3.60e-02,
660,-4.00e-01,1.60e-02,
661,8.00e-01,3.60e-02,
662,4.00e-01,4.00e-02,
663,-8.00e-01,1.60e-02,
664,-4.00e-01,1.60e-02,
665,8.00e-01,4.00e-02,
666,1.20e+00,2.00e-02,
667,0.00e+00,4.00e-02,
668,4.00e-01,2.00e-02,
669,1.60e+00,4.40e-02,
670,4.00e-01,2.00e-02,
671,1.60e+00,5.60e-02,
672,1.60e+00,4.00e-02,
673,4.00e-01,2.00e-02,
674,1.20e+00,2.00e-02,
675,-4.00e-01,4.40e-02,
676,-4.00e-01,4.40e-02,
677,1.20e+00,2.00e-02,
678,4.00e-01,4.40e-02,
679,2.80e+00,2.00e-02,
680,2.40e+00,4.40e-02,
681,8.00e-01,2.00e-02,
682,2.00e+00,2.40e-02,
683,4.00e-01,4.40e-02,
684,1.60e+00,4.40e-02,
685,8.00e-01,2.40e-02,
686,1.60e+00,4.80e-02,
687,4.00e-01,2.40e-02,
688,1.60e+00,4.40e-02,
689,8.00e-01,2.40e-02,
690,8.00e-01,4.80e-02,
691,2.00e+00,2.40e-02,
692,2.40e+00,2.40e-02,
693,4.00e-01,4.80e-02,
694,1.20e+00,4.80e-02,
695,0.00e+00,2.40e-02,
696,4.00e-01,2.40e-02,
697,1.60e+00,4.80e-02,
698,1.20e+00,2.40e-02,
699,2.80e+00,4.80e-02,
700,2.00e+00,4.80e-02,
701,4.00e-01,2.80e-02,
702,2.40e+00,2.40e-02,
703,8.00e-01,4.80e-02,
704,1.60e+00,4.80e-02,
705,4.00e-01,2.80e-02,
706,1.20e+00,4.80e-02,
707,0.00e+00,2.40e-02,
708,8.00e-01,2.40e-02,
709,0.00e+00,4.80e-02,
710,0.00e+00,4.80e-02,
711,2.00e+00,2.80e-02,
712,1.60e+00,4.80e-02,
713,0.00e+00,2.80e-02,
714,1.20e+00,2.80e-02,
715,0.00e+00,4.80e-02,
716,4.00e-01,5.20e-02,
717,1.60e+00,2.40e-02,
718,1.60e+00,2.40e-02,
719,4.00e-01,5.20e-02,
720,0.00e+00,2.80e-02,
721,1.20e+00,5.20e-02,
722,1.20e+00,2.80e-02,
723,0.00e+00,5.20e-02,
724,8.00e-01,5.60e-02,
725,0.00e+00,2.80e-02,
726,8.00e-01,5.20e-02,
727,-4.00e-01,2.80e-02,
728,0.00e+00,5.20e-02,
729,1.20e+00,2.80e-02,
730,1.20e+00,5.60e-02,
731,4.00e-01,2.80e-02,
732,1.20e+00,3.20e-02,
733,4.00e-01,5.60e-02,
734,0.00e+00,3.20e-02,
735,1.60e+00,5.60e-02,
736,1.60e+00,5.20e-02,
737,8.00e-01,3.20e-02,
738,1.20e+00,5.60e-02,
739,0.00e+00,3.20e-02,
740,0.00e+00,3.20e-02,
741,1.20e+00,2.20e-01,
742,1.20e+00,3.60e-02,
743,-1.20e+00,6.00e-02,
744,-8.00e-01,4.40e-02,
745,1.60e+00,6.80e-02,
746,1.60e+00,7.20e-02,
747,4.00e-01,4.40e-02,
748,1.20e+00,4.80e-02,
749,0.00e+00,7.60e-02,
750,0.00e+00,7.20e-02,
751,1.60e+00,4.80e-02,
752,8.00e-01,5.20e-02,
753,0.00e+00,7.20e-02,
754,0.00e+00,5.20e-02,
755,1.20e+00,7.20e-02,
756,-4.00e-01,7.20e-02,
757,8.00e-01,4.80e-02,
758,-4.00e-01,7.20e-02,
759,1.20e+00,4.80e-02,
760,1.60e+00,4.40e-02,
761,0.00e+00,6.80e-02,
762,8.00e-01,6.80e-02,
763,-4.00e-01,4.00e-02,
764,4.00e-01,6.80e-02,
765,-8.00e-01,4.00e-02,
766,-4.00e-01,4.40e-02,
767,8.00e-01,6.40e-02,
768,8.00e-01,4.00e-02,
769,0.00e+00,6.40e-02,
770,8.00e-01,3.60e-02,
771,-4.00e-01,6.00e-02,
772,0.00e+00,3.60e-02,
773,1.60e+00,6.00e-02,
774,1.20e+00,6.00e-02,
775,0.00e+00,3.20e-02,
776,4.00e-01,5.60e-02,
777,-2.00e+00,3.20e-02,
778,-1.60e+00,5.20e-02,
779,-3.20e+00,3.20e-02,
780,-2.80e+00,5.20e-02,
781,-1.60e+00,2.80e-02,
782,-1.60e+00,5.20e-02,
783,-2.80e+00,2.80e-02,
784,-2.00e+00,5.20e-02,
785,0.00e+00,2.40e-02,
786,-8.00e-01,4.80e-02,
787,4.00e-01,2.80e-02,
788,0.00e+00,4.40e-02,
789,1.20e+00,2.40e-02,
790,-4.00e-01,4.40e-02,
791,8.00e-01,2.40e-02,
792,-4.00e-01,4.40e-02,
793,8.00e-01,2.00e-02,
794,0.00e+00,2.00e-02,
795,1.20e+00,4.80e-02,
796,8.00e-01,2.00e-02,
797,-4.00e-01,4.00e-02,
798,4.00e-01,4.00e-02,
799,2.00e+00,1.60e-02,
800,2.40e+00,4.00e-02,
801,8.00e-01,1.60e-02,
802,8.00e-01,1.60e-02,
803,1.60e+00,4.00e-02,
804,1.20e+00,3.60e-02,
805,4.00e-01,1.60e-02,
806,4.00e-01,4.00e-02,
807,1.60e+00,1.20e-02,
808,8.00e-01,3.60e-02,
809,2.40e+00,1.60e-02,
810,2.00e+00,3.60e-02,
811,4.00e-01,1.20e-02,
812,4.00e-01,1.20e-02,
813,1.60e+00,3.60e-02,
814,4.00e-01,3.60e-02,
815,1.60e+00,1.20e-02,
816,1.60e+00,3.60e-02,
817,4.00e-01,1.60e-02,
818,0.00e+00,1.60e-02,
819,1.20e+00,3.60e-02,
820,0.00e+00,3.60e-02,
821,1.20e+00,1.20e-02,
822,1.60e+00,-4.00e-03,
823,4.00e-01,4.00e-02,
824,4.00e-01,3.60e-02,
825,1.60e+00,1.20e-02,
826,1.60e+00,3.60e-02,
827,4.00e-01,1.60e-02,
828,0.00e+00,3.60e-02,
829,1.60e+00,1.20e-02,
830,0.00e+00,3.20e-02,
831,1.60e+00,1.20e-02,
832,1.60e+00,3.20e-02,
833,0.00e+00,1.20e-02,
834,8.00e-01,3.20e-02,
835,-4.00e-01,8.00e-03,
836,0.00e+00,1.20e-02,
837,1.20e+00,3.20e-02,
838,1.20e+00,3.20e-02,
839,0.00e+00,1.20e-02,
840,0.00e+00,3.20e-02,
841,1.20e+00,8.00e-03,
842,8.00e-01,3.20e-02,
843,-4.00e-01,8.00e-03,
844,0.00e+00,3.20e-02,
845,-8.00e-01,8.00e-03,
846,0.00e+00,8.00e-03,
847,-1.20e+00,3.20e-02,
848,-8.00e-01,8.00e-03,
849,4.00e-01,3.20e-02,
850,4.00e-01,2.80e-02,
851,-8.00e-01,8.00e-03,
852,-8.00e-01,2.80e-02,
853,4.00e-01,4.00e-03,
854,-4.00e-01,2.80e-02,
855,8.00e-01,4.00e-03,
856,0.00e+00,2.80e-02,
857,8.00e-01,4.00e-03,
858,-4.00e-01,8.00e-03,
859,8.00e-01,2.80e-02,
