data/oscilloscope_data/NewFile4.csv

X,CH1,CH2,Start,Increment,
Sequence,Volt,Volt,-5.960000e-02,1.000000e-04
0,0.00e+00,1.20e-02,
1,1.60e+00,-1.60e-02,
2,0.00e+00,-1.20e-02,
3,1.60e+00,1.20e-02,
4,8.00e-01,-1.20e-02,
5,0.00e+00,1.20e-02,
6,0.00e+00,1.60e-02,
7,1.60e+00,-1.20e-02,
8,1.60e+00,1.60e-02,
9,0.00e+00,-1.20e-02,
10,0.00e+00,1.60e-02,
11,1.60e+00,-8.00e-03,
12,0.00e+00,-8.00e-03,
13,1.60e+00,2.00e-02,
14,0.00e+00,-8.00e-03,
15,1.60e+00,2.00e-02,
16,1.60e+00,-4.00e-03,
17,0.00e+00,2.00e-02,
18,0.00e+00,-4.00e-03,
19,1.60e+00,2.40e-02,
20,0.00e+00,-8.00e-03,
21,1.60e+00,2.40e-02,
22,1.60e+00,0.00e+00,
23,0.00e+00,2.40e-02,
24,0.00e+00,2.40e-02,
25,1.60e+00,0.00e+00,
26,1.60e+00,2.40e-02,
27,0.00e+00,0.00e+00,
28,1.60e+00,0.00e+00,
29,0.00e+00,2.80e-02,
30,1.60e+00,4.00e-03,
31,0.00e+00,2.80e-02,
32,0.00e+00,2.80e-02,
33,1.60e+00,4.00e-03,
34,0.00e+00,8.00e-03,
35,1.60e+00,3.20e-02,
36,1.60e+00,8.00e-03,
37,0.00e+00,3.60e-02,
38,1.60e+00,3.20e-02,
39,0.00e+00,8.00e-03,
40,1.60e+00,3.60e-02,
41,0.00e+00,8.00e-03,
42,0.00e+00,1.20e-02,
43,1.60e+00,4.00e-02,
44,0.00e+00,1.20e-02,
45,1.60e+00,4.00e-02,
46,1.60e+00,1.20e-02,
47,0.00e+00,4.00e-02,
48,1.60e+00,4.00e-02,
49,0.00e+00,1.60e-02,
50,1.60e+00,1.60e-02,
51,0.00e+00,4.00e-02,
52,1.60e+00,4.00e-02,
53,0.00e+00,1.60e-02,
54,1.60e+00,4.00e-02,
55,0.00e+00,1.60e-02,
56,1.60e+00,1.60e-02,
57,0.00e+00,5.20e-02,
58,0.00e+00,4.00e-02,
59,1.60e+00,1.60e-02,
60,1.60e+00,1.60e-02,
61,0.00e+00,4.00e-02,
62,1.60e+00,1.60e-02,
63,0.00e+00,4.40e-02,
64,0.00e+00,1.60e-02,
65,1.60e+00,4.40e-02,
66,1.60e+00,4.40e-02,
67,0.00e+00,1.60e-02,
68,8.00e-01,2.00e-02,
69,1.60e+00,4.40e-02,
70,1.60e+00,2.00e-02,
71,0.00e+00,4.40e-02,
72,1.60e+00,2.00e-02,
73,8.00e-01,4.40e-02,
74,1.60e+00,2.00e-02,
75,0.00e+00,4.40e-02,
76,1.60e+00,4.40e-02,
77,0.00e+00,2.00e-02,
78,1.60e+00,2.00e-02,
79,0.00e+00,4.80e-02,
80,0.00e+00,2.40e-02,
81,1.60e+00,4.80e-02,
82,1.60e+00,2.40e-02,
83,0.00e+00,4.80e-02,
84,1.60e+00,4.80e-02,
85,8.00e-01,2.40e-02,
86,1.60e+00,4.80e-02,
87,0.00e+00,2.40e-02,
88,1.60e+00,4.80e-02,
89,0.00e+00,2.00e-02,
90,1.60e+00,4.80e-02,
91,0.00e+00,2.40e-02,
92,0.00e+00,2.40e-02,
93,1.60e+00,5.20e-02,
94,0.00e+00,4.80e-02,
95,1.60e+00,2.00e-02,
96,1.60e+00,4.80e-02,
97,0.00e+00,2.00e-02,
98,1.60e+00,2.40e-02,
99,0.00e+00,4.80e-02,
100,1.60e+00,4.80e-02,
101,0.00e+00,2.40e-02,
102,0.00e+00,4.80e-02,
103,1.60e+00,2.40e-02,
104,1.60e+00,4.80e-02,
105,0.00e+00,2.40e-02,
106,0.00e+00,4.80e-02,
107,1.60e+00,2.40e-02,
108,0.00e+00,2.40e-02,
109,1.60e+00,5.20e-02,
110,1.60e+00,2.40e-02,
111,0.00e+00,5.20e-02,
112,1.60e+00,2.80e-02,
113,0.00e+00,5.20e-02,
114,0.00e+00,5.20e-02,
115,1.60e+00,2.40e-02,
116,1.60e+00,2.40e-02,
117,0.00e+00,5.60e-02,
118,0.00e+00,5.20e-02,
119,1.60e+00,2.80e-02,
120,1.60e+00,5.20e-02,
121,0.00e+00,2.80e-02,
122,8.00e-01,5.20e-02,
123,-8.00e-01,2.80e-02,
124,0.00e+00,5.20e-02,
125,1.60e+00,2.80e-02,
126,0.00e+00,2.80e-02,
127,1.60e+00,5.60e-02,
128,0.00e+00,2.16e-01,
129,1.60e+00,3.20e-02,
130,0.00e+00,3.60e-02,
131,1.60e+00,6.80e-02,
132,0.00e+00,4.00e-02,
133,2.40e+00,6.80e-02,
134,2.40e+00,4.40e-02,
135,0.00e+00,7.20e-02,
136,8.00e-01,7.20e-02,
137,2.40e+00,4.40e-02,
138,1.60e+00,4.40e-02,
139,0.00e+00,7.60e-02,
140,0.00e+00,7.20e-02,
141,1.60e+00,4.80e-02,
142,0.00e+00,4.40e-02,
143,1.60e+00,7.20e-02,
144,0.00e+00,7.20e-02,
145,2.40e+00,4.40e-02,
146,2.40e+00,7.20e-02,
147,0.00e+00,4.40e-02,
148,1.60e+00,4.40e-02,
149,0.00e+00,6.80e-02,
150,1.60e+00,3.60e-02,
151,0.00e+00,6.80e-02,
152,1.60e+00,6.40e-02,
153,0.00e+00,4.00e-02,
154,1.60e+00,6.40e-02,
155,8.00e-01,3.60e-02,
156,8.00e-01,6.40e-02,
157,1.60e+00,3.60e-02,
158,1.60e+00,6.00e-02,
159,0.00e+00,3.20e-02,
160,8.00e-01,3.20e-02,
161,1.60e+00,6.00e-02,
162,2.40e+00,5.60e-02,
163,0.00e+00,3.20e-02,
164,1.60e+00,5.60e-02,
165,0.00e+00,2.80e-02,
166,1.60e+00,5.20e-02,
167,0.00e+00,2.80e-02,
168,1.60e+00,2.80e-02,
169,0.00e+00,5.60e-02,
170,1.60e+00,5.20e-02,
171,0.00e+00,2.40e-02,
172,8.00e-01,4.80e-02,
173,1.60e+00,2.40e-02,
174,8.00e-01,4.80e-02,
175,1.60e+00,2.00e-02,
176,1.60e+00,4.80e-02,
177,8.00e-01,2.00e-02,
178,1.60e+00,4.40e-02,
179,8.00e-01,1.60e-02,
180,1.60e+00,4.40e-02,
181,8.00e-01,1.60e-02,
182,1.60e+00,4.00e-02,
183,0.00e+00,1.60e-02,
184,1.60e+00,4.40e-02,
185,0.00e+00,1.60e-02,
186,1.60e+00,4.00e-02,
187,0.00e+00,1.60e-02,
188,0.00e+00,1.60e-02,
189,1.60e+00,4.00e-02,
190,1.60e+00,1.60e-02,
191,0.00e+00,4.00e-02,
192,0.00e+00,4.00e-02,
193,1.60e+00,1.20e-02,
194,1.60e+00,1.20e-02,
195,0.00e+00,4.00e-02,
196,0.00e+00,1.60e-02,
197,1.60e+00,4.00e-02,
198,1.60e+00,1.20e-02,
199,0.00e+00,4.00e-02,
200,1.60e+00,1.20e-02,
201,0.00e+00,3.60e-02,
202,1.60e+00,4.00e-02,
203,0.00e+00,1.20e-02,
204,1.60e+00,1.20e-02,
205,0.00e+00,4.00e-02,
206,0.00e+00,1.20e-02,
207,1.60e+00,3.60e-02,
208,0.00e+00,3.60e-02,
209,1.60e+00,1.20e-02,
210,1.60e+00,4.00e-03,
211,0.00e+00,4.00e-02,
212,1.60e+00,3.60e-02,
213,0.00e+00,1.20e-02,
214,0.00e+00,3.60e-02,
215,1.60e+00,8.00e-03,
216,1.60e+00,3.60e-02,
217,0.00e+00,8.00e-03,
218,1.60e+00,8.00e-03,
219,0.00e+00,3.60e-02,
220,0.00e+00,3.60e-02,
221,1.60e+00,8.00e-03,
222,0.00e+00,3.20e-02,
223,1.60e+00,8.00e-03,
224,0.00e+00,8.00e-03,
225,1.60e+00,3.60e-02,
226,1.60e+00,3.20e-02,
227,0.00e+00,4.00e-03,
228,0.00e+00,3.20e-02,
229,1.60e+00,8.00e-03,
230,1.60e+00,8.00e-03,
231,0.00e+00,3.20e-02,
232,1.60e+00,3.20e-02,
233,0.00e+00,4.00e-03,
234,1.60e+00,2.80e-02,
235,0.00e+00,4.00e-03,
236,1.60e+00,2.80e-02,
237,0.00e+00,4.00e-03,
238,0.00e+00,2.80e-02,
239,1.60e+00,4.00e-03,
240,1.60e+00,3.20e-02,
241,0.00e+00,4.00e-03,
242,1.60e+00,4.00e-03,
243,0.00e+00,2.80e-02,
244,1.60e+00,4.00e-03,
245,0.00e+00,2.80e-02,
246,1.60e+00,2.80e-02,
247,0.00e+00,4.00e-03,
248,1.60e+00,0.00e+00,
249,0.00e+00,2.80e-02,
250,1.60e+00,2.80e-02,
251,0.00e+00,0.00e+00,
252,0.00e+00,2.40e-02,
253,1.60e+00,0.00e+00,
254,1.60e+00,0.00e+00,
255,0.00e+00,2.40e-02,
256,1.60e+00,0.00e+00,
257,0.00e+00,2.40e-02,
258,1.60e+00,2.40e-02,
259,0.00e+00,-4.00e-03,
260,1.60e+00,2.40e-02,
261,0.00e+00,-4.00e-03,
262,1.60e+00,2.40e-02,
263,0.00e+00,-4.00e-03,
264,1.60e+00,-4.00e-03,
265,8.00e-01,2.40e-02,
266,1.60e+00,2.40e-02,
267,8.00e-01,-4.00e-03,
268,8.00e-01,-4.00e-03,
269,1.60e+00,2.40e-02,
270,1.60e+00,2.00e-02,
271,8.00e-01,-4.00e-03,
272,1.60e+00,-4.00e-03,
273,8.00e-01,2.40e-02,
274,1.60e+00,2.40e-02,
275,8.00e-01,-4.00e-03,
276,1.60e+00,2.40e-02,
277,0.00e+00,-4.00e-03,
278,1.60e+00,2.40e-02,
279,8.00e-01,-4.00e-03,
280,1.60e+00,2.40e-02,
281,0.00e+00,0.00e+00,
282,1.60e+00,2.40e-02,
283,0.00e+00,-4.00e-03,
284,1.60e+00,0.00e+00,
285,0.00e+00,2.40e-02,
286,1.60e+00,-4.00e-03,
287,0.00e+00,2.80e-02,
288,1.60e+00,2.40e-02,
289,0.00e+00,-1.56e-01,
290,2.40e+00,2.40e-02,
291,0.00e+00,-8.00e-03,
292,1.60e+00,1.60e-02,
293,-8.00e-01,-1.20e-02,
294,8.00e-01,-1.60e-02,
295,0.00e+00,1.20e-02,
296,0.00e+00,8.00e-03,
297,1.60e+00,-2.00e-02,
298,0.00e+00,8.00e-03,
299,1.60e+00,-2.00e-02,
300,0.00e+00,-1.60e-02,
301,1.60e+00,8.00e-03,
302,0.00e+00,8.00e-03,
303,1.60e+00,-2.00e-02,
304,8.00e-01,-1.60e-02,
305,0.00e+00,8.00e-03,
306,0.00e+00,-1.60e-02,
307,1.60e+00,1.20e-02,
308,0.00e+00,-1.60e-02,
309,1.60e+00,1.20e-02,
310,0.00e+00,1.20e-02,
311,1.60e+00,-1.60e-02,
312,0.00e+00,-1.20e-02,
313,1.60e+00,1.60e-02,
314,8.00e-01,-1.20e-02,
315,-8.00e-01,1.60e-02,
316,8.00e-01,-8.00e-03,
317,-8.00e-01,1.60e-02,
318,0.00e+00,-8.00e-03,
319,1.60e+00,2.00e-02,
320,0.00e+00,1.60e-02,
321,1.60e+00,-8.00e-03,
322,0.00e+00,-4.00e-03,
323,1.60e+00,2.00e-02,
324,8.00e-01,-4.00e-03,
325,0.00e+00,2.00e-02,
326,0.00e+00,-4.00e-03,
327,1.60e+00,2.40e-02,
328,8.00e-01,2.40e-02,
329,0.00e+00,0.00e+00,
330,8.00e-01,2.40e-02,
331,0.00e+00,0.00e+00,
332,0.00e+00,2.40e-02,
333,1.60e+00,0.00e+00,
334,1.60e+00,2.80e-02,
335,0.00e+00,0.00e+00,
336,1.60e+00,0.00e+00,
337,-8.00e-01,2.80e-02,
338,0.00e+00,2.80e-02,
339,1.60e+00,0.00e+00,
340,1.60e+00,4.00e-03,
341,0.00e+00,2.80e-02,
342,0.00e+00,2.80e-02,
343,1.60e+00,4.00e-03,
344,1.60e+00,4.00e-03,
345,0.00e+00,3.20e-02,
346,0.00e+00,3.20e-02,
347,1.60e+00,8.00e-03,
348,0.00e+00,8.00e-03,
349,1.60e+00,3.60e-02,
350,1.60e+00,8.00e-03,
351,0.00e+00,3.60e-02,
352,1.60e+00,3.60e-02,
353,0.00e+00,4.00e-03,
354,0.00e+00,1.20e-02,
355,1.60e+00,4.00e-02,
356,1.60e+00,3.60e-02,
357,0.00e+00,1.20e-02,
358,1.60e+00,4.00e-02,
359,0.00e+00,1.20e-02,
360,0.00e+00,1.60e-02,
361,1.60e+00,4.00e-02,
362,1.60e+00,4.00e-02,
363,0.00e+00,1.60e-02,
364,1.60e+00,5.60e-02,
365,0.00e+00,1.60e-02,
366,1.60e+00,1.60e-02,
367,0.00e+00,4.00e-02,
368,0.00e+00,1.60e-02,
369,1.60e+00,4.40e-02,
370,0.00e+00,4.40e-02,
371,1.60e+00,1.60e-02,
372,1.60e+00,1.60e-02,
373,0.00e+00,4.40e-02,
374,1.60e+00,2.00e-02,
375,0.00e+00,4.40e-02,
376,0.00e+00,4.40e-02,
377,1.60e+00,2.00e-02,
378,1.60e+00,2.00e-02,
379,0.00e+00,4.40e-02,
380,0.00e+00,2.00e-02,
381,1.60e+00,4.80e-02,
382,1.60e+00,2.00e-02,
383,0.00e+00,4.80e-02,
384,1.60e+00,2.00e-02,
385,0.00e+00,4.80e-02,
386,1.60e+00,4.80e-02,
387,0.00e+00,2.00e-02,
388,1.60e+00,2.40e-02,
389,0.00e+00,4.80e-02,
390,0.00e+00,4.80e-02,
391,1.60e+00,2.40e-02,
392,1.60e+00,2.40e-02,
393,0.00e+00,4.80e-02,
394,0.00e+00,2.40e-02,
395,1.60e+00,4.80e-02,
396,0.00e+00,4.80e-02,
397,1.60e+00,2.40e-02,
398,1.60e+00,5.20e-02,
399,0.00e+00,2.40e-02,
400,0.00e+00,4.80e-02,
401,1.60e+00,2.40e-02,
402,1.60e+00,5.20e-02,
403,0.00e+00,2.40e-02,
404,0.00e+00,2.80e-02,
405,1.60e+00,4.80e-02,
406,1.60e+00,2.40e-02,
407,0.00e+00,5.20e-02,
408,1.60e+00,2.80e-02,
409,0.00e+00,5.20e-02,
410,0.00e+00,5.20e-02,
411,1.60e+00,2.40e-02,
412,0.00e+00,2.80e-02,
413,1.60e+00,5.20e-02,
414,1.60e+00,2.80e-02,
415,0.00e+00,5.20e-02,
416,1.60e+00,2.40e-02,
417,0.00e+00,5.20e-02,
418,0.00e+00,2.80e-02,
419,1.60e+00,5.20e-02,
420,1.60e+00,5.20e-02,
421,0.00e+00,2.80e-02,
422,0.00e+00,2.80e-02,
423,1.60e+00,5.20e-02,
424,1.60e+00,2.80e-02,
425,0.00e+00,5.20e-02,
426,0.00e+00,2.80e-02,
427,1.60e+00,5.20e-02,
428,0.00e+00,5.20e-02,
429,1.60e+00,2.80e-02,
430,8.00e-01,2.80e-02,
431,-8.00e-01,5.20e-02,
432,1.60e+00,5.20e-02,
433,-8.00e-01,2.80e-02,
434,0.00e+00,2.80e-02,
435,2.40e+00,2.16e-01,
436,2.40e+00,3.60e-02,
437,0.00e+00,6.40e-02,
438,1.60e+00,4.40e-02,
439,0.00e+00,6.80e-02,
440,0.00e+00,4.40e-02,
441,2.40e+00,7.60e-02,
442,1.60e+00,4.80e-02,
443,8.00e-01,7.20e-02,
444,8.00e-01,4.80e-02,
445,2.40e+00,7.20e-02,
446,2.40e+00,7.60e-02,
447,8.00e-01,4.40e-02,
448,1.60e+00,7.20e-02,
449,0.00e+00,4.80e-02,
450,8.00e-01,7.20e-02,
451,2.40e+00,4.40e-02,
452,1.60e+00,7.20e-02,
453,0.00e+00,4.40e-02,
454,1.60e+00,6.80e-02,
455,0.00e+00,4.40e-02,
456,1.60e+00,4.00e-02,
457,0.00e+00,6.80e-02,
458,0.00e+00,6.40e-02,
459,1.60e+00,4.00e-02,
460,1.60e+00,6.40e-02,
461,0.00e+00,4.00e-02,
462,0.00e+00,6.40e-02,
463,1.60e+00,3.60e-02,
464,1.60e+00,3.60e-02,
465,0.00e+00,6.40e-02,
466,1.60e+00,6.40e-02,
467,0.00e+00,3.20e-02,
468,1.60e+00,3.20e-02,
469,0.00e+00,6.00e-02,
470,8.00e-01,5.60e-02,
471,2.40e+00,3.20e-02,
472,1.60e+00,5.60e-02,
473,8.00e-01,2.80e-02,
474,8.00e-01,5.20e-02,
475,1.60e+00,2.80e-02,
476,8.00e-01,2.80e-02,
477,2.40e+00,5.20e-02,
478,2.40e+00,5.20e-02,
479,8.00e-01,2.40e-02,
480,8.00e-01,2.40e-02,
481,2.40e+00,5.20e-02,
482,8.00e-01,4.80e-02,
483,2.40e+00,2.40e-02,
484,1.60e+00,2.40e-02,
485,8.00e-01,4.80e-02,
486,0.00e+00,4.80e-02,
487,1.60e+00,2.00e-02,
488,1.60e+00,4.40e-02,
489,0.00e+00,2.00e-02,
490,1.60e+00,4.40e-02,
491,8.00e-01,1.60e-02,
492,0.00e+00,1.60e-02,
493,1.60e+00,4.40e-02,
494,1.60e+00,1.60e-02,
495,0.00e+00,4.00e-02,
496,1.60e+00,4.00e-02,
497,0.00e+00,1.20e-02,
498,1.60e+00,4.00e-02,
499,0.00e+00,1.20e-02,
500,1.60e+00,1.20e-02,
501,0.00e+00,4.00e-02,
502,1.60e+00,3.60e-02,
503,0.00e+00,1.20e-02,
504,1.60e+00,1.20e-02,
505,0.00e+00,4.00e-02,
506,1.60e+00,3.60e-02,
507,0.00e+00,8.00e-03,
508,1.60e+00,8.00e-03,
509,0.00e+00,3.60e-02,
510,1.60e+00,3.60e-02,
511,0.00e+00,8.00e-03,
512,1.60e+00,3.20e-02,
513,0.00e+00,4.00e-03,
514,1.60e+00,3.20e-02,
515,0.00e+00,8.00e-03,
516,0.00e+00,0.00e+00,
517,1.60e+00,3.60e-02,
518,0.00e+00,3.60e-02,
519,1.60e+00,8.00e-03,
520,1.60e+00,3.60e-02,
521,0.00e+00,8.00e-03,
522,1.60e+00,8.00e-03,
523,0.00e+00,3.60e-02,
524,0.00e+00,3.20e-02,
525,1.60e+00,8.00e-03,
526,0.00e+00,3.20e-02,
527,1.60e+00,8.00e-03,
528,1.60e+00,8.00e-03,
529,0.00e+00,3.60e-02,
530,1.60e+00,8.00e-03,
531,0.00e+00,3.20e-02,
532,8.00e-01,8.00e-03,
533,1.60e+00,3.20e-02,
534,8.00e-01,4.00e-03,
535,2.40e+00,3.20e-02,
536,1.60e+00,2.80e-02,
537,0.00e+00,8.00e-03,
538,1.60e+00,4.00e-03,
539,0.00e+00,3.20e-02,
540,0.00e+00,2.80e-02,
541,1.60e+00,4.00e-03,
542,1.60e+00,2.80e-02,
543,0.00e+00,4.00e-03,
544,0.00e+00,2.80e-02,
545,1.60e+00,4.00e-03,
546,1.60e+00,4.00e-03,
547,0.00e+00,3.20e-02,
548,1.60e+00,2.80e-02,
549,0.00e+00,4.00e-03,
550,0.00e+00,2.80e-02,
551,2.40e+00,4.00e-03,
552,0.00e+00,4.00e-03,
553,1.60e+00,2.80e-02,
554,1.60e+00,2.80e-02,
555,0.00e+00,4.00e-03,
556,0.00e+00,2.80e-02,
557,1.60e+00,0.00e+00,
558,1.60e+00,4.00e-03,
559,0.00e+00,2.40e-02,
560,0.00e+00,2.80e-02,
561,1.60e+00,0.00e+00,
562,1.60e+00,2.40e-02,
563,8.00e-01,0.00e+00,
564,1.60e+00,0.00e+00,
565,0.00e+00,2.80e-02,
566,1.60e+00,0.00e+00,
567,0.00e+00,2.40e-02,
568,1.60e+00,2.40e-02,
569,0.00e+00,0.00e+00,
570,1.60e+00,2.40e-02,
571,0.00e+00,0.00e+00,
572,0.00e+00,0.00e+00,
573,1.60e+00,2.40e-02,
574,1.60e+00,0.00e+00,
575,0.00e+00,2.40e-02,
576,1.60e+00,2.40e-02,
577,0.00e+00,-4.00e-03,
578,1.60e+00,2.40e-02,
579,0.00e+00,-4.00e-03,
580,1.60e+00,-4.00e-03,
581,0.00e+00,2.00e-02,
582,1.60e+00,-4.00e-03,
583,0.00e+00,2.40e-02,
584,1.60e+00,-4.00e-03,
585,0.00e+00,2.40e-02,
586,1.60e+00,2.00e-02,
587,0.00e+00,-4.00e-03,
588,1.60e+00,2.00e-02,
589,0.00e+00,-8.00e-03,
590,1.60e+00,2.00e-02,
591,0.00e+00,-4.00e-03,
592,1.60e+00,-4.00e-03,
593,0.00e+00,2.40e-02,
594,1.60e+00,2.40e-02,
595,0.00e+00,-1.64e-01,
596,8.00e-01,-1.20e-02,
597,2.40e+00,2.00e-02,
598,1.60e+00,1.60e-02,
599,0.00e+00,-1.60e-02,
600,8.00e-01,-1.60e-02,
601,0.00e+00,1.20e-02,
602,8.00e-01,-1.60e-02,
603,0.00e+00,1.20e-02,
604,0.00e+00,8.00e-03,
605,8.00e-01,-1.60e-02,
606,8.00e-01,8.00e-03,
607,0.00e+00,-1.60e-02,
608,8.00e-01,-1.60e-02,
609,0.00e+00,8.00e-03,
610,0.00e+00,8.00e-03,
611,1.60e+00,-1.60e-02,
612,0.00e+00,-1.60e-02,
613,8.00e-01,1.20e-02,
614,0.00e+00,-1.60e-02,
615,1.60e+00,1.20e-02,
616,0.00e+00,1.20e-02,
617,1.60e+00,-1.20e-02,
618,-8.00e-01,-8.00e-03,
619,1.60e+00,1.60e-02,
620,1.60e+00,-8.00e-03,
621,0.00e+00,1.60e-02,
622,1.60e+00,1.60e-02,
623,0.00e+00,-8.00e-03,
624,1.60e+00,-8.00e-03,
625,0.00e+00,2.00e-02,
626,0.00e+00,-4.00e-03,
627,1.60e+00,2.00e-02,
628,0.00e+00,-4.00e-03,
629,1.60e+00,2.40e-02,
630,1.60e+00,0.00e+00,
631,0.00e+00,2.40e-02,
632,0.00e+00,2.40e-02,
633,1.60e+00,0.00e+00,
634,2.40e+00,2.80e-02,
635,0.00e+00,0.00e+00,
636,0.00e+00,0.00e+00,
637,1.60e+00,2.80e-02,
638,0.00e+00,0.00e+00,
639,1.60e+00,2.80e-02,
640,0.00e+00,2.80e-02,
641,2.40e+00,0.00e+00,
642,1.60e+00,2.80e-02,
643,0.00e+00,4.00e-03,
644,1.60e+00,4.00e-03,
645,0.00e+00,3.20e-02,
646,1.60e+00,8.00e-03,
647,0.00e+00,3.20e-02,
648,0.00e+00,8.00e-03,
649,1.60e+00,3.20e-02,
650,0.00e+00,3.20e-02,
651,1.60e+00,8.00e-03,
652,1.60e+00,8.00e-03,
653,0.00e+00,3.20e-02,
654,1.60e+00,3.20e-02,
655,0.00e+00,8.00e-03,
656,1.60e+00,8.00e-03,
657,0.00e+00,3.60e-02,
658,1.60e+00,8.00e-03,
659,0.00e+00,3.60e-02,
660,0.00e+00,8.00e-03,
661,1.60e+00,3.60e-02,
662,1.60e+00,3.60e-02,
663,0.00e+00,1.20e-02,
664,1.60e+00,3.60e-02,
665,0.00e+00,1.20e-02,
666,0.00e+00,1.20e-02,
667,1.60e+00,4.00e-02,
668,1.60e+00,1.20e-02,
669,0.00e+00,4.00e-02,
670,1.60e+00,5.20e-02,
671,0.00e+00,1.20e-02,
672,1.60e+00,1.60e-02,
673,0.00e+00,4.00e-02,
674,0.00e+00,4.00e-02,
675,1.60e+00,1.20e-02,
676,0.00e+00,1.60e-02,
677,1.60e+00,4.40e-02,
678,1.60e+00,1.60e-02,
679,8.00e-01,4.40e-02,
680,1.60e+00,1.60e-02,
681,0.00e+00,4.40e-02,
682,0.00e+00,2.00e-02,
683,1.60e+00,4.40e-02,
684,1.60e+00,2.00e-02,
685,0.00e+00,4.80e-02,
686,1.60e+00,2.00e-02,
687,0.00e+00,4.80e-02,
688,1.60e+00,4.80e-02,
689,0.00e+00,2.00e-02,
690,1.60e+00,2.40e-02,
691,0.00e+00,4.80e-02,
692,0.00e+00,4.80e-02,
693,1.60e+00,2.00e-02,
694,0.00e+00,4.80e-02,
695,1.60e+00,2.40e-02,
696,1.60e+00,4.80e-02,
697,0.00e+00,2.40e-02,
698,0.00e+00,2.40e-02,
699,8.00e-01,4.80e-02,
700,8.00e-01,2.40e-02,
701,0.00e+00,4.80e-02,
702,0.00e+00,4.80e-02,
703,1.60e+00,2.40e-02,
704,0.00e+00,4.80e-02,
705,8.00e-01,2.40e-02,
706,0.00e+00,2.40e-02,
707,1.60e+00,5.20e-02,
708,0.00e+00,2.40e-02,
709,1.60e+00,5.20e-02,
710,0.00e+00,5.20e-02,
711,1.60e+00,2.40e-02,
712,8.00e-01,5.20e-02,
713,0.00e+00,2.40e-02,
714,0.00e+00,2.80e-02,
715,1.60e+00,5.20e-02,
716,1.60e+00,5.20e-02,
717,0.00e+00,2.40e-02,
718,0.00e+00,2.80e-02,
719,1.60e+00,5.20e-02,
720,1.60e+00,5.20e-02,
721,0.00e+00,2.40e-02,
722,1.60e+00,5.20e-02,
723,0.00e+00,2.80e-02,
724,0.00e+00,2.80e-02,
725,1.60e+00,5.20e-02,
726,0.00e+00,2.80e-02,
727,1.60e+00,5.20e-02,
728,8.00e-01,5.20e-02,
729,-8.00e-01,2.80e-02,
730,0.00e+00,5.20e-02,
731,8.00e-01,2.80e-02,
732,1.60e+00,2.80e-02,
733,-8.00e-01,5.20e-02,
734,0.00e+00,5.20e-02,
735,1.60e+00,2.80e-02,
736,0.00e+00,2.80e-02,
737,8.00e-01,5.20e-02,
738,-8.00e-01,2.80e-02,
739,1.60e+00,5.60e-02,
740,1.60e+00,2.80e-02,
741,0.00e+00,2.16e-01,
742,0.00e+00,2.80e-02,
743,1.60e+00,6.00e-02,
744,0.00e+00,3.60e-02,
745,2.40e+00,6.40e-02,
746,2.40e+00,6.80e-02,
747,8.00e-01,4.00e-02,
748,2.40e+00,6.80e-02,
749,8.00e-01,4.00e-02,
750,8.00e-01,7.20e-02,
751,2.40e+00,4.00e-02,
752,2.40e+00,7.20e-02,
753,0.00e+00,4.40e-02,
754,0.00e+00,7.20e-02,
755,1.60e+00,4.40e-02,
756,1.60e+00,7.20e-02,
757,0.00e+00,4.40e-02,
758,1.60e+00,4.40e-02,
759,0.00e+00,7.20e-02,
760,1.60e+00,6.80e-02,
761,8.00e-01,4.00e-02,
762,8.00e-01,4.00e-02,
763,1.60e+00,6.80e-02,
764,1.60e+00,6.80e-02,
765,0.00e+00,4.00e-02,
766,1.60e+00,6.40e-02,
767,0.00e+00,4.00e-02,
768,1.60e+00,6.40e-02,
769,8.00e-01,3.60e-02,
770,1.60e+00,6.40e-02,
771,0.00e+00,3.60e-02,
772,1.60e+00,6.00e-02,
773,0.00e+00,3.20e-02,
774,1.60e+00,6.00e-02,
775,0.00e+00,3.20e-02,
776,8.00e-01,5.60e-02,
777,1.60e+00,2.80e-02,
778,1.60e+00,5.60e-02,
779,8.00e-01,2.80e-02,
780,1.60e+00,5.20e-02,
781,0.00e+00,2.80e-02,
782,1.60e+00,5.20e-02,
783,0.00e+00,2.40e-02,
784,1.60e+00,2.80e-02,
785,0.00e+00,5.20e-02,
786,1.60e+00,4.80e-02,
787,0.00e+00,2.40e-02,
788,1.60e+00,4.80e-02,
789,0.00e+00,2.00e-02,
790,8.00e-01,4.80e-02,
791,1.60e+00,2.00e-02,
792,1.60e+00,4.40e-02,
793,0.00e+00,2.00e-02,
794,0.00e+00,4.40e-02,
795,1.60e+00,2.00e-02,
796,1.60e+00,2.00e-02,
797,0.00e+00,4.40e-02,
798,1.60e+00,4.40e-02,
799,0.00e+00,2.00e-02,
800,0.00e+00,4.40e-02,
801,1.60e+00,1.60e-02,
802,0.00e+00,4.00e-02,
803,1.60e+00,1.60e-02,
804,1.60e+00,1.60e-02,
805,0.00e+00,4.00e-02,
806,1.60e+00,1.60e-02,
807,0.00e+00,4.00e-02,
808,0.00e+00,4.00e-02,
809,1.60e+00,1.20e-02,
810,1.60e+00,4.00e-02,
811,0.00e+00,1.20e-02,
812,8.00e-01,1.20e-02,
813,1.60e+00,4.00e-02,
814,1.60e+00,3.60e-02,
815,0.00e+00,1.20e-02,
816,0.00e+00,3.60e-02,
817,1.60e+00,8.00e-03,
818,1.60e+00,8.00e-03,
819,0.00e+00,3.60e-02,
820,1.60e+00,3.20e-02,
821,0.00e+00,8.00e-03,
822,0.00e+00,0.00e+00,
823,1.60e+00,3.60e-02,
824,0.00e+00,3.60e-02,
825,1.60e+00,8.00e-03,
826,0.00e+00,3.60e-02,
827,1.60e+00,8.00e-03,
828,1.60e+00,3.20e-02,
829,0.00e+00,8.00e-03,
830,1.60e+00,8.00e-03,
831,0.00e+00,3.20e-02,
832,0.00e+00,3.20e-02,
833,1.60e+00,8.00e-03,
834,1.60e+00,8.00e-03,
835,0.00e+00,3.60e-02,
836,1.60e+00,3.20e-02,
837,0.00e+00,8.00e-03,
838,0.00e+00,8.00e-03,
839,1.60e+00,3.60e-02,
840,1.60e+00,8.00e-03,
841,0.00e+00,3.20e-02,
842,8.00e-01,8.00e-03,
843,2.40e+00,3.20e-02,
844,2.40e+00,8.00e-03,
845,8.00e-01,3.20e-02,
846,8.00e-01,8.00e-03,
847,2.40e+00,3.20e-02,
848,1.60e+00,3.20e-02,
849,8.00e-01,4.00e-03,
850,1.60e+00,2.80e-02,
851,0.00e+00,4.00e-03,
852,1.60e+00,3.20e-02,
853,0.00e+00,4.00e-03,
854,0.00e+00,2.80e-02,
855,1.60e+00,4.00e-03,
856,1.60e+00,4.00e-03,
857,0.00e+00,2.80e-02,
858,1.60e+00,2.80e-02,
859,0.00e+00,4.00e-03,
860,1.60e+00,2.80e-02,
861,0.00e+00,4.00e-03,
862,1.60e+00,2.80e-02,
863,0.00e+00,4.00e-03,
864,1.60e+00,4.00e-03,
865,0.00e+00,2.80e-02,
866,8.00e-01,4.00e-03,
