data/oscilloscope_data/NewFile20.csv

X,CH1,CH2,Start,Increment,
Sequence,Volt,Volt,-5.960000e-02,1.000000e-04
0,0.00e+00,-1.60e-02,
1,2.00e+00,1.20e-02,
2,2.00e+00,-1.20e-02,
3,0.00e+00,1.20e-02,
4,0.00e+00,-1.20e-02,
5,2.00e+00,1.20e-02,
6,2.00e+00,-1.20e-02,
7,-2.00e+00,1.60e-02,
8,2.00e+00,-8.00e-03,
9,-2.00e+00,1.60e-02,
10,2.00e+00,2.00e-02,
11,-2.00e+00,-8.00e-03,
12,2.00e+00,-4.00e-03,
13,0.00e+00,2.00e-02,
14,2.00e+00,2.00e-02,
15,0.00e+00,-4.00e-03,
16,0.00e+00,-4.00e-03,
17,2.00e+00,2.40e-02,
18,2.00e+00,2.40e-02,
19,0.00e+00,-4.00e-03,
20,2.00e+00,2.40e-02,
21,-2.00e+00,0.00e+00,
22,2.00e+00,0.00e+00,
23,-2.00e+00,2.80e-02,
24,2.00e+00,0.00e+00,
25,0.00e+00,2.80e-02,
26,2.00e+00,4.00e-03,
27,0.00e+00,2.80e-02,
28,2.00e+00,2.80e-02,
29,-2.00e+00,4.00e-03,
30,2.00e+00,8.00e-03,
31,-2.00e+00,3.20e-02,
32,2.00e+00,8.00e-03,
33,0.00e+00,3.20e-02,
34,2.00e+00,8.00e-03,
35,0.00e+00,3.20e-02,
36,2.00e+00,3.20e-02,
37,-2.00e+00,4.00e-03,
38,2.00e+00,3.20e-02,
39,-4.00e+00,1.20e-02,
40,0.00e+00,1.20e-02,
41,-1.20e+01,3.60e-02,
42,-1.00e+01,3.60e-02,
43,-3.00e+01,8.00e-03,
44,-3.00e+01,1.20e-02,
45,1.40e+01,3.60e-02,
46,2.00e+01,3.60e-02,
47,-6.00e+00,1.20e-02,
48,-1.20e+01,4.00e-02,
49,1.20e+01,1.20e-02,
50,1.20e+01,3.60e-02,
51,-6.00e+00,1.20e-02,
52,1.00e+01,1.60e-02,
53,-2.00e+00,4.00e-02,
54,4.00e+00,4.00e-02,
55,0.00e+00,1.60e-02,
56,4.00e+00,1.60e-02,
57,0.00e+00,4.40e-02,
58,4.00e+00,1.60e-02,
59,0.00e+00,4.00e-02,
60,4.00e+00,1.60e-02,
61,0.00e+00,4.00e-02,
62,0.00e+00,1.60e-02,
63,4.00e+00,4.00e-02,
64,4.00e+00,1.60e-02,
65,0.00e+00,4.00e-02,
66,4.00e+00,1.60e-02,
67,0.00e+00,4.00e-02,
68,4.00e+00,4.40e-02,
69,0.00e+00,1.60e-02,
70,4.00e+00,1.60e-02,
71,0.00e+00,4.40e-02,
72,4.00e+00,2.00e-02,
73,0.00e+00,4.40e-02,
74,4.00e+00,4.40e-02,
75,0.00e+00,1.60e-02,
76,4.00e+00,2.00e-02,
77,0.00e+00,4.80e-02,
78,4.00e+00,2.40e-02,
79,0.00e+00,4.80e-02,
80,4.00e+00,2.00e-02,
81,0.00e+00,4.80e-02,
82,4.00e+00,2.40e-02,
83,0.00e+00,4.80e-02,
84,0.00e+00,4.80e-02,
85,4.00e+00,2.00e-02,
86,4.00e+00,2.40e-02,
87,0.00e+00,5.20e-02,
88,4.00e+00,2.80e-02,
89,0.00e+00,5.20e-02,
90,4.00e+00,2.80e-02,
91,0.00e+00,5.20e-02,
92,0.00e+00,5.20e-02,
93,4.00e+00,2.80e-02,
94,4.00e+00,5.20e-02,
95,0.00e+00,2.80e-02,
96,4.00e+00,5.20e-02,
97,0.00e+00,2.80e-02,
98,4.00e+00,5.20e-02,
99,0.00e+00,2.80e-02,
100,2.00e+00,5.20e-02,
101,0.00e+00,2.80e-02,
102,4.00e+00,2.80e-02,
103,0.00e+00,5.60e-02,
104,4.00e+00,5.20e-02,
105,0.00e+00,3.20e-02,
106,4.00e+00,5.20e-02,
107,0.00e+00,2.80e-02,
108,4.00e+00,2.80e-02,
109,0.00e+00,5.60e-02,
110,4.00e+00,5.60e-02,
111,0.00e+00,3.20e-02,
112,4.00e+00,3.20e-02,
113,0.00e+00,5.60e-02,
114,4.00e+00,3.20e-02,
115,0.00e+00,5.60e-02,
116,0.00e+00,3.20e-02,
117,4.00e+00,5.60e-02,
118,4.00e+00,5.60e-02,
119,0.00e+00,2.80e-02,
120,4.00e+00,5.60e-02,
121,0.00e+00,2.80e-02,
122,4.00e+00,3.20e-02,
123,0.00e+00,5.60e-02,
124,0.00e+00,3.20e-02,
125,4.00e+00,5.60e-02,
126,4.00e+00,5.60e-02,
127,0.00e+00,2.80e-02,
128,4.00e+00,2.20e-01,
129,-2.00e+00,2.80e-02,
130,2.00e+00,3.60e-02,
131,-2.00e+00,6.40e-02,
132,0.00e+00,6.80e-02,
133,4.00e+00,4.00e-02,
134,4.00e+00,4.80e-02,
135,0.00e+00,7.60e-02,
136,4.00e+00,7.20e-02,
137,0.00e+00,4.40e-02,
138,4.00e+00,7.20e-02,
139,0.00e+00,4.40e-02,
140,0.00e+00,7.20e-02,
141,4.00e+00,4.40e-02,
142,4.00e+00,6.80e-02,
143,4.00e+00,4.40e-02,
144,4.00e+00,6.80e-02,
145,4.00e+00,4.40e-02,
146,4.00e+00,6.80e-02,
147,2.00e+00,4.00e-02,
148,4.00e+00,4.00e-02,
149,0.00e+00,6.80e-02,
150,4.00e+00,3.60e-02,
151,0.00e+00,6.80e-02,
152,0.00e+00,6.40e-02,
153,4.00e+00,4.00e-02,
154,4.00e+00,6.40e-02,
155,0.00e+00,3.60e-02,
156,4.00e+00,3.60e-02,
157,0.00e+00,6.40e-02,
158,0.00e+00,6.00e-02,
159,4.00e+00,3.20e-02,
160,4.00e+00,6.40e-02,
161,0.00e+00,3.20e-02,
162,0.00e+00,5.60e-02,
163,4.00e+00,2.80e-02,
164,4.00e+00,3.20e-02,
165,0.00e+00,5.60e-02,
166,2.00e+00,5.20e-02,
167,0.00e+00,2.80e-02,
168,2.00e+00,5.20e-02,
169,0.00e+00,2.80e-02,
170,2.00e+00,5.20e-02,
171,0.00e+00,2.80e-02,
172,2.00e+00,5.20e-02,
173,0.00e+00,2.40e-02,
174,2.00e+00,2.40e-02,
175,0.00e+00,5.20e-02,
176,2.00e+00,4.80e-02,
177,0.00e+00,2.40e-02,
178,2.00e+00,2.40e-02,
179,0.00e+00,4.80e-02,
180,0.00e+00,4.80e-02,
181,4.00e+00,2.40e-02,
182,4.00e+00,2.00e-02,
183,0.00e+00,4.80e-02,
184,0.00e+00,4.40e-02,
185,4.00e+00,2.40e-02,
186,2.00e+00,2.00e-02,
187,0.00e+00,4.40e-02,
188,2.00e+00,4.40e-02,
189,0.00e+00,1.60e-02,
190,2.00e+00,4.00e-02,
191,0.00e+00,1.60e-02,
192,2.00e+00,1.60e-02,
193,0.00e+00,4.40e-02,
194,2.00e+00,4.00e-02,
195,0.00e+00,1.60e-02,
196,0.00e+00,4.00e-02,
197,4.00e+00,1.20e-02,
198,0.00e+00,1.20e-02,
199,4.00e+00,4.00e-02,
200,4.00e+00,4.00e-02,
201,0.00e+00,1.20e-02,
202,2.00e+00,1.20e-02,
203,0.00e+00,3.60e-02,
204,2.00e+00,1.20e-02,
205,0.00e+00,3.60e-02,
206,0.00e+00,3.60e-02,
207,4.00e+00,8.00e-03,
208,2.00e+00,3.20e-02,
209,0.00e+00,8.00e-03,
210,0.00e+00,-4.00e-03,
211,4.00e+00,3.60e-02,
212,0.00e+00,3.60e-02,
213,4.00e+00,8.00e-03,
214,4.00e+00,8.00e-03,
215,0.00e+00,3.60e-02,
216,2.00e+00,8.00e-03,
217,0.00e+00,3.60e-02,
218,2.00e+00,8.00e-03,
219,0.00e+00,3.20e-02,
220,0.00e+00,3.20e-02,
221,4.00e+00,4.00e-03,
222,2.00e+00,4.00e-03,
223,0.00e+00,3.20e-02,
224,0.00e+00,3.20e-02,
225,4.00e+00,4.00e-03,
226,0.00e+00,3.20e-02,
227,2.00e+00,4.00e-03,
228,2.00e+00,2.80e-02,
229,0.00e+00,4.00e-03,
230,0.00e+00,2.80e-02,
231,4.00e+00,4.00e-03,
232,0.00e+00,2.80e-02,
233,4.00e+00,4.00e-03,
234,0.00e+00,2.80e-02,
235,4.00e+00,4.00e-03,
236,4.00e+00,2.80e-02,
237,0.00e+00,4.00e-03,
238,4.00e+00,2.80e-02,
239,0.00e+00,4.00e-03,
240,4.00e+00,2.80e-02,
241,0.00e+00,0.00e+00,
242,0.00e+00,0.00e+00,
243,4.00e+00,2.80e-02,
244,4.00e+00,4.00e-03,
245,0.00e+00,2.80e-02,
246,4.00e+00,4.00e-03,
247,0.00e+00,2.80e-02,
248,2.00e+00,2.80e-02,
249,0.00e+00,4.00e-03,
250,2.00e+00,2.80e-02,
251,0.00e+00,4.00e-03,
252,2.00e+00,4.00e-03,
253,0.00e+00,2.80e-02,
254,0.00e+00,4.00e-03,
255,4.00e+00,2.80e-02,
256,0.00e+00,2.80e-02,
257,2.00e+00,0.00e+00,
258,2.00e+00,2.80e-02,
259,0.00e+00,0.00e+00,
260,2.00e+00,2.40e-02,
261,0.00e+00,4.00e-03,
262,0.00e+00,2.80e-02,
263,4.00e+00,0.00e+00,
264,4.00e+00,0.00e+00,
265,0.00e+00,2.80e-02,
266,0.00e+00,2.40e-02,
267,4.00e+00,0.00e+00,
268,0.00e+00,2.40e-02,
269,4.00e+00,0.00e+00,
270,0.00e+00,2.40e-02,
271,4.00e+00,0.00e+00,
272,2.00e+00,2.40e-02,
273,0.00e+00,0.00e+00,
274,2.00e+00,2.40e-02,
275,0.00e+00,0.00e+00,
276,2.00e+00,2.40e-02,
277,0.00e+00,0.00e+00,
278,2.00e+00,2.40e-02,
279,0.00e+00,-4.00e-03,
280,2.00e+00,2.40e-02,
281,0.00e+00,-4.00e-03,
282,2.00e+00,2.40e-02,
283,0.00e+00,-4.00e-03,
284,2.00e+00,2.40e-02,
285,0.00e+00,-4.00e-03,
286,2.00e+00,2.40e-02,
287,0.00e+00,-4.00e-03,
288,2.00e+00,2.40e-02,
289,0.00e+00,-1.68e-01,
290,0.00e+00,2.40e-02,
291,4.00e+00,-8.00e-03,
292,2.00e+00,1.60e-02,
293,-2.00e+00,-1.20e-02,
294,-2.00e+00,8.00e-03,
295,2.00e+00,-1.60e-02,
296,2.00e+00,8.00e-03,
297,-2.00e+00,-1.60e-02,
298,2.00e+00,8.00e-03,
299,0.00e+00,-2.00e-02,
300,2.00e+00,-1.60e-02,
301,-2.00e+00,8.00e-03,
302,2.00e+00,-1.60e-02,
303,0.00e+00,8.00e-03,
304,2.00e+00,1.20e-02,
305,0.00e+00,-1.60e-02,
306,2.00e+00,8.00e-03,
307,0.00e+00,-1.60e-02,
308,2.00e+00,-1.60e-02,
309,0.00e+00,1.20e-02,
310,2.00e+00,-1.20e-02,
311,0.00e+00,1.20e-02,
312,2.00e+00,1.20e-02,
313,0.00e+00,-1.20e-02,
314,0.00e+00,1.60e-02,
315,4.00e+00,-1.20e-02,
316,2.00e+00,1.60e-02,
317,0.00e+00,-1.20e-02,
318,2.00e+00,-8.00e-03,
319,0.00e+00,2.00e-02,
320,2.00e+00,-4.00e-03,
321,0.00e+00,2.00e-02,
322,0.00e+00,2.00e-02,
323,4.00e+00,-4.00e-03,
324,2.00e+00,0.00e+00,
325,0.00e+00,2.40e-02,
326,2.00e+00,0.00e+00,
327,0.00e+00,2.40e-02,
328,0.00e+00,2.40e-02,
329,2.00e+00,0.00e+00,
330,2.00e+00,4.00e-03,
331,0.00e+00,2.80e-02,
332,2.00e+00,2.80e-02,
333,0.00e+00,4.00e-03,
334,2.00e+00,4.00e-03,
335,0.00e+00,3.20e-02,
336,0.00e+00,3.20e-02,
337,2.00e+00,8.00e-03,
338,2.00e+00,8.00e-03,
339,0.00e+00,3.20e-02,
340,2.00e+00,8.00e-03,
341,0.00e+00,3.20e-02,
342,2.00e+00,3.60e-02,
343,0.00e+00,8.00e-03,
344,2.00e+00,1.20e-02,
345,-2.00e+00,3.60e-02,
346,0.00e+00,1.20e-02,
347,-6.00e+00,3.60e-02,
348,-4.00e+00,3.60e-02,
349,-2.40e+01,1.20e-02,
350,-3.00e+01,3.60e-02,
351,-1.40e+01,1.20e-02,
352,-1.40e+01,1.60e-02,
353,2.20e+01,4.00e-02,
354,1.60e+01,4.00e-02,
355,-1.20e+01,1.60e-02,
356,1.40e+01,4.00e-02,
357,-4.00e+00,1.60e-02,
358,-4.00e+00,1.60e-02,
359,1.00e+01,4.00e-02,
360,-2.00e+00,4.00e-02,
361,4.00e+00,1.60e-02,
362,0.00e+00,1.60e-02,
363,4.00e+00,4.40e-02,
364,4.00e+00,1.60e-02,
365,0.00e+00,5.60e-02,
366,4.00e+00,4.00e-02,
367,0.00e+00,1.60e-02,
368,4.00e+00,4.40e-02,
369,0.00e+00,1.20e-02,
370,0.00e+00,4.00e-02,
371,4.00e+00,1.60e-02,
372,4.00e+00,4.40e-02,
373,0.00e+00,1.60e-02,
374,4.00e+00,2.00e-02,
375,0.00e+00,4.40e-02,
376,4.00e+00,4.40e-02,
377,0.00e+00,1.60e-02,
378,0.00e+00,1.60e-02,
379,4.00e+00,4.40e-02,
380,0.00e+00,2.00e-02,
381,4.00e+00,4.40e-02,
382,4.00e+00,4.40e-02,
383,0.00e+00,1.60e-02,
384,2.00e+00,2.00e-02,
385,0.00e+00,4.40e-02,
386,0.00e+00,4.40e-02,
387,2.00e+00,2.00e-02,
388,2.00e+00,4.40e-02,
389,0.00e+00,2.00e-02,
390,0.00e+00,2.00e-02,
391,4.00e+00,4.80e-02,
392,0.00e+00,2.00e-02,
393,4.00e+00,4.80e-02,
394,4.00e+00,2.40e-02,
395,0.00e+00,4.80e-02,
396,4.00e+00,4.80e-02,
397,0.00e+00,2.40e-02,
398,4.00e+00,2.40e-02,
399,0.00e+00,4.80e-02,
400,0.00e+00,4.80e-02,
401,4.00e+00,2.40e-02,
402,0.00e+00,4.80e-02,
403,4.00e+00,2.40e-02,
404,0.00e+00,4.80e-02,
405,4.00e+00,2.40e-02,
406,0.00e+00,2.80e-02,
407,4.00e+00,5.20e-02,
408,4.00e+00,2.80e-02,
409,0.00e+00,5.20e-02,
410,4.00e+00,5.20e-02,
411,0.00e+00,2.80e-02,
412,4.00e+00,3.20e-02,
413,0.00e+00,5.20e-02,
414,4.00e+00,2.80e-02,
415,0.00e+00,5.20e-02,
416,4.00e+00,5.20e-02,
417,0.00e+00,3.20e-02,
418,0.00e+00,5.20e-02,
419,4.00e+00,2.80e-02,
420,2.00e+00,5.20e-02,
421,0.00e+00,2.80e-02,
422,0.00e+00,2.80e-02,
423,4.00e+00,5.60e-02,
424,0.00e+00,5.60e-02,
425,4.00e+00,2.80e-02,
426,4.00e+00,2.80e-02,
427,0.00e+00,6.00e-02,
428,4.00e+00,5.60e-02,
429,2.00e+00,3.20e-02,
430,4.00e+00,3.20e-02,
431,0.00e+00,5.60e-02,
432,0.00e+00,5.60e-02,
433,4.00e+00,3.20e-02,
434,4.00e+00,3.20e-02,
435,0.00e+00,2.20e-01,
436,2.00e+00,3.60e-02,
437,-2.00e+00,6.40e-02,
438,0.00e+00,4.00e-02,
439,4.00e+00,6.80e-02,
440,4.00e+00,4.40e-02,
441,0.00e+00,7.20e-02,
442,4.00e+00,4.80e-02,
443,0.00e+00,7.20e-02,
444,4.00e+00,4.80e-02,
445,2.00e+00,7.60e-02,
446,4.00e+00,4.80e-02,
447,4.00e+00,7.20e-02,
448,4.00e+00,7.20e-02,
449,0.00e+00,4.40e-02,
450,4.00e+00,4.40e-02,
451,0.00e+00,7.20e-02,
452,4.00e+00,6.80e-02,
453,0.00e+00,4.00e-02,
454,4.00e+00,6.80e-02,
455,0.00e+00,4.00e-02,
456,4.00e+00,6.80e-02,
457,0.00e+00,4.00e-02,
458,4.00e+00,6.40e-02,
459,0.00e+00,4.00e-02,
460,2.00e+00,3.60e-02,
461,0.00e+00,6.40e-02,
462,0.00e+00,6.00e-02,
463,4.00e+00,3.20e-02,
464,4.00e+00,3.20e-02,
465,0.00e+00,6.00e-02,
466,4.00e+00,3.20e-02,
467,0.00e+00,5.60e-02,
468,4.00e+00,3.20e-02,
469,0.00e+00,5.60e-02,
470,4.00e+00,2.80e-02,
471,0.00e+00,5.60e-02,
472,0.00e+00,5.20e-02,
473,4.00e+00,2.80e-02,
474,0.00e+00,5.20e-02,
475,4.00e+00,2.80e-02,
476,0.00e+00,2.40e-02,
477,4.00e+00,5.20e-02,
478,4.00e+00,5.20e-02,
479,0.00e+00,2.40e-02,
480,2.00e+00,4.80e-02,
481,0.00e+00,2.40e-02,
482,4.00e+00,4.80e-02,
483,0.00e+00,2.40e-02,
484,2.00e+00,4.80e-02,
485,0.00e+00,2.40e-02,
486,0.00e+00,4.80e-02,
487,4.00e+00,2.00e-02,
488,2.00e+00,4.40e-02,
489,0.00e+00,2.00e-02,
490,4.00e+00,2.40e-02,
491,0.00e+00,4.40e-02,
492,4.00e+00,2.00e-02,
493,0.00e+00,4.80e-02,
494,0.00e+00,4.40e-02,
495,4.00e+00,2.00e-02,
496,4.00e+00,2.00e-02,
497,0.00e+00,4.40e-02,
498,4.00e+00,4.40e-02,
499,0.00e+00,1.60e-02,
500,0.00e+00,4.00e-02,
501,4.00e+00,1.60e-02,
502,4.00e+00,1.60e-02,
503,0.00e+00,4.40e-02,
504,0.00e+00,4.00e-02,
505,4.00e+00,1.60e-02,
506,4.00e+00,1.60e-02,
507,0.00e+00,4.00e-02,
508,4.00e+00,1.60e-02,
509,0.00e+00,4.00e-02,
510,4.00e+00,3.60e-02,
511,0.00e+00,1.60e-02,
512,0.00e+00,3.60e-02,
513,4.00e+00,1.20e-02,
514,0.00e+00,3.60e-02,
515,4.00e+00,1.20e-02,
516,4.00e+00,3.60e-02,
517,0.00e+00,4.00e-03,
518,0.00e+00,1.20e-02,
519,4.00e+00,4.00e-02,
520,0.00e+00,3.60e-02,
521,4.00e+00,1.20e-02,
522,0.00e+00,3.60e-02,
523,4.00e+00,1.20e-02,
524,0.00e+00,1.20e-02,
525,4.00e+00,3.60e-02,
526,0.00e+00,3.20e-02,
527,4.00e+00,8.00e-03,
528,0.00e+00,3.20e-02,
529,4.00e+00,8.00e-03,
530,0.00e+00,3.20e-02,
531,4.00e+00,8.00e-03,
532,4.00e+00,3.20e-02,
533,0.00e+00,8.00e-03,
534,4.00e+00,3.20e-02,
535,0.00e+00,8.00e-03,
536,0.00e+00,4.00e-03,
537,4.00e+00,3.20e-02,
538,4.00e+00,4.00e-03,
539,0.00e+00,3.20e-02,
540,4.00e+00,2.80e-02,
541,0.00e+00,4.00e-03,
542,0.00e+00,4.00e-03,
543,4.00e+00,2.80e-02,
544,4.00e+00,2.80e-02,
545,0.00e+00,4.00e-03,
546,4.00e+00,0.00e+00,
547,0.00e+00,2.80e-02,
548,4.00e+00,4.00e-03,
549,0.00e+00,3.20e-02,
550,4.00e+00,4.00e-03,
551,0.00e+00,2.80e-02,
552,4.00e+00,2.80e-02,
553,2.00e+00,4.00e-03,
554,4.00e+00,2.80e-02,
555,0.00e+00,0.00e+00,
556,4.00e+00,0.00e+00,
557,0.00e+00,2.80e-02,
558,0.00e+00,4.00e-03,
559,4.00e+00,2.80e-02,
560,4.00e+00,0.00e+00,
561,0.00e+00,2.80e-02,
562,4.00e+00,2.80e-02,
563,0.00e+00,0.00e+00,
564,4.00e+00,0.00e+00,
565,0.00e+00,2.80e-02,
566,2.00e+00,2.40e-02,
567,0.00e+00,0.00e+00,
568,2.00e+00,4.00e-03,
569,0.00e+00,2.80e-02,
570,0.00e+00,2.40e-02,
571,2.00e+00,0.00e+00,
572,2.00e+00,2.40e-02,
573,0.00e+00,0.00e+00,
574,2.00e+00,2.40e-02,
575,-2.00e+00,0.00e+00,
576,2.00e+00,2.80e-02,
577,-2.00e+00,0.00e+00,
578,2.00e+00,0.00e+00,
579,-2.00e+00,2.80e-02,
580,2.00e+00,0.00e+00,
581,0.00e+00,2.40e-02,
582,2.00e+00,0.00e+00,
583,0.00e+00,2.40e-02,
584,2.00e+00,0.00e+00,
585,-2.00e+00,2.80e-02,
586,2.00e+00,0.00e+00,
587,-2.00e+00,2.40e-02,
588,2.00e+00,2.40e-02,
589,-2.00e+00,0.00e+00,
590,2.00e+00,0.00e+00,
591,0.00e+00,2.40e-02,
592,2.00e+00,0.00e+00,
593,0.00e+00,2.40e-02,
594,2.00e+00,2.40e-02,
595,-2.00e+00,-1.64e-01,
596,0.00e+00,2.40e-02,
597,4.00e+00,-8.00e-03,
598,4.00e+00,1.60e-02,
599,-2.00e+00,-1.60e-02,
600,-2.00e+00,8.00e-03,
601,2.00e+00,-1.60e-02,
602,2.00e+00,8.00e-03,
603,0.00e+00,-1.60e-02,
604,2.00e+00,-1.60e-02,
605,0.00e+00,8.00e-03,
606,2.00e+00,-1.60e-02,
607,0.00e+00,8.00e-03,
608,2.00e+00,-1.60e-02,
609,0.00e+00,8.00e-03,
610,2.00e+00,8.00e-03,
611,0.00e+00,-1.60e-02,
612,2.00e+00,8.00e-03,
613,0.00e+00,-1.60e-02,
614,2.00e+00,-1.60e-02,
615,-2.00e+00,1.20e-02,
616,2.00e+00,-1.20e-02,
617,0.00e+00,1.20e-02,
618,2.00e+00,1.20e-02,
619,0.00e+00,-1.20e-02,
620,0.00e+00,-1.20e-02,
621,4.00e+00,1.60e-02,
622,0.00e+00,1.60e-02,
623,2.00e+00,-1.20e-02,
624,0.00e+00,-1.20e-02,
625,2.00e+00,1.60e-02,
626,2.00e+00,-8.00e-03,
627,0.00e+00,1.60e-02,
628,4.00e+00,2.00e-02,
629,0.00e+00,-8.00e-03,
630,2.00e+00,-4.00e-03,
631,0.00e+00,2.00e-02,
632,2.00e+00,2.00e-02,
633,0.00e+00,-4.00e-03,
634,2.00e+00,2.40e-02,
635,0.00e+00,-4.00e-03,
636,2.00e+00,2.40e-02,
637,0.00e+00,0.00e+00,
638,2.00e+00,0.00e+00,
639,0.00e+00,2.80e-02,
640,2.00e+00,2.80e-02,
641,0.00e+00,0.00e+00,
642,2.00e+00,2.80e-02,
643,0.00e+00,4.00e-03,
644,2.00e+00,8.00e-03,
645,0.00e+00,3.20e-02,
646,2.00e+00,8.00e-03,
647,0.00e+00,3.20e-02,
648,2.00e+00,3.20e-02,
649,0.00e+00,8.00e-03,
650,2.00e+00,1.20e-02,
651,-2.00e+00,3.60e-02,
652,0.00e+00,1.20e-02,
653,-8.00e+00,3.60e-02,
654,-6.00e+00,1.20e-02,
655,-2.60e+01,3.60e-02,
656,-3.00e+01,1.60e-02,
657,-8.00e+00,4.00e-02,
658,-8.00e+00,1.20e-02,
659,2.00e+01,4.00e-02,
660,1.00e+01,1.60e-02,
661,-1.20e+01,4.00e-02,
662,1.20e+01,1.60e-02,
663,-6.00e+00,4.00e-02,
664,-4.00e+00,1.60e-02,
665,8.00e+00,4.00e-02,
666,-2.00e+00,1.60e-02,
667,8.00e+00,4.40e-02,
668,4.00e+00,2.00e-02,
669,0.00e+00,4.40e-02,
670,4.00e+00,1.60e-02,
671,0.00e+00,5.60e-02,
672,0.00e+00,4.00e-02,
673,4.00e+00,1.60e-02,
674,0.00e+00,2.00e-02,
675,4.00e+00,4.40e-02,
676,4.00e+00,2.00e-02,
677,0.00e+00,4.40e-02,
678,4.00e+00,2.00e-02,
679,0.00e+00,4.40e-02,
680,4.00e+00,4.40e-02,
681,0.00e+00,2.00e-02,
682,4.00e+00,1.60e-02,
683,0.00e+00,4.40e-02,
684,0.00e+00,4.40e-02,
685,4.00e+00,2.00e-02,
686,4.00e+00,2.00e-02,
687,0.00e+00,4.40e-02,
688,4.00e+00,4.40e-02,
689,0.00e+00,2.00e-02,
690,4.00e+00,4.80e-02,
691,0.00e+00,2.40e-02,
692,4.00e+00,2.40e-02,
693,0.00e+00,4.80e-02,
694,0.00e+00,2.40e-02,
695,4.00e+00,4.80e-02,
696,4.00e+00,2.00e-02,
697,0.00e+00,4.80e-02,
698,4.00e+00,4.80e-02,
699,0.00e+00,2.00e-02,
700,4.00e+00,4.80e-02,
701,0.00e+00,2.00e-02,
702,4.00e+00,4.80e-02,
703,0.00e+00,2.40e-02,
704,4.00e+00,4.80e-02,
705,0.00e+00,2.40e-02,
706,4.00e+00,2.40e-02,
707,0.00e+00,5.20e-02,
708,4.00e+00,4.80e-02,
709,0.00e+00,2.40e-02,
710,4.00e+00,2.40e-02,
711,0.00e+00,5.20e-02,
712,4.00e+00,5.20e-02,
713,0.00e+00,2.40e-02,
714,4.00e+00,2.80e-02,
715,0.00e+00,5.20e-02,
716,4.00e+00,2.80e-02,
717,0.00e+00,5.20e-02,
718,0.00e+00,2.80e-02,
719,4.00e+00,5.20e-02,
720,4.00e+00,5.20e-02,
721,0.00e+00,2.80e-02,
722,0.00e+00,5.20e-02,
723,2.00e+00,2.80e-02,
724,0.00e+00,3.20e-02,
725,4.00e+00,5.20e-02,
726,4.00e+00,5.20e-02,
727,0.00e+00,2.80e-02,
728,4.00e+00,3.20e-02,
729,0.00e+00,5.60e-02,
730,4.00e+00,3.20e-02,
731,0.00e+00,5.60e-02,
732,4.00e+00,3.20e-02,
733,0.00e+00,5.60e-02,
734,4.00e+00,3.20e-02,
735,0.00e+00,5.60e-02,
736,4.00e+00,2.80e-02,
737,0.00e+00,5.60e-02,
738,0.00e+00,3.20e-02,
739,4.00e+00,5.60e-02,
740,4.00e+00,3.20e-02,
741,0.00e+00,2.20e-01,
742,4.00e+00,3.20e-02,
743,-2.00e+00,6.40e-02,
744,0.00e+00,4.00e-02,
745,4.00e+00,6.80e-02,
746,0.00e+00,4.40e-02,
747,4.00e+00,7.60e-02,
748,4.00e+00,4.40e-02,
749,4.00e+00,7.60e-02,
750,4.00e+00,7.20e-02,
751,4.00e+00,4.80e-02,
752,4.00e+00,4.80e-02,
753,4.00e+00,7.60e-02,
754,4.00e+00,7.60e-02,
755,0.00e+00,4.80e-02,
756,0.00e+00,7.60e-02,
757,4.00e+00,4.40e-02,
758,4.00e+00,7.20e-02,
759,0.00e+00,4.40e-02,
760,4.00e+00,6.80e-02,
761,0.00e+00,4.00e-02,
762,4.00e+00,6.80e-02,
763,0.00e+00,4.40e-02,
764,4.00e+00,6.80e-02,
765,0.00e+00,4.00e-02,
766,0.00e+00,4.00e-02,
767,4.00e+00,6.40e-02,
768,0.00e+00,6.00e-02,
769,4.00e+00,3.60e-02,
770,4.00e+00,6.00e-02,
771,0.00e+00,3.20e-02,
772,2.00e+00,3.20e-02,
773,0.00e+00,6.00e-02,
774,2.00e+00,6.00e-02,
775,0.00e+00,3.20e-02,
776,2.00e+00,3.20e-02,
777,0.00e+00,5.60e-02,
778,2.00e+00,5.20e-02,
779,0.00e+00,2.80e-02,
780,2.00e+00,5.20e-02,
781,0.00e+00,2.80e-02,
782,2.00e+00,5.20e-02,
783,0.00e+00,2.40e-02,
784,2.00e+00,2.40e-02,
785,0.00e+00,5.20e-02,
786,4.00e+00,4.80e-02,
787,0.00e+00,2.00e-02,
788,0.00e+00,4.40e-02,
789,4.00e+00,2.40e-02,
790,2.00e+00,4.40e-02,
791,0.00e+00,2.00e-02,
792,2.00e+00,2.00e-02,
793,0.00e+00,4.40e-02,
794,2.00e+00,4.40e-02,
795,0.00e+00,2.00e-02,
796,2.00e+00,2.00e-02,
797,0.00e+00,4.40e-02,
798,0.00e+00,4.40e-02,
799,4.00e+00,1.60e-02,
800,2.00e+00,4.00e-02,
801,0.00e+00,1.60e-02,
802,4.00e+00,4.00e-02,
803,0.00e+00,1.60e-02,
804,0.00e+00,4.00e-02,
805,4.00e+00,1.60e-02,
806,4.00e+00,4.00e-02,
807,0.00e+00,1.60e-02,
808,0.00e+00,4.00e-02,
809,2.00e+00,1.60e-02,
810,2.00e+00,1.60e-02,
811,0.00e+00,4.00e-02,
812,0.00e+00,1.60e-02,
813,4.00e+00,4.00e-02,
814,4.00e+00,4.00e-02,
815,0.00e+00,1.20e-02,
816,2.00e+00,4.00e-02,
817,0.00e+00,1.20e-02,
818,0.00e+00,3.60e-02,
819,2.00e+00,1.20e-02,
820,0.00e+00,1.20e-02,
821,2.00e+00,3.60e-02,
822,2.00e+00,3.60e-02,
823,0.00e+00,4.00e-03,
824,0.00e+00,3.60e-02,
825,4.00e+00,1.20e-02,
826,2.00e+00,1.20e-02,
827,0.00e+00,3.60e-02,
828,0.00e+00,4.00e-02,
829,4.00e+00,1.20e-02,
830,0.00e+00,1.20e-02,
831,4.00e+00,3.60e-02,
832,0.00e+00,3.60e-02,
833,4.00e+00,8.00e-03,
834,4.00e+00,3.20e-02,
835,0.00e+00,8.00e-03,
836,2.00e+00,3.20e-02,
837,0.00e+00,8.00e-03,
838,0.00e+00,3.20e-02,
839,4.00e+00,8.00e-03,
840,4.00e+00,8.00e-03,
841,0.00e+00,3.20e-02,
842,0.00e+00,3.20e-02,
843,4.00e+00,8.00e-03,
844,4.00e+00,8.00e-03,
845,0.00e+00,3.20e-02,
846,0.00e+00,2.80e-02,
847,4.00e+00,4.00e-03,
848,4.00e+00,8.00e-03,
849,0.00e+00,3.20e-02,
850,2.00e+00,8.00e-03,
851,0.00e+00,2.80e-02,
852,2.00e+00,4.00e-03,
853,0.00e+00,2.80e-02,
854,0.00e+00,2.80e-02,
855,4.00e+00,4.00e-03,
856,2.00e+00,4.00e-03,
857,0.00e+00,2.80e-02,
858,2.00e+00,2.80e-02,
859,0.00e+00,0.00e+00,
860,0.00e+00,2.40e-02,
861,2.00e+00,0.00e+00,
862,0.00e+00,0.00e+00,
863,4.00e+00,2.80e-02,
864,0.00e+00,2.40e-02,
865,4.00e+00,0.00e+00,
