data/oscilloscope_data/NewFile45.csv

X,CH2,CH3,Start,Increment,
Sequence,Volt,Volt,-1.198000e+01,2.000000e-02
0,-1.80e+01,4.00e-01,
1,-1.00e+01,2.40e-01,
2,-1.80e+01,3.20e-01,
3,-1.00e+01,1.60e-01,
4,-1.80e+01,3.20e-01,
5,-1.00e+01,1.60e-01,
6,-1.80e+01,1.60e-01,
7,-1.00e+01,4.00e-01,
8,-1.80e+01,4.00e-01,
9,-1.00e+01,2.40e-01,
10,-1.00e+01,4.00e-01,
11,-1.80e+01,1.60e-01,
12,-1.00e+01,2.40e-01,
13,-1.80e+01,1.60e-01,
14,-1.00e+01,1.60e-01,
15,-1.80e+01,3.20e-01,
16,-1.00e+01,3.20e-01,
17,-1.80e+01,1.60e-01,
18,-1.00e+01,2.40e-01,
19,-1.80e+01,8.00e-02,
20,-1.00e+01,1.60e-01,
21,-1.80e+01,0.00e+00,
22,-1.00e+01,8.00e-02,
23,-1.80e+01,2.40e-01,
24,-1.80e+01,8.00e-02,
25,-1.00e+01,2.40e-01,
26,-1.80e+01,8.00e-02,
27,-1.00e+01,2.40e-01,
28,-1.80e+01,1.60e-01,
29,-1.00e+01,0.00e+00,
30,-1.80e+01,0.00e+00,
31,-1.00e+01,1.60e-01,
32,-1.80e+01,8.00e-02,
33,-1.00e+01,2.40e-01,
34,-1.80e+01,1.60e-01,
35,-1.00e+01,3.20e-01,
36,-1.80e+01,2.40e-01,
37,-1.00e+01,8.00e-02,
38,-1.00e+01,1.60e-01,
39,-1.80e+01,0.00e+00,
40,-1.00e+01,8.00e-02,
41,-1.80e+01,2.40e-01,
42,-1.00e+01,2.40e-01,
43,-1.80e+01,1.60e-01,
44,-1.00e+01,2.40e-01,
45,-1.80e+01,8.00e-02,
46,-1.00e+01,8.00e-02,
47,-1.80e+01,2.40e-01,
48,-1.00e+01,1.60e-01,
49,-1.80e+01,3.20e-01,
50,-1.00e+01,3.20e-01,
51,-1.80e+01,1.60e-01,
52,-1.80e+01,3.20e-01,
53,-1.00e+01,1.60e-01,
54,-1.80e+01,1.60e-01,
55,-1.00e+01,2.40e-01,
56,-1.80e+01,8.00e-02,
57,-1.00e+01,3.20e-01,
58,-1.80e+01,1.60e-01,
59,-1.00e+01,3.20e-01,
60,-1.80e+01,3.20e-01,
61,-1.00e+01,1.60e-01,
62,-1.80e+01,1.60e-01,
63,-1.00e+01,2.40e-01,
64,-1.80e+01,2.40e-01,
65,-1.00e+01,1.60e-01,
66,-1.00e+01,1.60e-01,
67,-1.80e+01,2.40e-01,
68,-1.00e+01,2.40e-01,
69,-1.80e+01,1.60e-01,
70,-1.00e+01,2.40e-01,
71,-1.80e+01,8.00e-02,
72,-1.00e+01,8.00e-02,
73,-1.80e+01,2.40e-01,
74,-1.00e+01,1.60e-01,
75,-1.80e+01,2.40e-01,
76,-1.00e+01,1.60e-01,
77,-1.80e+01,3.20e-01,
78,-1.00e+01,2.40e-01,
79,-1.80e+01,8.00e-02,
80,-1.00e+01,8.00e-02,
81,-1.80e+01,2.40e-01,
82,-1.00e+01,2.40e-01,
83,-1.80e+01,1.60e-01,
84,-1.80e+01,2.40e-01,
85,-1.00e+01,1.60e-01,
86,-1.80e+01,2.40e-01,
87,-1.00e+01,1.60e-01,
88,-1.80e+01,1.60e-01,
89,-1.00e+01,2.40e-01,
90,-1.80e+01,2.40e-01,
91,-1.00e+01,1.60e-01,
92,-1.80e+01,1.60e-01,
93,-1.00e+01,3.20e-01,
94,-1.80e+01,1.60e-01,
95,-1.00e+01,3.20e-01,
96,-8.00e+00,3.20e-01,
97,-1.80e+01,8.00e-02,
98,-8.00e+00,2.40e-01,
99,-1.80e+01,8.00e-02,
100,-8.00e+00,8.00e-02,
101,-1.80e+01,3.20e-01,
102,-8.00e+00,3.20e-01,
103,-1.80e+01,8.00e-02,
104,-8.00e+00,2.40e-01,
105,-1.80e+01,8.00e-02,
106,-8.00e+00,1.60e-01,
107,-1.80e+01,8.00e-02,
108,-8.00e+00,8.00e-02,
109,-1.80e+01,2.40e-01,
110,-1.80e+01,2.40e-01,
111,-8.00e+00,8.00e-02,
112,-1.80e+01,2.40e-01,
113,-8.00e+00,0.00e+00,
114,-1.80e+01,0.00e+00,
115,-8.00e+00,8.00e-02,
116,-1.80e+01,0.00e+00,
117,-8.00e+00,1.60e-01,
118,-1.80e+01,8.00e-02,
119,-8.00e+00,1.60e-01,
120,-1.80e+01,1.60e-01,
121,-8.00e+00,0.00e+00,
122,-1.80e+01,0.00e+00,
123,-8.00e+00,1.60e-01,
124,-1.60e+01,0.00e+00,
125,-8.00e+00,8.00e-02,
126,-8.00e+00,0.00e+00,
127,-1.80e+01,8.00e-02,
128,-1.60e+01,8.00e-02,
129,-8.00e+00,-8.00e-02,
130,-8.00e+00,-8.00e-02,
131,-1.60e+01,8.00e-02,
132,-8.00e+00,-8.00e-02,
133,-1.60e+01,8.00e-02,
134,-8.00e+00,0.00e+00,
135,-1.60e+01,1.60e-01,
136,-8.00e+00,1.60e-01,
137,-1.60e+01,0.00e+00,
138,-8.00e+00,0.00e+00,
139,-1.60e+01,1.60e-01,
140,-8.00e+00,8.00e-02,
141,-1.60e+01,-8.00e-02,
142,-1.60e+01,0.00e+00,
143,-8.00e+00,1.60e-01,
144,-1.60e+01,0.00e+00,
145,-8.00e+00,1.60e-01,
146,-1.60e+01,8.00e-02,
147,-8.00e+00,-8.00e-02,
148,-1.60e+01,0.00e+00,
149,-8.00e+00,8.00e-02,
150,-1.60e+01,0.00e+00,
151,-8.00e+00,1.60e-01,
152,-1.60e+01,0.00e+00,
153,-8.00e+00,1.60e-01,
154,-1.60e+01,0.00e+00,
155,-8.00e+00,1.60e-01,
156,-8.00e+00,8.00e-02,
157,-1.60e+01,-8.00e-02,
158,-8.00e+00,-8.00e-02,
159,-1.60e+01,8.00e-02,
160,-8.00e+00,0.00e+00,
161,-1.60e+01,1.60e-01,
162,-8.00e+00,8.00e-02,
163,-1.60e+01,-8.00e-02,
164,-8.00e+00,-8.00e-02,
165,-1.60e+01,8.00e-02,
166,-8.00e+00,-8.00e-02,
167,-1.60e+01,8.00e-02,
168,-8.00e+00,0.00e+00,
169,-1.60e+01,1.60e-01,
170,-1.60e+01,0.00e+00,
171,-8.00e+00,1.60e-01,
172,-1.60e+01,8.00e-02,
173,-8.00e+00,-8.00e-02,
174,-1.60e+01,-8.00e-02,
175,-8.00e+00,8.00e-02,
176,-1.60e+01,-8.00e-02,
177,-8.00e+00,8.00e-02,
178,-1.60e+01,0.00e+00,
179,-8.00e+00,8.00e-02,
180,-1.60e+01,8.00e-02,
181,-8.00e+00,-8.00e-02,
182,-1.60e+01,-8.00e-02,
183,-8.00e+00,8.00e-02,
184,-1.60e+01,-8.00e-02,
185,-8.00e+00,8.00e-02,
186,-8.00e+00,8.00e-02,
187,-1.60e+01,-8.00e-02,
188,-8.00e+00,8.00e-02,
189,-1.60e+01,-8.00e-02,
190,-8.00e+00,0.00e+00,
191,-1.60e+01,-1.60e-01,
192,-8.00e+00,-1.60e-01,
193,-1.60e+01,0.00e+00,
194,-8.00e+00,-8.00e-02,
195,-1.60e+01,8.00e-02,
196,-8.00e+00,8.00e-02,
197,-1.60e+01,-8.00e-02,
198,-8.00e+00,-8.00e-02,
199,-1.60e+01,8.00e-02,
200,-8.00e+00,-8.00e-02,
201,-1.60e+01,8.00e-02,
202,-1.60e+01,-8.00e-02,
203,-8.00e+00,8.00e-02,
204,-1.60e+01,0.00e+00,
205,-8.00e+00,1.60e-01,
206,-1.60e+01,8.00e-02,
207,-8.00e+00,-8.00e-02,
208,-1.60e+01,-8.00e-02,
209,-8.00e+00,0.00e+00,
210,-1.60e+01,-8.00e-02,
211,-8.00e+00,8.00e-02,
212,-1.60e+01,8.00e-02,
213,-8.00e+00,-8.00e-02,
214,-8.00e+00,0.00e+00,
215,-1.60e+01,-1.60e-01,
216,-8.00e+00,-2.40e-01,
217,-1.60e+01,-8.00e-02,
218,-8.00e+00,-2.40e-01,
219,-1.60e+01,-8.00e-02,
220,-8.00e+00,-1.60e-01,
221,-1.60e+01,0.00e+00,
222,-8.00e+00,-1.60e-01,
223,-1.60e+01,-8.00e-02,
224,-8.00e+00,-1.60e-01,
225,-1.60e+01,0.00e+00,
226,-1.60e+01,-1.60e-01,
227,-6.00e+00,0.00e+00,
228,-1.60e+01,0.00e+00,
229,-6.00e+00,-1.60e-01,
230,-8.00e+00,-8.00e-02,
231,-1.60e+01,8.00e-02,
232,-1.60e+01,-8.00e-02,
233,-6.00e+00,0.00e+00,
234,-1.60e+01,-8.00e-02,
235,-6.00e+00,0.00e+00,
236,-1.60e+01,8.00e-02,
237,-6.00e+00,-8.00e-02,
238,-1.60e+01,8.00e-02,
239,-6.00e+00,-8.00e-02,
240,-1.60e+01,0.00e+00,
241,-6.00e+00,-1.60e-01,
242,-1.60e+01,-1.60e-01,
243,-6.00e+00,0.00e+00,
244,-6.00e+00,-8.00e-02,
245,-1.60e+01,8.00e-02,
246,-6.00e+00,-8.00e-02,
247,-1.60e+01,8.00e-02,
248,-4.00e+00,-8.00e-02,
249,-1.60e+01,8.00e-02,
250,-4.00e+00,8.00e-02,
251,-1.60e+01,-8.00e-02,
252,-4.00e+00,0.00e+00,
253,-1.60e+01,1.60e-01,
254,-1.60e+01,1.60e-01,
255,-4.00e+00,0.00e+00,
256,-6.00e+00,1.60e-01,
257,-1.60e+01,0.00e+00,
258,-6.00e+00,1.60e-01,
259,-1.60e+01,-8.00e-02,
260,-1.40e+01,0.00e+00,
261,-6.00e+00,1.60e-01,
262,-1.60e+01,0.00e+00,
263,-6.00e+00,2.40e-01,
264,-1.40e+01,1.60e-01,
265,-6.00e+00,0.00e+00,
266,-1.40e+01,0.00e+00,
267,-6.00e+00,1.60e-01,
268,-1.40e+01,0.00e+00,
269,-4.00e+00,1.60e-01,
270,-1.40e+01,0.00e+00,
271,-4.00e+00,2.40e-01,
272,-1.40e+01,2.40e-01,
273,-4.00e+00,8.00e-02,
274,-1.40e+01,8.00e-02,
275,-4.00e+00,2.40e-01,
276,-4.00e+00,1.60e-01,
277,-1.40e+01,0.00e+00,
278,-4.00e+00,8.00e-02,
279,-1.40e+01,2.40e-01,
280,-6.00e+00,8.00e-02,
281,-1.40e+01,2.40e-01,
282,-4.00e+00,8.00e-02,
283,-1.40e+01,2.40e-01,
284,-6.00e+00,8.00e-02,
285,-1.40e+01,2.40e-01,
286,-4.00e+00,1.60e-01,
287,-1.40e+01,3.20e-01,
288,-1.40e+01,1.60e-01,
289,-4.00e+00,3.20e-01,
290,-1.40e+01,3.20e-01,
291,-6.00e+00,2.40e-01,
292,-1.40e+01,3.20e-01,
293,-4.00e+00,1.60e-01,
294,-1.40e+01,3.20e-01,
295,-4.00e+00,1.60e-01,
296,-1.40e+01,3.20e-01,
297,-4.00e+00,1.60e-01,
298,-1.40e+01,3.20e-01,
299,-4.00e+00,8.00e-02,
300,-1.40e+01,2.40e-01,
301,-6.00e+00,8.00e-02,
302,-1.40e+01,8.00e-02,
303,-4.00e+00,2.40e-01,
304,-1.40e+01,8.00e-02,
305,-4.00e+00,1.60e-01,
306,-4.00e+00,1.60e-01,
307,-1.40e+01,0.00e+00,
308,-6.00e+00,1.60e-01,
309,-1.40e+01,8.00e-02,
310,-4.00e+00,0.00e+00,
311,-1.40e+01,1.60e-01,
312,-1.40e+01,8.00e-02,
313,-4.00e+00,2.40e-01,
314,-4.00e+00,2.40e-01,
315,-1.40e+01,8.00e-02,
316,-1.40e+01,2.40e-01,
317,-4.00e+00,8.00e-02,
318,-1.40e+01,1.60e-01,
319,-4.00e+00,8.00e-02,
320,-6.00e+00,8.00e-02,
321,-1.40e+01,2.40e-01,
322,-1.40e+01,2.40e-01,
323,-4.00e+00,1.60e-01,
324,-1.40e+01,2.40e-01,
325,-4.00e+00,8.00e-02,
326,-1.40e+01,8.00e-02,
327,-4.00e+00,2.40e-01,
328,-1.40e+01,8.00e-02,
329,-6.00e+00,2.40e-01,
330,-1.40e+01,2.40e-01,
331,-4.00e+00,1.60e-01,
332,-1.40e+01,2.40e-01,
333,-4.00e+00,1.60e-01,
334,-4.00e+00,2.40e-01,
335,-1.40e+01,8.00e-02,
336,-4.00e+00,8.00e-02,
337,-1.40e+01,2.40e-01,
338,-4.00e+00,8.00e-02,
339,-1.40e+01,2.40e-01,
340,-4.00e+00,2.40e-01,
341,-1.40e+01,1.60e-01,
342,-4.00e+00,2.40e-01,
343,-1.40e+01,8.00e-02,
344,-4.00e+00,8.00e-02,
345,-1.40e+01,2.40e-01,
346,-4.00e+00,8.00e-02,
347,-1.40e+01,3.20e-01,
348,-4.00e+00,1.60e-01,
349,-1.40e+01,3.20e-01,
350,-1.20e+01,3.20e-01,
351,-4.00e+00,1.60e-01,
352,-1.40e+01,1.60e-01,
353,-4.00e+00,3.20e-01,
354,-1.40e+01,1.60e-01,
355,-4.00e+00,3.20e-01,
356,-1.40e+01,2.40e-01,
357,-4.00e+00,4.00e-01,
358,-1.40e+01,2.40e-01,
359,-4.00e+00,3.20e-01,
360,-1.40e+01,3.20e-01,
361,-4.00e+00,1.60e-01,
362,-1.40e+01,3.20e-01,
363,-4.00e+00,2.40e-01,
364,-4.00e+00,2.40e-01,
365,-1.40e+01,4.00e-01,
366,-4.00e+00,2.40e-01,
367,-1.40e+01,4.00e-01,
368,-4.00e+00,2.40e-01,
369,-1.40e+01,3.20e-01,
370,-6.00e+00,3.20e-01,
371,-1.40e+01,1.60e-01,
372,-4.00e+00,2.40e-01,
373,-1.40e+01,4.00e-01,
374,-4.00e+00,4.00e-01,
375,-1.40e+01,2.40e-01,
376,-1.40e+01,3.20e-01,
377,-2.00e+00,1.60e-01,
378,-1.40e+01,1.60e-01,
379,-4.00e+00,4.00e-01,
380,-1.40e+01,4.00e-01,
381,-2.00e+00,2.40e-01,
382,-1.40e+01,3.20e-01,
383,-2.00e+00,4.80e-01,
384,-1.40e+01,4.80e-01,
385,-2.00e+00,3.20e-01,
386,-1.40e+01,3.20e-01,
387,-2.00e+00,4.80e-01,
388,-1.40e+01,3.20e-01,
389,-2.00e+00,4.80e-01,
390,-1.40e+01,3.20e-01,
391,-4.00e+00,5.60e-01,
392,-1.20e+01,5.60e-01,
393,-2.00e+00,4.00e-01,
394,-2.00e+00,4.00e-01,
395,-1.20e+01,4.80e-01,
396,-4.00e+00,5.60e-01,
397,-1.20e+01,4.00e-01,
398,-2.00e+00,4.00e-01,
399,-1.20e+01,5.60e-01,
400,-4.00e+00,5.60e-01,
401,-1.20e+01,4.80e-01,
402,-2.00e+00,5.60e-01,
403,-1.20e+01,4.00e-01,
404,-4.00e+00,5.60e-01,
405,-1.20e+01,4.00e-01,
406,-2.00e+00,5.60e-01,
407,-1.20e+01,4.00e-01,
408,-1.20e+01,5.60e-01,
409,-2.00e+00,4.80e-01,
410,-1.20e+01,5.60e-01,
411,-2.00e+00,3.20e-01,
412,-1.20e+01,4.80e-01,
413,-2.00e+00,3.20e-01,
414,-1.20e+01,4.80e-01,
415,-2.00e+00,4.00e-01,
416,-1.20e+01,4.80e-01,
417,-2.00e+00,4.00e-01,
418,-1.20e+01,4.80e-01,
419,-2.00e+00,4.00e-01,
420,-1.20e+01,4.80e-01,
421,-4.00e+00,3.20e-01,
422,-2.00e+00,4.80e-01,
423,-1.20e+01,4.00e-01,
424,-4.00e+00,4.80e-01,
425,-1.20e+01,3.20e-01,
426,-2.00e+00,4.80e-01,
427,-1.20e+01,3.20e-01,
428,-2.00e+00,3.20e-01,
429,-1.20e+01,4.80e-01,
430,-2.00e+00,3.20e-01,
431,-1.20e+01,4.00e-01,
432,-2.00e+00,3.20e-01,
433,-1.20e+01,4.80e-01,
434,-1.20e+01,4.00e-01,
435,-2.00e+00,2.40e-01,
436,-1.20e+01,4.00e-01,
437,-2.00e+00,2.40e-01,
438,-2.00e+00,4.00e-01,
439,-1.20e+01,2.40e-01,
440,-1.20e+01,4.00e-01,
441,-2.00e+00,2.40e-01,
442,-1.20e+01,4.00e-01,
443,-2.00e+00,2.40e-01,
444,-1.20e+01,3.20e-01,
445,-4.00e+00,1.60e-01,
446,-1.20e+01,4.80e-01,
447,-2.00e+00,8.00e-02,
448,-1.20e+01,3.20e-01,
449,-2.00e+00,-8.00e-02,
450,-1.20e+01,1.60e-01,
451,-2.00e+00,-1.60e-01,
452,-2.00e+00,-8.00e-02,
453,-1.20e+01,-3.20e-01,
454,-2.00e+00,-4.00e-01,
455,-1.20e+01,-2.40e-01,
456,-2.00e+00,-2.40e-01,
457,-1.20e+01,-4.80e-01,
458,-2.00e+00,1.60e-01,
459,-1.20e+01,-7.20e-01,
460,-2.00e+00,-8.00e-02,
461,-1.20e+01,-8.80e-01,
462,-2.00e+00,-3.20e-01,
463,-1.20e+01,-8.00e-01,
464,-2.00e+00,-2.40e-01,
465,-1.20e+01,-8.00e-01,
466,-2.00e+00,-5.60e-01,
467,-1.20e+01,1.60e-01,
468,-1.00e+01,-2.40e-01,
469,-2.00e+00,4.00e-01,
470,-1.20e+01,8.00e-02,
471,-2.00e+00,6.40e-01,
472,-1.20e+01,3.20e-01,
473,-2.00e+00,8.00e-01,
474,-1.20e+01,4.00e-01,
475,-2.00e+00,9.60e-01,
476,-1.20e+01,6.40e-01,
477,-2.00e+00,1.12e+00,
478,-1.20e+01,1.04e+00,
479,-2.00e+00,7.20e-01,
480,-2.00e+00,7.20e-01,
481,-1.20e+01,1.28e+00,
482,-1.20e+01,9.60e-01,
483,-2.00e+00,1.44e+00,
484,-2.00e+00,1.04e+00,
485,-1.20e+01,1.44e+00,
486,-2.00e+00,9.60e-01,
487,-1.20e+01,1.52e+00,
488,-2.00e+00,1.12e+00,
489,-1.00e+01,1.60e+00,
490,-2.00e+00,1.28e+00,
491,-1.00e+01,1.84e+00,
492,-2.00e+00,1.60e+00,
493,-1.00e+01,2.16e+00,
494,-2.00e+00,1.76e+00,
495,-1.00e+01,2.48e+00,
496,-1.20e+01,2.00e+00,
497,-2.00e+00,2.64e+00,
498,-1.20e+01,2.00e+00,
499,-2.00e+00,2.72e+00,
500,-1.20e+01,2.40e+00,
501,-2.00e+00,3.04e+00,
502,-1.20e+01,2.80e+00,
503,-2.00e+00,3.20e+00,
504,-1.00e+01,3.12e+00,
505,-2.00e+00,3.60e+00,
506,-1.20e+01,3.36e+00,
507,-2.00e+00,3.84e+00,
508,-1.20e+01,3.60e+00,
509,-2.00e+00,4.08e+00,
510,-2.00e+00,4.16e+00,
511,-1.20e+01,3.60e+00,
512,-2.00e+00,4.00e+00,
513,-1.20e+01,3.60e+00,
514,0.00e+00,4.08e+00,
515,-1.20e+01,3.60e+00,
516,0.00e+00,4.08e+00,
517,-1.00e+01,3.68e+00,
518,0.00e+00,3.76e+00,
519,-1.20e+01,4.32e+00,
520,0.00e+00,4.00e+00,
521,-1.00e+01,4.56e+00,
522,0.00e+00,4.08e+00,
523,-1.20e+01,4.80e+00,
524,0.00e+00,4.08e+00,
525,-1.00e+01,4.64e+00,
526,-1.20e+01,4.16e+00,
527,0.00e+00,4.48e+00,
528,-8.00e+00,3.92e+00,
529,0.00e+00,4.40e+00,
530,-1.00e+01,3.84e+00,
531,0.00e+00,4.16e+00,
532,-1.00e+01,3.76e+00,
533,-2.00e+00,4.40e+00,
534,-1.00e+01,3.92e+00,
535,0.00e+00,4.40e+00,
536,-1.00e+01,4.48e+00,
537,0.00e+00,4.08e+00,
538,-8.00e+00,4.40e+00,
539,0.00e+00,3.84e+00,
540,-8.00e+00,4.40e+00,
541,0.00e+00,3.76e+00,
542,0.00e+00,4.40e+00,
543,-1.00e+01,3.52e+00,
544,0.00e+00,3.92e+00,
545,-1.00e+01,3.36e+00,
546,-2.00e+00,3.84e+00,
547,-1.00e+01,3.36e+00,
548,0.00e+00,3.76e+00,
549,-8.00e+00,3.12e+00,
550,0.00e+00,3.20e+00,
551,-1.00e+01,3.76e+00,
552,0.00e+00,3.60e+00,
553,-1.00e+01,3.28e+00,
554,-1.00e+01,2.96e+00,
555,0.00e+00,3.36e+00,
556,0.00e+00,2.88e+00,
557,-1.00e+01,3.28e+00,
558,-1.00e+01,2.72e+00,
559,0.00e+00,3.20e+00,
560,-8.00e+00,2.40e+00,
561,0.00e+00,3.12e+00,
562,-1.00e+01,2.72e+00,
563,0.00e+00,3.20e+00,
564,-1.00e+01,3.12e+00,
565,0.00e+00,2.64e+00,
566,-1.00e+01,3.12e+00,
567,0.00e+00,2.56e+00,
568,-8.00e+00,3.04e+00,
569,0.00e+00,2.32e+00,
570,-1.00e+01,2.88e+00,
571,0.00e+00,2.32e+00,
572,0.00e+00,2.72e+00,
573,-1.00e+01,2.16e+00,
574,0.00e+00,2.56e+00,
575,-1.00e+01,2.08e+00,
576,0.00e+00,2.64e+00,
577,-1.00e+01,2.16e+00,
578,0.00e+00,2.88e+00,
579,-1.00e+01,2.16e+00,
580,0.00e+00,2.24e+00,
581,-1.00e+01,2.80e+00,
582,0.00e+00,2.24e+00,
583,-1.00e+01,2.72e+00,
584,0.00e+00,2.24e+00,
585,-1.00e+01,2.88e+00,
586,0.00e+00,2.40e+00,
587,-1.00e+01,2.88e+00,
588,-1.00e+01,2.72e+00,
589,0.00e+00,2.24e+00,
590,-1.00e+01,2.16e+00,
591,0.00e+00,2.72e+00,
592,-8.00e+00,2.24e+00,
593,0.00e+00,2.88e+00,
594,-1.00e+01,2.48e+00,
595,0.00e+00,2.96e+00,
596,-1.00e+01,2.64e+00,
597,0.00e+00,3.12e+00,
598,-8.00e+00,3.04e+00,
599,0.00e+00,2.48e+00,
600,0.00e+00,2.88e+00,
601,-1.00e+01,2.40e+00,
602,0.00e+00,2.80e+00,
603,-1.00e+01,2.24e+00,
604,0.00e+00,2.72e+00,
605,-1.00e+01,2.24e+00,
606,0.00e+00,2.64e+00,
607,-1.00e+01,2.08e+00,
608,0.00e+00,2.16e+00,
609,-8.00e+00,2.80e+00,
610,0.00e+00,2.64e+00,
611,-1.00e+01,2.16e+00,
612,0.00e+00,2.48e+00,
613,-8.00e+00,2.16e+00,
614,0.00e+00,2.24e+00,
615,-1.00e+01,1.68e+00,
616,-8.00e+00,2.00e+00,
617,0.00e+00,1.60e+00,
618,-8.00e+00,1.52e+00,
619,0.00e+00,1.92e+00,
620,-8.00e+00,1.68e+00,
621,0.00e+00,1.28e+00,
622,-8.00e+00,1.60e+00,
623,0.00e+00,1.20e+00,
624,-8.00e+00,1.44e+00,
625,0.00e+00,8.80e-01,
626,-8.00e+00,1.28e+00,
627,0.00e+00,8.00e-01,
628,-8.00e+00,1.20e+00,
629,2.00e+00,7.20e-01,
630,-8.00e+00,1.04e+00,
631,2.00e+00,4.00e-01,
632,2.00e+00,7.20e-01,
633,-8.00e+00,-3.20e-01,
634,2.00e+00,4.00e-01,
635,-1.00e+01,-1.60e-01,
636,2.00e+00,-2.40e-01,
637,-8.00e+00,2.40e-01,
638,2.00e+00,8.00e-02,
639,-1.00e+01,-4.00e-01,
640,2.00e+00,-1.60e-01,
641,-8.00e+00,-7.20e-01,
642,2.00e+00,-3.20e-01,
643,-8.00e+00,-8.80e-01,
644,-8.00e+00,-4.80e-01,
645,2.00e+00,-1.04e+00,
646,-1.00e+01,-6.40e-01,
647,2.00e+00,-1.12e+00,
648,-1.00e+01,-8.00e-01,
649,2.00e+00,-1.44e+00,
650,-8.00e+00,-1.12e+00,
651,2.00e+00,-1.68e+00,
652,-8.00e+00,-1.28e+00,
653,2.00e+00,-1.84e+00,
654,2.00e+00,-1.84e+00,
655,-1.00e+01,-1.44e+00,
656,-1.00e+01,-1.52e+00,
657,2.00e+00,-2.00e+00,
658,2.00e+00,-1.92e+00,
659,-8.00e+00,-1.44e+00,
660,2.00e+00,-1.44e+00,
661,-8.00e+00,-2.24e+00,
662,2.00e+00,-1.44e+00,
663,-6.00e+00,-1.84e+00,
664,2.00e+00,-1.76e+00,
665,-8.00e+00,-1.36e+00,
666,2.00e+00,-1.36e+00,
667,-8.00e+00,-1.84e+00,
668,2.00e+00,-1.44e+00,
669,-6.00e+00,-2.08e+00,
670,2.00e+00,-1.52e+00,
671,-6.00e+00,-2.24e+00,
672,2.00e+00,-1.60e+00,
673,-6.00e+00,-2.24e+00,
674,2.00e+00,-1.52e+00,
675,-6.00e+00,-2.32e+00,
676,-6.00e+00,-1.60e+00,
677,2.00e+00,-2.24e+00,
678,-6.00e+00,-2.24e+00,
679,2.00e+00,-1.60e+00,
680,-6.00e+00,-1.60e+00,
681,2.00e+00,-2.24e+00,
682,-6.00e+00,-2.08e+00,
683,2.00e+00,-1.60e+00,
684,-6.00e+00,-2.00e+00,
685,2.00e+00,-1.84e+00,
686,-6.00e+00,-2.00e+00,
687,2.00e+00,-1.76e+00,
688,-6.00e+00,-1.84e+00,
689,2.00e+00,-1.68e+00,
690,-6.00e+00,-1.60e+00,
691,2.00e+00,-1.84e+00,
692,-6.00e+00,-1.76e+00,
693,2.00e+00,-1.44e+00,
694,2.00e+00,-1.60e+00,
695,-6.00e+00,-1.36e+00,
696,2.00e+00,-1.44e+00,
697,-6.00e+00,-1.28e+00,
698,2.00e+00,-1.28e+00,
699,-6.00e+00,-1.44e+00,
700,-6.00e+00,-1.36e+00,
701,2.00e+00,-1.20e+00,
702,2.00e+00,-1.36e+00,
703,-6.00e+00,-1.20e+00,
704,2.00e+00,-1.20e+00,
705,-6.00e+00,-1.28e+00,
706,-6.00e+00,-1.28e+00,
707,2.00e+00,-1.12e+00,
708,-6.00e+00,-1.28e+00,
709,2.00e+00,-1.04e+00,
710,-6.00e+00,-1.28e+00,
711,2.00e+00,-1.04e+00,
712,-6.00e+00,-1.12e+00,
713,2.00e+00,-9.60e-01,
714,-6.00e+00,-1.04e+00,
715,2.00e+00,-8.80e-01,
716,-6.00e+00,-1.04e+00,
717,2.00e+00,-8.80e-01,
718,-6.00e+00,-1.04e+00,
719,2.00e+00,-8.80e-01,
720,2.00e+00,-1.04e+00,
721,-6.00e+00,-8.00e-01,
722,2.00e+00,-8.80e-01,
723,-6.00e+00,-7.20e-01,
724,2.00e+00,-7.20e-01,
725,-6.00e+00,-8.80e-01,
726,2.00e+00,-8.80e-01,
727,-6.00e+00,-7.20e-01,
728,2.00e+00,-8.00e-01,
729,-6.00e+00,-6.40e-01,
730,2.00e+00,-6.40e-01,
731,-6.00e+00,-7.20e-01,
732,2.00e+00,-7.20e-01,
733,-6.00e+00,-5.60e-01,
734,2.00e+00,-7.20e-01,
735,-6.00e+00,-5.60e-01,
736,2.00e+00,-7.20e-01,
737,-6.00e+00,-5.60e-01,
738,-6.00e+00,-6.40e-01,
739,2.00e+00,-4.80e-01,
740,-6.00e+00,-4.80e-01,
741,2.00e+00,-6.40e-01,
742,-6.00e+00,-5.60e-01,
743,2.00e+00,-7.20e-01,
744,-6.00e+00,-7.20e-01,
745,2.00e+00,-5.60e-01,
746,-6.00e+00,-7.20e-01,
747,2.00e+00,-5.60e-01,
748,-6.00e+00,-6.40e-01,
749,2.00e+00,-4.80e-01,
750,2.00e+00,-4.80e-01,
751,-6.00e+00,-6.40e-01,
752,2.00e+00,-4.80e-01,
753,-6.00e+00,-6.40e-01,
754,2.00e+00,-4.80e-01,
755,-6.00e+00,-6.40e-01,
756,2.00e+00,-5.60e-01,
757,-6.00e+00,-4.00e-01,
758,2.00e+00,-4.00e-01,
759,-6.00e+00,-5.60e-01,
760,2.00e+00,-4.00e-01,
761,-6.00e+00,-5.60e-01,
762,2.00e+00,-5.60e-01,
763,-6.00e+00,-3.20e-01,
764,-6.00e+00,-4.80e-01,
765,4.00e+00,-2.40e-01,
766,-6.00e+00,-1.60e-01,
767,2.00e+00,-4.00e-01,
768,-6.00e+00,-3.20e-01,
769,4.00e+00,-4.00e-01,
770,-6.00e+00,-4.00e-01,
771,4.00e+00,-2.40e-01,
772,-6.00e+00,-3.20e-01,
773,4.00e+00,-1.60e-01,
774,-6.00e+00,-1.60e-01,
775,4.00e+00,-3.20e-01,
776,-6.00e+00,-2.40e-01,
777,4.00e+00,-4.00e-01,
778,4.00e+00,-3.20e-01,
779,-6.00e+00,-4.80e-01,
780,4.00e+00,-4.80e-01,
781,-6.00e+00,-2.40e-01,
782,4.00e+00,-2.40e-01,
783,-6.00e+00,-4.00e-01,
784,4.00e+00,-3.20e-01,
785,-6.00e+00,-4.80e-01,
786,4.00e+00,-4.80e-01,
787,-6.00e+00,-3.20e-01,
788,4.00e+00,-4.80e-01,
789,-6.00e+00,-2.40e-01,
790,4.00e+00,-1.60e-01,
791,-6.00e+00,-4.00e-01,
792,4.00e+00,-4.00e-01,
793,-6.00e+00,-2.40e-01,
794,-6.00e+00,-4.00e-01,
795,4.00e+00,-2.40e-01,
796,-6.00e+00,-3.20e-01,
797,4.00e+00,-1.60e-01,
798,-4.00e+00,-2.40e-01,
799,4.00e+00,-1.60e-01,
800,-6.00e+00,-1.60e-01,
801,4.00e+00,-4.00e-01,
802,-4.00e+00,-2.40e-01,
803,4.00e+00,-4.00e-01,
804,-4.00e+00,-4.00e-01,
805,4.00e+00,-2.40e-01,
806,-4.00e+00,-4.00e-01,
807,4.00e+00,-1.60e-01,
808,-4.00e+00,-2.40e-01,
809,4.00e+00,-8.00e-02,
810,-4.00e+00,-2.40e-01,
811,4.00e+00,-1.60e-01,
812,4.00e+00,-1.60e-01,
813,-4.00e+00,-3.20e-01,
814,2.00e+00,-1.60e-01,
815,-4.00e+00,-4.00e-01,
816,4.00e+00,-3.20e-01,
817,-4.00e+00,-1.60e-01,
818,2.00e+00,-1.60e-01,
819,-4.00e+00,-4.00e-01,
820,4.00e+00,-3.20e-01,
821,-4.00e+00,-4.00e-01,
822,4.00e+00,-4.00e-01,
823,-4.00e+00,-2.40e-01,
824,-4.00e+00,-3.20e-01,
825,4.00e+00,-1.60e-01,
826,-4.00e+00,-1.60e-01,
827,4.00e+00,-4.00e-01,
828,-4.00e+00,-3.20e-01,
829,4.00e+00,-4.80e-01,
