data/oscilloscope_data/NewFile42.csv

X,CH2,CH3,Start,Increment,
Sequence,Volt,Volt,-1.194000e+02,2.000000e-01
0,-2.80e+01,4.00e-01,
1,-1.60e+01,0.00e+00,
2,-1.60e+01,0.00e+00,
3,-2.80e+01,4.00e-01,
4,-1.60e+01,0.00e+00,
5,-2.80e+01,6.00e-01,
6,-1.60e+01,4.00e-01,
7,-2.80e+01,0.00e+00,
8,-1.60e+01,0.00e+00,
9,-2.80e+01,6.00e-01,
10,-1.60e+01,0.00e+00,
11,-2.80e+01,6.00e-01,
12,-2.80e+01,0.00e+00,
13,-1.60e+01,6.00e-01,
14,-1.60e+01,0.00e+00,
15,-2.80e+01,6.00e-01,
16,-1.60e+01,4.00e-01,
17,-2.80e+01,0.00e+00,
18,-1.60e+01,0.00e+00,
19,-2.80e+01,6.00e-01,
20,-2.80e+01,0.00e+00,
21,-1.60e+01,6.00e-01,
22,-1.60e+01,0.00e+00,
23,-2.80e+01,6.00e-01,
24,-1.60e+01,0.00e+00,
25,-2.80e+01,6.00e-01,
26,-2.80e+01,6.00e-01,
27,-1.60e+01,0.00e+00,
28,-1.60e+01,6.00e-01,
29,-2.80e+01,0.00e+00,
30,-1.60e+01,6.00e-01,
31,-2.80e+01,0.00e+00,
32,-2.80e+01,6.00e-01,
33,-1.60e+01,0.00e+00,
34,-1.60e+01,6.00e-01,
35,-2.80e+01,0.00e+00,
36,-1.60e+01,0.00e+00,
37,-2.80e+01,6.00e-01,
38,-2.80e+01,6.00e-01,
39,-1.60e+01,0.00e+00,
40,-1.60e+01,6.00e-01,
41,-2.80e+01,0.00e+00,
42,-1.60e+01,6.00e-01,
43,-2.80e+01,0.00e+00,
44,-2.80e+01,6.00e-01,
45,-1.60e+01,0.00e+00,
46,-1.60e+01,-2.00e-01,
47,-2.80e+01,4.00e-01,
48,-1.60e+01,4.00e-01,
49,-2.80e+01,0.00e+00,
50,-2.80e+01,4.00e-01,
51,-1.60e+01,-2.00e-01,
52,-1.60e+01,4.00e-01,
53,-2.80e+01,-2.00e-01,
54,-1.60e+01,4.00e-01,
55,-2.80e+01,-2.00e-01,
56,-1.60e+01,4.00e-01,
57,-2.80e+01,-2.00e-01,
58,-1.60e+01,4.00e-01,
59,-2.80e+01,-2.00e-01,
60,-2.80e+01,4.00e-01,
61,-1.60e+01,-2.00e-01,
62,-2.80e+01,0.00e+00,
63,-1.60e+01,6.00e-01,
64,-1.60e+01,0.00e+00,
65,-2.80e+01,4.00e-01,
66,-1.60e+01,4.00e-01,
67,-2.80e+01,-2.00e-01,
68,-1.60e+01,4.00e-01,
69,-2.80e+01,0.00e+00,
70,-1.60e+01,4.00e-01,
71,-2.80e+01,-2.00e-01,
72,-1.60e+01,4.00e-01,
73,-2.80e+01,-2.00e-01,
74,-1.60e+01,4.00e-01,
75,-2.80e+01,-2.00e-01,
76,-1.60e+01,-2.00e-01,
77,-2.80e+01,4.00e-01,
78,-1.60e+01,0.00e+00,
79,-2.80e+01,6.00e-01,
80,-1.60e+01,4.00e-01,
81,-2.80e+01,0.00e+00,
82,-1.60e+01,4.00e-01,
83,-2.80e+01,-2.00e-01,
84,-1.60e+01,0.00e+00,
85,-2.80e+01,6.00e-01,
86,-2.80e+01,0.00e+00,
87,-1.60e+01,6.00e-01,
88,-1.60e+01,2.00e-01,
89,-2.80e+01,8.00e-01,
90,-1.60e+01,8.00e-01,
91,-2.80e+01,2.00e-01,
92,-2.40e+01,2.00e-01,
93,-1.60e+01,8.00e-01,
94,-1.60e+01,6.00e-01,
95,-2.40e+01,0.00e+00,
96,-1.60e+01,0.00e+00,
97,-2.40e+01,6.00e-01,
98,-1.60e+01,6.00e-01,
99,-2.40e+01,0.00e+00,
100,-1.60e+01,0.00e+00,
101,-2.40e+01,4.00e-01,
102,-1.60e+01,6.00e-01,
103,-2.40e+01,0.00e+00,
104,-2.40e+01,6.00e-01,
105,-1.60e+01,0.00e+00,
106,-1.60e+01,4.00e-01,
107,-2.40e+01,0.00e+00,
108,-1.60e+01,0.00e+00,
109,-2.40e+01,6.00e-01,
110,-1.60e+01,6.00e-01,
111,-2.40e+01,0.00e+00,
112,-1.60e+01,6.00e-01,
113,-2.40e+01,0.00e+00,
114,-1.60e+01,0.00e+00,
115,-2.40e+01,6.00e-01,
116,-1.60e+01,6.00e-01,
117,-2.40e+01,0.00e+00,
118,-1.60e+01,6.00e-01,
119,-2.40e+01,0.00e+00,
120,-1.60e+01,0.00e+00,
121,-2.40e+01,6.00e-01,
122,-1.60e+01,0.00e+00,
123,-2.40e+01,6.00e-01,
124,-1.60e+01,6.00e-01,
125,-2.40e+01,0.00e+00,
126,-1.60e+01,-2.00e-01,
127,-2.40e+01,4.00e-01,
128,-2.40e+01,0.00e+00,
129,-1.60e+01,4.00e-01,
130,-1.60e+01,0.00e+00,
131,-2.40e+01,6.00e-01,
132,-1.60e+01,6.00e-01,
133,-2.40e+01,0.00e+00,
134,-1.60e+01,0.00e+00,
135,-2.40e+01,6.00e-01,
136,-1.60e+01,0.00e+00,
137,-2.40e+01,6.00e-01,
138,-1.60e+01,0.00e+00,
139,-2.40e+01,6.00e-01,
140,-2.40e+01,6.00e-01,
141,-1.60e+01,0.00e+00,
142,-1.20e+01,6.00e-01,
143,-2.40e+01,0.00e+00,
144,-1.20e+01,6.00e-01,
145,-2.40e+01,0.00e+00,
146,-2.40e+01,6.00e-01,
147,-8.00e+00,0.00e+00,
148,-1.20e+01,6.00e-01,
149,-2.40e+01,0.00e+00,
150,-1.20e+01,6.00e-01,
151,-2.40e+01,2.00e-01,
152,-8.00e+00,6.00e-01,
153,-2.40e+01,0.00e+00,
154,-2.40e+01,0.00e+00,
155,-8.00e+00,6.00e-01,
156,-8.00e+00,0.00e+00,
157,-2.40e+01,6.00e-01,
158,-2.40e+01,6.00e-01,
159,-8.00e+00,0.00e+00,
160,-8.00e+00,6.00e-01,
161,-2.40e+01,0.00e+00,
162,-1.20e+01,6.00e-01,
163,-2.40e+01,0.00e+00,
164,-1.20e+01,6.00e-01,
165,-2.40e+01,0.00e+00,
166,-8.00e+00,2.00e-01,
167,-2.40e+01,8.00e-01,
168,-2.40e+01,8.00e-01,
169,-8.00e+00,2.00e-01,
170,-2.40e+01,6.00e-01,
171,-8.00e+00,0.00e+00,
172,-2.40e+01,6.00e-01,
173,-8.00e+00,0.00e+00,
174,-2.40e+01,6.00e-01,
175,-8.00e+00,0.00e+00,
176,-2.40e+01,2.00e-01,
177,-8.00e+00,8.00e-01,
178,-2.40e+01,8.00e-01,
179,-8.00e+00,2.00e-01,
180,-8.00e+00,8.00e-01,
181,-2.40e+01,2.00e-01,
182,-8.00e+00,8.00e-01,
183,-2.40e+01,2.00e-01,
184,-1.20e+01,8.00e-01,
185,-2.40e+01,2.00e-01,
186,-8.00e+00,8.00e-01,
187,-2.00e+01,2.00e-01,
188,-1.20e+01,6.00e-01,
189,-2.00e+01,0.00e+00,
190,-2.00e+01,6.00e-01,
191,-8.00e+00,0.00e+00,
192,-8.00e+00,4.00e-01,
193,-1.60e+01,-2.00e-01,
194,-8.00e+00,4.00e-01,
195,-2.00e+01,-2.00e-01,
196,-1.60e+01,4.00e-01,
197,-8.00e+00,-2.00e-01,
198,-8.00e+00,4.00e-01,
199,-2.00e+01,-2.00e-01,
200,-2.00e+01,4.00e-01,
201,-8.00e+00,-2.00e-01,
202,-8.00e+00,-2.00e-01,
203,-2.00e+01,4.00e-01,
204,-8.00e+00,-2.00e-01,
205,-2.00e+01,4.00e-01,
206,-8.00e+00,4.00e-01,
207,-2.00e+01,-2.00e-01,
208,-8.00e+00,-2.00e-01,
209,-2.00e+01,4.00e-01,
210,-8.00e+00,-2.00e-01,
211,-2.00e+01,4.00e-01,
212,-8.00e+00,0.00e+00,
213,-2.00e+01,6.00e-01,
214,-8.00e+00,0.00e+00,
215,-2.00e+01,6.00e-01,
216,-1.60e+01,6.00e-01,
217,-8.00e+00,0.00e+00,
218,-8.00e+00,6.00e-01,
219,-2.00e+01,0.00e+00,
220,-8.00e+00,0.00e+00,
221,-2.00e+01,4.00e-01,
222,-1.60e+01,6.00e-01,
223,-8.00e+00,-2.00e-01,
224,-8.00e+00,4.00e-01,
225,-2.00e+01,-2.00e-01,
226,-2.00e+01,4.00e-01,
227,-4.00e+00,-2.00e-01,
228,-4.00e+00,4.00e-01,
229,-2.00e+01,-2.00e-01,
230,-2.00e+01,4.00e-01,
231,-4.00e+00,-2.00e-01,
232,-4.00e+00,0.00e+00,
233,-2.00e+01,6.00e-01,
234,-4.00e+00,4.00e-01,
235,-1.60e+01,-2.00e-01,
236,-1.60e+01,4.00e-01,
237,-4.00e+00,-2.00e-01,
238,-4.00e+00,0.00e+00,
239,-2.00e+01,6.00e-01,
240,-2.00e+01,0.00e+00,
241,-4.00e+00,6.00e-01,
242,-1.60e+01,4.00e-01,
243,-4.00e+00,-2.00e-01,
244,-8.00e+00,4.00e-01,
245,-2.00e+01,-2.00e-01,
246,-4.00e+00,-2.00e-01,
247,-1.60e+01,4.00e-01,
248,-4.00e+00,-2.00e-01,
249,-2.00e+01,4.00e-01,
250,-2.00e+01,-2.00e-01,
251,-4.00e+00,4.00e-01,
252,-4.00e+00,-2.00e-01,
253,-2.00e+01,4.00e-01,
254,-4.00e+00,-2.00e-01,
255,-2.00e+01,4.00e-01,
256,-1.60e+01,4.00e-01,
257,-4.00e+00,-2.00e-01,
258,-1.60e+01,4.00e-01,
259,-4.00e+00,0.00e+00,
260,-1.60e+01,-2.00e-01,
261,-4.00e+00,4.00e-01,
262,-4.00e+00,-2.00e-01,
263,-2.00e+01,4.00e-01,
264,-1.60e+01,4.00e-01,
265,-4.00e+00,-2.00e-01,
266,-4.00e+00,-2.00e-01,
267,-1.60e+01,4.00e-01,
268,-4.00e+00,4.00e-01,
269,-2.00e+01,0.00e+00,
270,-4.00e+00,0.00e+00,
271,-2.00e+01,6.00e-01,
272,-4.00e+00,0.00e+00,
273,-2.00e+01,6.00e-01,
274,-2.00e+01,6.00e-01,
275,-4.00e+00,0.00e+00,
276,-2.00e+01,6.00e-01,
277,-4.00e+00,0.00e+00,
278,-1.60e+01,0.00e+00,
279,-4.00e+00,6.00e-01,
280,-1.60e+01,6.00e-01,
281,-4.00e+00,0.00e+00,
282,-1.20e+01,0.00e+00,
283,-4.00e+00,6.00e-01,
284,-1.20e+01,2.00e-01,
285,-4.00e+00,8.00e-01,
286,-1.20e+01,2.00e-01,
287,-4.00e+00,8.00e-01,
288,-1.20e+01,8.00e-01,
289,-4.00e+00,2.00e-01,
290,-1.20e+01,2.00e-01,
291,-4.00e+00,6.00e-01,
292,-1.20e+01,6.00e-01,
293,-4.00e+00,0.00e+00,
294,-1.20e+01,0.00e+00,
295,-4.00e+00,6.00e-01,
296,-1.20e+01,6.00e-01,
297,-4.00e+00,0.00e+00,
298,-1.20e+01,6.00e-01,
299,-4.00e+00,0.00e+00,
300,-1.20e+01,6.00e-01,
301,-4.00e+00,0.00e+00,
302,-4.00e+00,6.00e-01,
303,-1.20e+01,0.00e+00,
304,-1.20e+01,0.00e+00,
305,-4.00e+00,6.00e-01,
306,-1.20e+01,0.00e+00,
307,-4.00e+00,6.00e-01,
308,-4.00e+00,0.00e+00,
309,-1.20e+01,6.00e-01,
310,-1.20e+01,4.00e-01,
311,-4.00e+00,-2.00e-01,
312,-1.20e+01,2.00e-01,
313,-4.00e+00,-4.00e-01,
314,-4.00e+00,2.00e-01,
315,-1.20e+01,-4.00e-01,
316,-1.20e+01,2.00e-01,
317,-4.00e+00,-4.00e-01,
318,0.00e+00,-2.00e-01,
319,-1.20e+01,4.00e-01,
320,-1.20e+01,-2.00e-01,
321,0.00e+00,4.00e-01,
322,-1.20e+01,-2.00e-01,
323,0.00e+00,4.00e-01,
324,-1.20e+01,4.00e-01,
325,0.00e+00,-2.00e-01,
326,-1.20e+01,-2.00e-01,
327,0.00e+00,4.00e-01,
328,-1.20e+01,-2.00e-01,
329,0.00e+00,4.00e-01,
330,-1.20e+01,4.00e-01,
331,0.00e+00,0.00e+00,
332,-1.20e+01,4.00e-01,
333,0.00e+00,-2.00e-01,
334,-1.20e+01,-2.00e-01,
335,0.00e+00,4.00e-01,
336,0.00e+00,-2.00e-01,
337,-1.20e+01,4.00e-01,
338,0.00e+00,0.00e+00,
339,-1.20e+01,6.00e-01,
340,-1.20e+01,4.00e-01,
341,0.00e+00,0.00e+00,
342,-1.20e+01,4.00e-01,
343,0.00e+00,-2.00e-01,
344,-1.20e+01,4.00e-01,
345,0.00e+00,0.00e+00,
346,-1.20e+01,4.00e-01,
347,0.00e+00,0.00e+00,
348,-1.20e+01,0.00e+00,
349,0.00e+00,4.00e-01,
350,0.00e+00,0.00e+00,
351,-1.20e+01,6.00e-01,
352,-1.20e+01,0.00e+00,
353,0.00e+00,6.00e-01,
354,-1.20e+01,-2.00e-01,
355,0.00e+00,4.00e-01,
356,0.00e+00,-2.00e-01,
357,-1.20e+01,4.00e-01,
358,-1.20e+01,-2.00e-01,
359,0.00e+00,4.00e-01,
360,-1.20e+01,4.00e-01,
361,0.00e+00,-2.00e-01,
362,0.00e+00,0.00e+00,
363,-1.20e+01,6.00e-01,
364,-1.20e+01,6.00e-01,
365,0.00e+00,0.00e+00,
366,0.00e+00,6.00e-01,
367,-1.20e+01,0.00e+00,
368,0.00e+00,0.00e+00,
369,-1.20e+01,6.00e-01,
370,-8.00e+00,6.00e-01,
371,0.00e+00,0.00e+00,
372,-8.00e+00,0.00e+00,
373,0.00e+00,6.00e-01,
374,0.00e+00,6.00e-01,
375,-8.00e+00,0.00e+00,
376,-8.00e+00,0.00e+00,
377,0.00e+00,4.00e-01,
378,-8.00e+00,4.00e-01,
379,0.00e+00,-2.00e-01,
380,0.00e+00,4.00e-01,
381,-8.00e+00,0.00e+00,
382,0.00e+00,0.00e+00,
383,-8.00e+00,6.00e-01,
384,-8.00e+00,4.00e-01,
385,0.00e+00,-2.00e-01,
386,-8.00e+00,-2.00e-01,
387,0.00e+00,4.00e-01,
388,-8.00e+00,4.00e-01,
389,0.00e+00,-2.00e-01,
390,-8.00e+00,4.00e-01,
391,0.00e+00,-2.00e-01,
392,-8.00e+00,-2.00e-01,
393,0.00e+00,4.00e-01,
394,0.00e+00,4.00e-01,
395,-8.00e+00,-2.00e-01,
396,-8.00e+00,2.00e-01,
397,0.00e+00,-2.00e-01,
398,0.00e+00,-2.00e-01,
399,-8.00e+00,4.00e-01,
400,0.00e+00,4.00e-01,
401,-8.00e+00,-2.00e-01,
402,-8.00e+00,6.00e-01,
403,4.00e+00,0.00e+00,
404,-8.00e+00,6.00e-01,
405,4.00e+00,0.00e+00,
406,4.00e+00,0.00e+00,
407,-8.00e+00,6.00e-01,
408,-8.00e+00,0.00e+00,
409,4.00e+00,6.00e-01,
410,-8.00e+00,6.00e-01,
411,4.00e+00,0.00e+00,
412,4.00e+00,0.00e+00,
413,-8.00e+00,6.00e-01,
414,-8.00e+00,0.00e+00,
415,4.00e+00,6.00e-01,
416,-8.00e+00,6.00e-01,
417,4.00e+00,0.00e+00,
418,-8.00e+00,0.00e+00,
419,4.00e+00,8.00e-01,
420,-8.00e+00,2.00e-01,
421,4.00e+00,8.00e-01,
422,-8.00e+00,6.00e-01,
423,4.00e+00,0.00e+00,
424,4.00e+00,6.00e-01,
425,-8.00e+00,2.00e-01,
426,-8.00e+00,2.00e-01,
427,4.00e+00,8.00e-01,
428,-8.00e+00,8.00e-01,
429,4.00e+00,0.00e+00,
430,-8.00e+00,6.00e-01,
431,4.00e+00,0.00e+00,
432,-8.00e+00,6.00e-01,
433,4.00e+00,0.00e+00,
434,-8.00e+00,0.00e+00,
435,4.00e+00,6.00e-01,
436,4.00e+00,0.00e+00,
437,-8.00e+00,6.00e-01,
438,-8.00e+00,0.00e+00,
439,4.00e+00,6.00e-01,
440,-8.00e+00,6.00e-01,
441,4.00e+00,2.00e-01,
442,4.00e+00,0.00e+00,
443,-8.00e+00,8.00e-01,
444,-8.00e+00,8.00e-01,
445,4.00e+00,2.00e-01,
446,-8.00e+00,6.00e-01,
447,4.00e+00,2.00e-01,
448,4.00e+00,2.00e-01,
449,-8.00e+00,8.00e-01,
450,-8.00e+00,2.00e-01,
451,4.00e+00,8.00e-01,
452,-8.00e+00,6.00e-01,
453,4.00e+00,0.00e+00,
454,4.00e+00,2.00e-01,
455,-8.00e+00,8.00e-01,
456,-8.00e+00,2.00e-01,
457,4.00e+00,8.00e-01,
458,4.00e+00,6.00e-01,
459,-8.00e+00,0.00e+00,
460,-4.00e+00,2.00e-01,
461,4.00e+00,8.00e-01,
462,-4.00e+00,8.00e-01,
463,4.00e+00,2.00e-01,
464,-4.00e+00,2.00e-01,
465,4.00e+00,8.00e-01,
466,4.00e+00,8.00e-01,
467,-4.00e+00,4.00e-01,
468,-4.00e+00,8.00e-01,
469,4.00e+00,4.00e-01,
470,-4.00e+00,1.00e+00,
471,4.00e+00,2.00e-01,
472,4.00e+00,8.00e-01,
473,-4.00e+00,2.00e-01,
474,4.00e+00,8.00e-01,
475,-4.00e+00,2.00e-01,
476,-4.00e+00,2.00e-01,
477,4.00e+00,8.00e-01,
478,-4.00e+00,8.00e-01,
479,4.00e+00,2.00e-01,
480,-4.00e+00,2.00e-01,
481,4.00e+00,8.00e-01,
482,-4.00e+00,8.00e-01,
483,4.00e+00,4.00e-01,
484,4.00e+00,8.00e-01,
485,-4.00e+00,2.00e-01,
486,4.00e+00,2.00e-01,
487,-4.00e+00,8.00e-01,
488,-4.00e+00,8.00e-01,
489,4.00e+00,2.00e-01,
490,4.00e+00,2.00e-01,
491,-4.00e+00,8.00e-01,
492,4.00e+00,8.00e-01,
493,-4.00e+00,2.00e-01,
494,-4.00e+00,8.00e-01,
495,8.00e+00,2.00e-01,
496,8.00e+00,2.00e-01,
497,-4.00e+00,8.00e-01,
498,8.00e+00,8.00e-01,
499,-4.00e+00,2.00e-01,
500,-4.00e+00,8.00e-01,
501,8.00e+00,2.00e-01,
502,-4.00e+00,2.00e-01,
503,8.00e+00,8.00e-01,
504,8.00e+00,2.00e-01,
505,-4.00e+00,8.00e-01,
506,-4.00e+00,2.00e-01,
507,8.00e+00,8.00e-01,
508,-4.00e+00,8.00e-01,
509,8.00e+00,2.00e-01,
510,8.00e+00,2.00e-01,
511,-4.00e+00,8.00e-01,
512,-4.00e+00,2.00e-01,
513,8.00e+00,8.00e-01,
514,-4.00e+00,8.00e-01,
515,8.00e+00,0.00e+00,
516,-4.00e+00,2.00e-01,
517,8.00e+00,8.00e-01,
518,-4.00e+00,2.00e-01,
519,8.00e+00,8.00e-01,
520,-4.00e+00,8.00e-01,
521,8.00e+00,2.00e-01,
522,8.00e+00,8.00e-01,
523,-4.00e+00,2.00e-01,
524,-4.00e+00,6.00e-01,
525,8.00e+00,0.00e+00,
526,-4.00e+00,0.00e+00,
527,8.00e+00,6.00e-01,
528,8.00e+00,4.00e-01,
529,-4.00e+00,-1.00e+00,
530,-4.00e+00,-1.20e+00,
531,8.00e+00,4.00e-01,
532,-4.00e+00,-8.00e-01,
533,8.00e+00,1.00e+00,
534,8.00e+00,2.00e-01,
535,-4.00e+00,2.20e+00,
536,8.00e+00,2.40e+00,
537,-4.00e+00,1.40e+00,
538,-4.00e+00,1.80e+00,
539,8.00e+00,3.20e+00,
540,8.00e+00,2.60e+00,
541,-4.00e+00,4.40e+00,
542,-4.00e+00,4.00e+00,
543,8.00e+00,5.80e+00,
544,-4.00e+00,5.20e+00,
545,8.00e+00,7.40e+00,
546,8.00e+00,6.60e+00,
547,-4.00e+00,8.20e+00,
548,-4.00e+00,7.40e+00,
549,8.00e+00,8.60e+00,
550,8.00e+00,8.80e+00,
551,-4.00e+00,7.80e+00,
552,8.00e+00,8.80e+00,
553,-4.00e+00,7.60e+00,
554,8.00e+00,8.20e+00,
555,-4.00e+00,6.80e+00,
556,8.00e+00,7.40e+00,
557,-4.00e+00,5.60e+00,
558,0.00e+00,6.40e+00,
559,8.00e+00,4.80e+00,
560,0.00e+00,5.40e+00,
561,8.00e+00,3.40e+00,
562,0.00e+00,4.00e+00,
563,8.00e+00,2.60e+00,
564,8.00e+00,3.40e+00,
565,0.00e+00,1.80e+00,
566,0.00e+00,2.20e+00,
567,8.00e+00,1.20e+00,
568,0.00e+00,2.20e+00,
569,8.00e+00,1.20e+00,
570,0.00e+00,1.40e+00,
571,8.00e+00,2.40e+00,
572,0.00e+00,1.40e+00,
573,8.00e+00,2.60e+00,
574,8.00e+00,1.60e+00,
575,0.00e+00,2.80e+00,
576,8.00e+00,1.60e+00,
577,0.00e+00,2.80e+00,
578,8.00e+00,1.80e+00,
579,0.00e+00,2.80e+00,
580,0.00e+00,2.80e+00,
581,8.00e+00,1.60e+00,
582,8.00e+00,2.60e+00,
583,0.00e+00,1.40e+00,
584,8.00e+00,2.00e+00,
585,0.00e+00,4.00e-01,
586,0.00e+00,1.00e+00,
587,8.00e+00,-1.00e+00,
588,0.00e+00,-4.00e-01,
589,1.20e+01,-3.00e+00,
590,1.20e+01,-2.20e+00,
591,0.00e+00,-4.00e+00,
592,0.00e+00,-3.20e+00,
593,1.20e+01,-5.00e+00,
594,1.20e+01,-4.40e+00,
595,0.00e+00,-5.80e+00,
596,1.20e+01,-5.20e+00,
597,0.00e+00,-6.00e+00,
598,0.00e+00,-6.20e+00,
599,1.20e+01,-4.60e+00,
600,1.20e+01,-5.20e+00,
601,0.00e+00,-4.00e+00,
602,1.20e+01,-4.60e+00,
603,0.00e+00,-3.20e+00,
604,0.00e+00,-4.20e+00,
605,1.20e+01,-3.00e+00,
606,0.00e+00,-3.80e+00,
607,1.20e+01,-2.40e+00,
608,0.00e+00,-2.60e+00,
609,1.20e+01,-1.40e+00,
610,0.00e+00,-1.60e+00,
611,1.20e+01,-8.00e-01,
612,0.00e+00,-1.20e+00,
613,1.20e+01,-4.00e-01,
614,1.20e+01,-8.00e-01,
615,0.00e+00,-2.00e-01,
616,0.00e+00,-6.00e-01,
617,1.20e+01,0.00e+00,
618,0.00e+00,0.00e+00,
619,1.20e+01,-6.00e-01,
620,1.20e+01,-4.00e-01,
621,0.00e+00,0.00e+00,
622,0.00e+00,-4.00e-01,
623,1.20e+01,2.00e-01,
624,1.20e+01,2.00e-01,
625,0.00e+00,-4.00e-01,
626,1.20e+01,2.00e-01,
627,0.00e+00,-4.00e-01,
628,1.20e+01,2.00e-01,
629,0.00e+00,-4.00e-01,
630,0.00e+00,2.00e-01,
631,1.20e+01,-4.00e-01,
632,1.20e+01,2.00e-01,
633,0.00e+00,-4.00e-01,
634,1.20e+01,-4.00e-01,
635,0.00e+00,4.00e-01,
636,1.20e+01,-2.00e-01,
637,0.00e+00,4.00e-01,
638,1.20e+01,-2.00e-01,
639,0.00e+00,4.00e-01,
640,1.20e+01,-2.00e-01,
641,4.00e+00,4.00e-01,
642,4.00e+00,4.00e-01,
643,1.20e+01,-2.00e-01,
644,4.00e+00,4.00e-01,
645,1.20e+01,-2.00e-01,
646,4.00e+00,2.00e-01,
647,1.20e+01,-4.00e-01,
648,4.00e+00,2.00e-01,
649,1.20e+01,-4.00e-01,
650,1.20e+01,-4.00e-01,
651,4.00e+00,2.00e-01,
652,4.00e+00,2.00e-01,
653,1.20e+01,-6.00e-01,
654,4.00e+00,-4.00e-01,
655,1.20e+01,2.00e-01,
656,1.20e+01,-4.00e-01,
657,4.00e+00,2.00e-01,
658,4.00e+00,-4.00e-01,
659,1.20e+01,2.00e-01,
660,4.00e+00,-2.00e-01,
661,1.20e+01,4.00e-01,
662,1.20e+01,-2.00e-01,
663,4.00e+00,4.00e-01,
664,1.20e+01,-2.00e-01,
665,4.00e+00,4.00e-01,
666,4.00e+00,4.00e-01,
667,1.20e+01,-4.00e-01,
668,1.20e+01,-4.00e-01,
669,4.00e+00,2.00e-01,
670,1.20e+01,-4.00e-01,
671,4.00e+00,2.00e-01,
672,4.00e+00,-2.00e-01,
673,1.20e+01,4.00e-01,
674,4.00e+00,-2.00e-01,
675,1.20e+01,4.00e-01,
676,4.00e+00,4.00e-01,
677,1.60e+01,-2.00e-01,
678,1.60e+01,4.00e-01,
679,4.00e+00,-4.00e-01,
680,1.60e+01,4.00e-01,
681,4.00e+00,-2.00e-01,
682,1.60e+01,4.00e-01,
683,4.00e+00,-2.00e-01,
684,1.60e+01,4.00e-01,
685,4.00e+00,-2.00e-01,
686,1.60e+01,4.00e-01,
687,4.00e+00,-2.00e-01,
688,1.60e+01,-2.00e-01,
689,4.00e+00,4.00e-01,
690,4.00e+00,-2.00e-01,
691,1.60e+01,4.00e-01,
692,4.00e+00,4.00e-01,
693,1.60e+01,-2.00e-01,
694,1.60e+01,4.00e-01,
695,4.00e+00,-2.00e-01,
696,1.60e+01,4.00e-01,
697,4.00e+00,-2.00e-01,
698,4.00e+00,4.00e-01,
699,1.60e+01,-2.00e-01,
700,4.00e+00,4.00e-01,
701,1.60e+01,-2.00e-01,
702,4.00e+00,4.00e-01,
703,1.60e+01,-2.00e-01,
704,1.60e+01,4.00e-01,
705,4.00e+00,0.00e+00,
706,1.60e+01,0.00e+00,
707,4.00e+00,6.00e-01,
708,1.60e+01,6.00e-01,
709,4.00e+00,0.00e+00,
710,4.00e+00,0.00e+00,
711,1.60e+01,6.00e-01,
712,1.60e+01,6.00e-01,
713,4.00e+00,0.00e+00,
714,1.60e+01,0.00e+00,
715,4.00e+00,4.00e-01,
716,4.00e+00,6.00e-01,
717,1.60e+01,0.00e+00,
718,1.60e+01,4.00e-01,
719,4.00e+00,-2.00e-01,
720,1.60e+01,-2.00e-01,
721,4.00e+00,4.00e-01,
722,1.60e+01,4.00e-01,
723,4.00e+00,-2.00e-01,
724,1.60e+01,4.00e-01,
725,4.00e+00,-2.00e-01,
726,1.60e+01,4.00e-01,
727,4.00e+00,-2.00e-01,
728,4.00e+00,4.00e-01,
729,1.60e+01,-2.00e-01,
730,1.60e+01,-2.00e-01,
731,4.00e+00,2.00e-01,
732,1.60e+01,-2.00e-01,
733,8.00e+00,4.00e-01,
734,8.00e+00,4.00e-01,
735,1.60e+01,-2.00e-01,
736,1.60e+01,0.00e+00,
737,8.00e+00,6.00e-01,
738,1.60e+01,2.00e-01,
739,8.00e+00,6.00e-01,
740,8.00e+00,6.00e-01,
741,1.60e+01,0.00e+00,
742,1.60e+01,6.00e-01,
743,8.00e+00,2.00e-01,
744,8.00e+00,6.00e-01,
745,1.60e+01,0.00e+00,
746,8.00e+00,6.00e-01,
747,1.60e+01,0.00e+00,
748,1.60e+01,8.00e-01,
749,8.00e+00,2.00e-01,
750,1.60e+01,2.00e-01,
751,8.00e+00,8.00e-01,
752,8.00e+00,2.00e-01,
753,1.60e+01,8.00e-01,
754,1.60e+01,6.00e-01,
755,8.00e+00,2.00e-01,
756,1.60e+01,6.00e-01,
757,8.00e+00,0.00e+00,
758,8.00e+00,6.00e-01,
759,1.60e+01,0.00e+00,
760,1.60e+01,0.00e+00,
761,8.00e+00,6.00e-01,
762,1.60e+01,0.00e+00,
763,8.00e+00,6.00e-01,
764,8.00e+00,0.00e+00,
765,1.60e+01,6.00e-01,
766,1.60e+01,0.00e+00,
767,8.00e+00,6.00e-01,
768,2.00e+01,6.00e-01,
769,8.00e+00,0.00e+00,
770,8.00e+00,6.00e-01,
771,2.00e+01,0.00e+00,
772,2.00e+01,0.00e+00,
773,8.00e+00,6.00e-01,
774,2.00e+01,0.00e+00,
775,8.00e+00,6.00e-01,
776,8.00e+00,0.00e+00,
777,2.00e+01,6.00e-01,
778,8.00e+00,8.00e-01,
779,2.00e+01,0.00e+00,
780,2.00e+01,6.00e-01,
781,8.00e+00,0.00e+00,
782,8.00e+00,6.00e-01,
783,2.00e+01,0.00e+00,
784,8.00e+00,2.00e-01,
785,2.00e+01,6.00e-01,
786,2.00e+01,6.00e-01,
787,8.00e+00,0.00e+00,
788,8.00e+00,6.00e-01,
789,2.00e+01,0.00e+00,
790,8.00e+00,0.00e+00,
791,2.00e+01,6.00e-01,
792,2.00e+01,0.00e+00,
793,8.00e+00,6.00e-01,
794,8.00e+00,0.00e+00,
795,2.00e+01,6.00e-01,
796,2.00e+01,6.00e-01,
797,8.00e+00,0.00e+00,
798,2.00e+01,6.00e-01,
799,8.00e+00,0.00e+00,
800,2.00e+01,0.00e+00,
801,8.00e+00,6.00e-01,
802,2.00e+01,6.00e-01,
803,8.00e+00,0.00e+00,
804,2.00e+01,6.00e-01,
805,8.00e+00,0.00e+00,
806,8.00e+00,0.00e+00,
807,2.00e+01,6.00e-01,
808,2.00e+01,0.00e+00,
809,8.00e+00,6.00e-01,
810,2.00e+01,6.00e-01,
811,8.00e+00,0.00e+00,
812,8.00e+00,6.00e-01,
813,2.00e+01,0.00e+00,
814,8.00e+00,6.00e-01,
815,2.00e+01,0.00e+00,
816,2.00e+01,6.00e-01,
817,8.00e+00,0.00e+00,
818,2.00e+01,0.00e+00,
819,8.00e+00,6.00e-01,
820,1.20e+01,6.00e-01,
821,2.00e+01,0.00e+00,
822,2.00e+01,6.00e-01,
823,1.20e+01,0.00e+00,
824,2.00e+01,4.00e-01,
825,1.20e+01,-2.00e-01,
826,1.20e+01,4.00e-01,
827,2.00e+01,-2.00e-01,
828,2.00e+01,4.00e-01,
829,1.20e+01,-2.00e-01,
830,2.00e+01,4.00e-01,
831,1.20e+01,-2.00e-01,
832,2.00e+01,0.00e+00,
833,1.20e+01,6.00e-01,
834,2.00e+01,0.00e+00,
835,1.20e+01,6.00e-01,
836,1.20e+01,4.00e-01,
837,2.00e+01,-2.00e-01,
838,1.20e+01,-2.00e-01,
839,2.00e+01,6.00e-01,
840,2.00e+01,0.00e+00,
841,1.20e+01,6.00e-01,
842,2.00e+01,4.00e-01,
843,1.20e+01,-2.00e-01,
844,1.20e+01,4.00e-01,
