data/oscilloscope_data/NewFile31.csv

X,CH1,CH2,Start,Increment,
Sequence,Volt,Volt,-5.960000e-02,1.000000e-04
0,0.00e+00,-1.60e-02,
1,-1.20e+00,8.00e-03,
2,-8.00e-01,-1.20e-02,
3,4.00e-01,8.00e-03,
4,0.00e+00,-1.20e-02,
5,1.60e+00,1.20e-02,
6,1.20e+00,-8.00e-03,
7,2.40e+00,1.20e-02,
8,1.60e+00,-8.00e-03,
9,0.00e+00,1.60e-02,
10,1.60e+00,-8.00e-03,
11,8.00e-01,1.60e-02,
12,1.60e+00,-4.00e-03,
13,4.00e-01,2.00e-02,
14,4.00e-01,0.00e+00,
15,1.20e+00,2.00e-02,
16,1.20e+00,2.00e-02,
17,0.00e+00,0.00e+00,
18,4.00e-01,2.00e-02,
19,-1.60e+00,0.00e+00,
20,-1.20e+00,4.00e-03,
21,0.00e+00,2.40e-02,
22,0.00e+00,2.40e-02,
23,-1.60e+00,4.00e-03,
24,-1.60e+00,4.00e-03,
25,-4.00e-01,2.80e-02,
26,-4.00e-01,4.00e-03,
27,-1.20e+00,3.20e-02,
28,-1.20e+00,8.00e-03,
29,0.00e+00,2.80e-02,
30,4.00e-01,8.00e-03,
31,-8.00e-01,3.20e-02,
32,-8.00e-01,8.00e-03,
33,4.00e-01,3.20e-02,
34,-4.00e-01,1.20e-02,
35,8.00e-01,3.20e-02,
36,8.00e-01,3.20e-02,
37,-4.00e-01,8.00e-03,
38,8.00e-01,3.20e-02,
39,-4.00e-01,1.20e-02,
40,0.00e+00,1.20e-02,
41,1.20e+00,3.60e-02,
42,8.00e-01,3.60e-02,
43,2.40e+00,1.60e-02,
44,2.00e+00,1.60e-02,
45,8.00e-01,3.60e-02,
46,1.20e+00,1.60e-02,
47,4.00e-01,4.00e-02,
48,4.00e-01,1.60e-02,
49,1.20e+00,4.00e-02,
50,1.20e+00,4.00e-02,
51,0.00e+00,1.60e-02,
52,0.00e+00,1.60e-02,
53,1.20e+00,4.00e-02,
54,-4.00e-01,4.00e-02,
55,8.00e-01,1.60e-02,
56,4.00e-01,2.00e-02,
57,-8.00e-01,5.20e-02,
58,4.00e-01,2.00e-02,
59,-1.20e+00,4.00e-02,
60,-1.20e+00,2.00e-02,
61,-4.00e-01,4.40e-02,
62,-4.00e-01,2.00e-02,
63,-1.60e+00,4.00e-02,
64,-2.00e+00,2.00e-02,
65,0.00e+00,4.40e-02,
66,-8.00e-01,2.00e-02,
67,0.00e+00,4.40e-02,
68,0.00e+00,2.00e-02,
69,-1.20e+00,4.40e-02,
70,-4.00e-01,2.00e-02,
71,-1.60e+00,4.40e-02,
72,-1.20e+00,2.00e-02,
73,0.00e+00,4.40e-02,
74,0.00e+00,4.40e-02,
75,-1.20e+00,2.00e-02,
76,-1.20e+00,2.40e-02,
77,0.00e+00,4.80e-02,
78,-1.20e+00,2.40e-02,
79,4.00e-01,4.40e-02,
80,4.00e-01,2.40e-02,
81,-4.00e-01,4.80e-02,
82,4.00e-01,4.40e-02,
83,-8.00e-01,2.40e-02,
84,0.00e+00,2.40e-02,
85,-1.20e+00,4.80e-02,
86,4.00e-01,2.40e-02,
87,-8.00e-01,4.80e-02,
88,-4.00e-01,4.80e-02,
89,1.20e+00,2.40e-02,
90,4.00e-01,4.80e-02,
91,2.40e+00,2.80e-02,
92,1.20e+00,4.80e-02,
93,2.40e+00,2.80e-02,
94,2.40e+00,2.80e-02,
95,4.00e-01,4.80e-02,
96,4.00e-01,5.20e-02,
97,2.40e+00,2.80e-02,
98,1.60e+00,5.20e-02,
99,2.80e+00,2.80e-02,
100,8.00e-01,5.20e-02,
101,2.00e+00,2.80e-02,
102,1.60e+00,5.20e-02,
103,4.00e-01,3.20e-02,
104,4.00e-01,5.20e-02,
105,1.60e+00,3.20e-02,
106,1.60e+00,3.20e-02,
107,-4.00e-01,5.60e-02,
108,4.00e-01,5.20e-02,
109,-8.00e-01,3.20e-02,
110,-8.00e-01,3.20e-02,
111,4.00e-01,5.20e-02,
112,-4.00e-01,5.20e-02,
113,8.00e-01,2.80e-02,
114,0.00e+00,3.20e-02,
115,1.20e+00,5.20e-02,
116,8.00e-01,5.60e-02,
117,2.00e+00,3.20e-02,
118,2.80e+00,5.20e-02,
119,4.00e-01,3.20e-02,
120,1.20e+00,5.60e-02,
121,4.00e-01,3.20e-02,
122,4.00e-01,5.20e-02,
123,1.60e+00,3.20e-02,
124,2.00e+00,3.20e-02,
125,1.20e+00,5.60e-02,
126,2.00e+00,6.00e-02,
127,0.00e+00,3.20e-02,
128,1.20e+00,2.20e-01,
129,-1.20e+00,3.60e-02,
130,-8.00e-01,4.00e-02,
131,-2.00e+00,6.80e-02,
132,-2.00e+00,4.40e-02,
133,-4.00e-01,6.80e-02,
134,-1.20e+00,4.40e-02,
135,4.00e-01,7.20e-02,
136,0.00e+00,7.20e-02,
137,1.20e+00,5.20e-02,
138,0.00e+00,7.20e-02,
139,1.20e+00,5.20e-02,
140,1.20e+00,7.20e-02,
141,4.00e-01,5.20e-02,
142,4.00e-01,7.20e-02,
143,1.60e+00,4.80e-02,
144,1.60e+00,7.20e-02,
145,4.00e-01,4.80e-02,
146,1.20e+00,6.80e-02,
147,2.80e+00,4.40e-02,
148,2.00e+00,4.40e-02,
149,2.80e+00,6.80e-02,
150,2.80e+00,4.40e-02,
151,1.20e+00,6.40e-02,
152,1.60e+00,6.40e-02,
153,8.00e-01,3.60e-02,
154,8.00e-01,3.60e-02,
155,1.60e+00,6.40e-02,
156,2.00e+00,3.60e-02,
157,1.20e+00,6.00e-02,
158,2.40e+00,5.60e-02,
159,1.20e+00,3.20e-02,
160,1.60e+00,5.60e-02,
161,2.80e+00,3.20e-02,
162,2.40e+00,3.20e-02,
163,8.00e-01,6.00e-02,
164,1.20e+00,5.20e-02,
165,0.00e+00,3.20e-02,
166,8.00e-01,3.20e-02,
167,-4.00e-01,5.20e-02,
168,0.00e+00,5.20e-02,
169,-1.60e+00,2.80e-02,
170,-8.00e-01,4.80e-02,
171,-2.00e+00,2.80e-02,
172,-1.20e+00,4.80e-02,
173,-2.80e+00,2.80e-02,
174,-2.00e+00,2.80e-02,
175,-3.60e+00,4.80e-02,
176,-2.80e+00,2.40e-02,
177,-4.40e+00,4.80e-02,
178,-4.40e+00,4.80e-02,
179,-2.80e+00,2.40e-02,
180,-3.60e+00,4.40e-02,
181,-1.20e+00,2.40e-02,
182,-2.00e+00,2.40e-02,
183,-8.00e-01,4.40e-02,
184,-1.60e+00,2.40e-02,
185,-4.00e-01,4.40e-02,
186,-1.60e+00,4.40e-02,
187,-4.00e-01,2.00e-02,
188,-8.00e-01,4.00e-02,
189,4.00e-01,2.00e-02,
190,4.00e-01,4.00e-02,
191,-8.00e-01,2.00e-02,
192,8.00e-01,4.00e-02,
193,-4.00e-01,1.60e-02,
194,-4.00e-01,1.60e-02,
195,1.60e+00,4.00e-02,
196,1.60e+00,1.60e-02,
197,8.00e-01,4.00e-02,
198,1.60e+00,3.60e-02,
199,-8.00e-01,1.60e-02,
200,0.00e+00,1.60e-02,
201,-1.20e+00,4.00e-02,
202,-1.20e+00,3.60e-02,
203,4.00e-01,1.60e-02,
204,0.00e+00,3.60e-02,
205,8.00e-01,1.20e-02,
206,8.00e-01,1.60e-02,
207,-4.00e-01,3.60e-02,
208,0.00e+00,1.20e-02,
209,1.20e+00,3.60e-02,
210,0.00e+00,1.20e-02,
211,1.20e+00,3.60e-02,
212,4.00e-01,3.60e-02,
213,1.60e+00,1.20e-02,
214,1.60e+00,3.60e-02,
215,0.00e+00,1.20e-02,
216,1.60e+00,3.60e-02,
217,4.00e-01,1.20e-02,
218,4.00e-01,1.20e-02,
219,2.80e+00,3.60e-02,
220,2.40e+00,1.20e-02,
221,3.60e+00,3.20e-02,
222,3.20e+00,3.20e-02,
223,2.00e+00,8.00e-03,
224,2.80e+00,3.20e-02,
225,1.20e+00,8.00e-03,
226,1.60e+00,3.20e-02,
227,8.00e-01,8.00e-03,
228,1.60e+00,8.00e-03,
229,4.00e-01,3.20e-02,
230,4.00e-01,2.80e-02,
231,1.60e+00,8.00e-03,
232,1.60e+00,2.80e-02,
233,4.00e-01,4.00e-03,
234,4.00e-01,4.00e-03,
235,1.60e+00,2.80e-02,
236,1.60e+00,4.00e-03,
237,4.00e-01,2.80e-02,
238,8.00e-01,4.00e-03,
239,2.80e+00,2.80e-02,
240,1.20e+00,2.80e-02,
241,2.40e+00,4.00e-03,
242,1.20e+00,2.80e-02,
243,3.20e+00,4.00e-03,
244,2.00e+00,4.00e-03,
245,3.20e+00,2.80e-02,
246,2.80e+00,2.40e-02,
247,1.20e+00,4.00e-03,
248,2.00e+00,2.40e-02,
249,4.00e-01,4.00e-03,
250,1.20e+00,4.00e-03,
251,-4.00e-01,2.80e-02,
252,8.00e-01,2.80e-02,
253,-8.00e-01,0.00e+00,
254,0.00e+00,4.00e-03,
255,-1.20e+00,2.80e-02,
256,-8.00e-01,2.40e-02,
257,4.00e-01,0.00e+00,
258,-4.00e-01,4.00e-03,
259,1.60e+00,2.80e-02,
260,1.60e+00,4.00e-03,
261,4.00e-01,2.80e-02,
262,1.20e+00,2.40e-02,
263,-4.00e-01,4.00e-03,
264,-4.00e-01,4.00e-03,
265,1.20e+00,2.80e-02,
266,4.00e-01,2.40e-02,
267,-8.00e-01,4.00e-03,
268,-8.00e-01,4.00e-03,
269,4.00e-01,2.40e-02,
270,-4.00e-01,2.40e-02,
271,1.20e+00,4.00e-03,
272,8.00e-01,4.00e-03,
273,0.00e+00,2.40e-02,
274,0.00e+00,2.40e-02,
275,1.20e+00,4.00e-03,
276,8.00e-01,2.40e-02,
277,-8.00e-01,0.00e+00,
278,-4.00e-01,4.00e-03,
279,8.00e-01,2.40e-02,
280,1.60e+00,2.40e-02,
281,-8.00e-01,4.00e-03,
282,0.00e+00,2.40e-02,
283,-1.20e+00,0.00e+00,
284,-8.00e-01,2.80e-02,
285,4.00e-01,0.00e+00,
286,4.00e-01,2.40e-02,
287,-8.00e-01,0.00e+00,
288,-4.00e-01,2.40e-02,
289,1.20e+00,-1.60e-01,
290,4.00e-01,2.40e-02,
291,2.40e+00,-4.00e-03,
292,2.00e+00,1.60e-02,
293,3.20e+00,-8.00e-03,
294,2.80e+00,1.20e-02,
295,4.00e-01,-1.20e-02,
296,1.20e+00,8.00e-03,
297,0.00e+00,-1.20e-02,
298,1.60e+00,8.00e-03,
299,4.00e-01,-1.20e-02,
300,1.60e+00,8.00e-03,
301,8.00e-01,-1.60e-02,
302,8.00e-01,-1.60e-02,
303,2.40e+00,8.00e-03,
304,1.20e+00,8.00e-03,
305,2.80e+00,-1.60e-02,
306,3.20e+00,-1.20e-02,
307,2.00e+00,8.00e-03,
308,2.80e+00,-1.20e-02,
309,8.00e-01,1.20e-02,
310,8.00e-01,-1.20e-02,
311,2.40e+00,1.20e-02,
312,2.00e+00,-8.00e-03,
313,8.00e-01,1.20e-02,
314,8.00e-01,1.20e-02,
315,2.80e+00,-8.00e-03,
316,2.40e+00,-8.00e-03,
317,8.00e-01,1.60e-02,
318,8.00e-01,1.60e-02,
319,2.40e+00,-8.00e-03,
320,1.20e+00,-4.00e-03,
321,2.40e+00,2.00e-02,
322,1.60e+00,-4.00e-03,
323,8.00e-01,2.00e-02,
324,1.60e+00,2.00e-02,
325,8.00e-01,-4.00e-03,
326,1.60e+00,0.00e+00,
327,0.00e+00,2.40e-02,
328,8.00e-01,0.00e+00,
329,-4.00e-01,2.40e-02,
330,-4.00e-01,4.00e-03,
331,1.20e+00,2.80e-02,
332,8.00e-01,2.80e-02,
333,0.00e+00,4.00e-03,
334,0.00e+00,4.00e-03,
335,1.60e+00,2.80e-02,
336,1.60e+00,2.80e-02,
337,8.00e-01,8.00e-03,
338,2.40e+00,3.20e-02,
339,4.00e-01,8.00e-03,
340,1.20e+00,3.20e-02,
341,0.00e+00,8.00e-03,
342,0.00e+00,8.00e-03,
343,1.60e+00,3.60e-02,
344,1.60e+00,1.20e-02,
345,8.00e-01,3.60e-02,
346,1.20e+00,1.60e-02,
347,2.80e+00,3.60e-02,
348,2.80e+00,1.20e-02,
349,4.00e-01,3.60e-02,
350,4.00e-01,1.60e-02,
351,1.60e+00,3.60e-02,
352,2.40e+00,3.60e-02,
353,8.00e-01,1.60e-02,
354,8.00e-01,3.60e-02,
355,2.80e+00,1.60e-02,
356,2.00e+00,4.00e-02,
357,2.80e+00,1.60e-02,
358,2.80e+00,4.00e-02,
359,1.60e+00,1.60e-02,
360,2.40e+00,4.00e-02,
361,1.20e+00,1.60e-02,
362,2.40e+00,2.00e-02,
363,4.00e-01,4.40e-02,
364,4.00e-01,2.00e-02,
365,1.60e+00,5.20e-02,
366,2.40e+00,2.00e-02,
367,8.00e-01,4.00e-02,
368,1.20e+00,4.00e-02,
369,-4.00e-01,2.00e-02,
370,8.00e-01,4.40e-02,
371,-4.00e-01,2.00e-02,
372,-4.00e-01,2.00e-02,
373,8.00e-01,4.40e-02,
374,8.00e-01,4.40e-02,
375,-4.00e-01,2.00e-02,
376,-4.00e-01,2.40e-02,
377,1.60e+00,4.40e-02,
378,1.60e+00,2.40e-02,
379,0.00e+00,4.40e-02,
380,-4.00e-01,2.40e-02,
381,8.00e-01,4.40e-02,
382,4.00e-01,4.40e-02,
383,-1.20e+00,2.40e-02,
384,-4.00e-01,2.40e-02,
385,-2.00e+00,4.80e-02,
386,-2.00e+00,4.40e-02,
387,-4.00e-01,2.40e-02,
388,-8.00e-01,4.40e-02,
389,4.00e-01,2.00e-02,
390,-4.00e-01,2.40e-02,
391,8.00e-01,4.40e-02,
392,-4.00e-01,4.40e-02,
393,8.00e-01,2.00e-02,
394,0.00e+00,2.40e-02,
395,1.60e+00,4.80e-02,
396,4.00e-01,4.40e-02,
397,2.00e+00,2.40e-02,
398,2.40e+00,2.40e-02,
399,1.20e+00,4.80e-02,
400,1.60e+00,2.40e-02,
401,0.00e+00,4.80e-02,
402,0.00e+00,2.80e-02,
403,1.60e+00,4.80e-02,
404,1.20e+00,2.80e-02,
405,2.40e+00,4.80e-02,
406,2.40e+00,2.00e-02,
407,-4.00e-01,4.80e-02,
408,4.00e-01,2.80e-02,
409,-4.00e-01,5.20e-02,
410,-4.00e-01,2.80e-02,
411,8.00e-01,5.20e-02,
412,0.00e+00,3.20e-02,
413,8.00e-01,5.60e-02,
414,8.00e-01,3.20e-02,
415,-4.00e-01,5.20e-02,
416,4.00e-01,5.20e-02,
417,-4.00e-01,2.80e-02,
418,4.00e-01,3.20e-02,
419,-4.00e-01,5.20e-02,
420,-4.00e-01,2.80e-02,
421,1.20e+00,5.60e-02,
422,8.00e-01,5.20e-02,
423,-1.20e+00,3.20e-02,
424,-2.00e+00,5.20e-02,
425,0.00e+00,3.20e-02,
426,-4.00e-01,5.60e-02,
427,8.00e-01,3.20e-02,
428,0.00e+00,5.20e-02,
429,1.20e+00,3.20e-02,
430,1.20e+00,5.60e-02,
431,0.00e+00,3.20e-02,
432,8.00e-01,5.60e-02,
433,-4.00e-01,3.20e-02,
434,4.00e-01,2.16e-01,
435,-8.00e-01,3.20e-02,
436,-4.00e-01,3.60e-02,
437,-2.00e+00,6.40e-02,
438,-2.00e+00,6.80e-02,
439,4.00e-01,4.40e-02,
440,-4.00e-01,4.40e-02,
441,8.00e-01,7.20e-02,
442,0.00e+00,5.20e-02,
443,2.80e+00,7.20e-02,
444,2.80e+00,7.20e-02,
445,8.00e-01,5.20e-02,
446,1.60e+00,4.80e-02,
447,4.00e-01,7.20e-02,
448,1.20e+00,7.20e-02,
449,-4.00e-01,4.80e-02,
450,-4.00e-01,4.40e-02,
451,1.20e+00,7.20e-02,
452,1.60e+00,4.40e-02,
453,4.00e-01,7.20e-02,
454,1.60e+00,7.20e-02,
455,8.00e-01,4.40e-02,
456,1.60e+00,6.80e-02,
457,4.00e-01,4.00e-02,
458,4.00e-01,6.40e-02,
459,2.00e+00,4.40e-02,
460,2.40e+00,6.40e-02,
461,8.00e-01,4.00e-02,
462,1.60e+00,6.40e-02,
463,8.00e-01,3.60e-02,
464,1.20e+00,6.40e-02,
465,-4.00e-01,3.60e-02,
466,8.00e-01,3.60e-02,
467,-8.00e-01,6.00e-02,
468,0.00e+00,5.60e-02,
469,-8.00e-01,3.20e-02,
470,-8.00e-01,3.20e-02,
471,0.00e+00,5.60e-02,
472,0.00e+00,5.20e-02,
473,-1.20e+00,2.80e-02,
474,-1.60e+00,2.80e-02,
475,-4.00e-01,5.20e-02,
476,-4.00e-01,2.80e-02,
477,-2.40e+00,5.20e-02,
478,-1.60e+00,4.80e-02,
479,-2.80e+00,2.80e-02,
480,-2.00e+00,2.40e-02,
481,-4.40e+00,4.80e-02,
482,-4.00e+00,4.80e-02,
483,-5.20e+00,2.40e-02,
484,-5.20e+00,2.40e-02,
485,-2.40e+00,4.80e-02,
486,-2.80e+00,4.40e-02,
487,-1.20e+00,2.00e-02,
488,-8.00e-01,4.40e-02,
489,-2.00e+00,2.40e-02,
490,-2.00e+00,2.40e-02,
491,0.00e+00,4.40e-02,
492,-8.00e-01,2.00e-02,
493,8.00e-01,4.40e-02,
494,8.00e-01,2.40e-02,
495,-4.00e-01,4.40e-02,
496,-4.00e-01,4.40e-02,
497,1.60e+00,2.00e-02,
498,1.60e+00,4.40e-02,
499,4.00e-01,1.60e-02,
500,1.60e+00,4.00e-02,
501,0.00e+00,2.00e-02,
502,0.00e+00,2.00e-02,
503,1.20e+00,4.40e-02,
504,4.00e-01,4.00e-02,
505,1.60e+00,1.60e-02,
506,4.00e-01,4.00e-02,
507,2.40e+00,1.60e-02,
508,2.00e+00,1.60e-02,
509,8.00e-01,4.00e-02,
510,8.00e-01,3.60e-02,
511,3.20e+00,1.60e-02,
512,2.00e+00,1.60e-02,
513,3.20e+00,3.60e-02,
514,1.60e+00,3.60e-02,
515,3.60e+00,1.20e-02,
516,4.00e+00,4.00e-03,
517,2.00e+00,4.00e-02,
518,2.80e+00,3.60e-02,
519,1.20e+00,1.20e-02,
520,1.20e+00,3.60e-02,
521,2.40e+00,1.20e-02,
522,1.60e+00,3.60e-02,
523,4.00e-01,1.20e-02,
524,4.00e-01,3.60e-02,
525,1.60e+00,1.20e-02,
526,2.40e+00,3.20e-02,
527,8.00e-01,1.20e-02,
528,2.40e+00,3.20e-02,
529,4.00e-01,1.20e-02,
530,1.20e+00,1.20e-02,
531,4.00e-01,3.20e-02,
532,4.00e-01,3.20e-02,
533,1.60e+00,8.00e-03,
534,4.00e-01,3.20e-02,
535,1.60e+00,8.00e-03,
536,1.20e+00,1.20e-02,
537,4.00e-01,3.20e-02,
538,4.00e-01,8.00e-03,
539,2.40e+00,3.20e-02,
540,2.00e+00,2.80e-02,
541,8.00e-01,8.00e-03,
542,1.60e+00,2.80e-02,
543,4.00e-01,4.00e-03,
544,4.00e-01,2.80e-02,
545,2.40e+00,8.00e-03,
546,1.60e+00,3.20e-02,
547,0.00e+00,4.00e-03,
548,-4.00e-01,4.00e-03,
549,1.20e+00,2.80e-02,
550,1.20e+00,4.00e-03,
551,0.00e+00,2.80e-02,
552,8.00e-01,4.00e-03,
553,1.60e+00,2.40e-02,
554,4.00e-01,2.40e-02,
555,1.60e+00,0.00e+00,
556,1.20e+00,2.40e-02,
557,3.20e+00,4.00e-03,
558,3.60e+00,0.00e+00,
559,1.60e+00,2.40e-02,
560,1.60e+00,2.40e-02,
561,2.80e+00,0.00e+00,
562,2.80e+00,2.40e-02,
563,1.20e+00,0.00e+00,
564,2.40e+00,2.40e-02,
565,4.00e-01,0.00e+00,
566,1.20e+00,2.40e-02,
567,-4.00e-01,4.00e-03,
568,-4.00e-01,2.40e-02,
569,2.40e+00,0.00e+00,
570,2.40e+00,2.40e-02,
571,8.00e-01,0.00e+00,
572,1.60e+00,4.00e-03,
573,0.00e+00,2.40e-02,
574,8.00e-01,0.00e+00,
575,-4.00e-01,2.40e-02,
576,4.00e-01,4.00e-03,
577,-8.00e-01,2.40e-02,
578,4.00e-01,2.40e-02,
579,-4.00e-01,0.00e+00,
580,4.00e-01,4.00e-03,
581,-8.00e-01,2.40e-02,
582,0.00e+00,2.40e-02,
583,-1.60e+00,0.00e+00,
584,-8.00e-01,0.00e+00,
585,-2.00e+00,2.40e-02,
586,-2.00e+00,0.00e+00,
587,4.00e-01,2.40e-02,
588,-4.00e-01,0.00e+00,
589,1.20e+00,2.40e-02,
590,8.00e-01,0.00e+00,
591,-4.00e-01,2.40e-02,
592,4.00e-01,2.40e-02,
593,-4.00e-01,-4.00e-03,
594,-4.00e-01,2.00e-02,
595,4.00e-01,-1.60e-01,
596,0.00e+00,-8.00e-03,
597,3.20e+00,2.40e-02,
598,2.00e+00,1.60e-02,
599,3.20e+00,-8.00e-03,
600,2.40e+00,1.20e-02,
601,8.00e-01,-1.20e-02,
602,1.20e+00,-1.20e-02,
603,-4.00e-01,8.00e-03,
604,4.00e-01,-1.20e-02,
605,-4.00e-01,8.00e-03,
606,4.00e-01,-1.20e-02,
607,-1.20e+00,8.00e-03,
608,-8.00e-01,8.00e-03,
609,-2.00e+00,-1.60e-02,
610,-2.00e+00,-1.60e-02,
611,-4.00e-01,1.20e-02,
612,-4.00e-01,-1.20e-02,
613,-1.20e+00,1.20e-02,
614,-8.00e-01,1.20e-02,
615,0.00e+00,-1.20e-02,
616,4.00e-01,-8.00e-03,
617,-8.00e-01,1.20e-02,
618,-1.20e+00,-8.00e-03,
619,0.00e+00,1.60e-02,
620,-4.00e-01,1.60e-02,
621,-1.60e+00,-8.00e-03,
622,-1.20e+00,-8.00e-03,
623,0.00e+00,2.00e-02,
624,-8.00e-01,-4.00e-03,
625,8.00e-01,1.60e-02,
626,8.00e-01,1.60e-02,
627,0.00e+00,-4.00e-03,
628,0.00e+00,-4.00e-03,
629,8.00e-01,2.00e-02,
630,8.00e-01,0.00e+00,
631,-4.00e-01,2.00e-02,
632,-4.00e-01,0.00e+00,
633,8.00e-01,2.00e-02,
634,4.00e-01,0.00e+00,
635,-8.00e-01,2.40e-02,
636,-8.00e-01,0.00e+00,
637,8.00e-01,2.40e-02,
638,8.00e-01,2.40e-02,
639,-8.00e-01,0.00e+00,
640,-8.00e-01,4.00e-03,
641,4.00e-01,2.40e-02,
642,-8.00e-01,4.00e-03,
643,4.00e-01,2.80e-02,
644,4.00e-01,8.00e-03,
645,-4.00e-01,3.20e-02,
646,-4.00e-01,8.00e-03,
647,1.20e+00,3.20e-02,
648,1.60e+00,8.00e-03,
649,4.00e-01,3.20e-02,
650,1.20e+00,3.20e-02,
651,4.00e-01,8.00e-03,
652,1.60e+00,1.20e-02,
653,4.00e-01,3.60e-02,
654,1.20e+00,1.20e-02,
655,0.00e+00,3.60e-02,
656,8.00e-01,1.60e-02,
657,-8.00e-01,3.60e-02,
658,-8.00e-01,1.60e-02,
659,4.00e-01,4.00e-02,
660,4.00e-01,4.00e-02,
661,-8.00e-01,1.60e-02,
662,0.00e+00,2.00e-02,
663,-8.00e-01,4.00e-02,
664,-8.00e-01,1.60e-02,
665,4.00e-01,4.00e-02,
666,-4.00e-01,1.60e-02,
667,-1.60e+00,4.00e-02,
668,-4.00e-01,2.00e-02,
669,-1.20e+00,4.40e-02,
670,-1.20e+00,5.20e-02,
671,0.00e+00,1.60e-02,
672,-4.00e-01,4.00e-02,
673,8.00e-01,1.60e-02,
674,0.00e+00,2.00e-02,
675,1.20e+00,4.00e-02,
676,1.20e+00,1.60e-02,
677,-4.00e-01,4.40e-02,
678,8.00e-01,2.00e-02,
679,-8.00e-01,4.40e-02,
680,-8.00e-01,4.40e-02,
681,8.00e-01,2.00e-02,
682,-4.00e-01,2.40e-02,
683,8.00e-01,4.40e-02,
684,0.00e+00,4.40e-02,
685,8.00e-01,2.40e-02,
686,-4.00e-01,2.40e-02,
687,8.00e-01,4.80e-02,
688,8.00e-01,4.40e-02,
689,0.00e+00,2.40e-02,
690,0.00e+00,4.80e-02,
691,1.20e+00,2.40e-02,
692,1.60e+00,2.80e-02,
693,4.00e-01,4.80e-02,
694,4.00e-01,2.80e-02,
695,1.60e+00,4.80e-02,
696,1.60e+00,2.80e-02,
697,2.80e+00,4.80e-02,
698,2.80e+00,4.80e-02,
699,1.20e+00,2.80e-02,
700,8.00e-01,2.80e-02,
701,2.00e+00,4.80e-02,
702,2.00e+00,2.80e-02,
703,4.00e-01,4.80e-02,
704,1.20e+00,4.80e-02,
705,4.00e-01,2.80e-02,
706,4.00e-01,4.80e-02,
707,1.60e+00,2.40e-02,
708,4.00e-01,2.80e-02,
709,2.40e+00,4.80e-02,
710,1.60e+00,4.80e-02,
711,2.80e+00,2.80e-02,
712,2.00e+00,2.80e-02,
713,2.80e+00,4.80e-02,
714,2.00e+00,2.80e-02,
715,0.00e+00,5.20e-02,
716,8.00e-01,2.40e-02,
717,-8.00e-01,5.20e-02,
718,-4.00e-01,4.80e-02,
719,8.00e-01,2.80e-02,
720,8.00e-01,2.80e-02,
721,-4.00e-01,5.20e-02,
722,-8.00e-01,2.80e-02,
723,4.00e-01,5.20e-02,
724,-4.00e-01,2.80e-02,
725,8.00e-01,5.20e-02,
726,8.00e-01,5.20e-02,
727,-4.00e-01,2.80e-02,
728,8.00e-01,3.20e-02,
729,0.00e+00,5.20e-02,
730,8.00e-01,5.20e-02,
731,-4.00e-01,3.20e-02,
732,-4.00e-01,5.20e-02,
733,1.20e+00,2.80e-02,
734,-4.00e-01,5.60e-02,
735,8.00e-01,3.20e-02,
736,0.00e+00,5.20e-02,
737,8.00e-01,3.20e-02,
738,-4.00e-01,5.60e-02,
739,1.20e+00,3.20e-02,
740,4.00e-01,3.20e-02,
741,1.60e+00,2.20e-01,
742,1.60e+00,3.20e-02,
743,-1.20e+00,6.00e-02,
744,-1.20e+00,4.40e-02,
745,4.00e-01,7.20e-02,
746,-4.00e-01,4.80e-02,
747,1.60e+00,7.20e-02,
748,1.60e+00,5.20e-02,
749,2.40e+00,7.20e-02,
750,2.00e+00,4.80e-02,
751,3.20e+00,7.20e-02,
752,2.40e+00,7.20e-02,
753,4.00e+00,4.80e-02,
754,4.00e+00,7.20e-02,
755,2.40e+00,5.20e-02,
756,3.60e+00,7.60e-02,
757,2.40e+00,4.80e-02,
758,2.80e+00,7.20e-02,
759,3.60e+00,4.40e-02,
760,3.60e+00,6.80e-02,
761,2.40e+00,4.40e-02,
762,2.80e+00,4.40e-02,
763,1.20e+00,6.80e-02,
764,2.40e+00,6.40e-02,
765,4.00e-01,4.40e-02,
766,1.20e+00,4.00e-02,
767,0.00e+00,6.40e-02,
768,0.00e+00,6.40e-02,
769,1.20e+00,4.00e-02,
770,1.60e+00,3.60e-02,
771,4.00e-01,6.40e-02,
772,1.20e+00,6.00e-02,
773,-4.00e-01,3.60e-02,
774,4.00e-01,5.60e-02,
775,-1.20e+00,3.20e-02,
776,-1.20e+00,5.60e-02,
777,-4.00e-01,3.20e-02,
778,-4.00e-01,5.20e-02,
779,-1.60e+00,3.20e-02,
780,-4.00e-01,5.20e-02,
781,-2.00e+00,3.20e-02,
782,-1.20e+00,5.20e-02,
783,-2.40e+00,2.80e-02,
784,-1.60e+00,2.80e-02,
785,-3.20e+00,5.20e-02,
786,-2.80e+00,4.80e-02,
787,-5.60e+00,2.40e-02,
788,-4.80e+00,2.40e-02,
789,-6.00e+00,4.80e-02,
790,-5.60e+00,4.40e-02,
791,-3.20e+00,2.00e-02,
792,-3.60e+00,2.00e-02,
793,-1.20e+00,4.40e-02,
794,-1.20e+00,4.40e-02,
795,-2.40e+00,2.00e-02,
796,-2.40e+00,4.00e-02,
797,-4.00e-01,2.00e-02,
798,0.00e+00,4.00e-02,
799,-1.20e+00,1.60e-02,
800,-1.20e+00,4.00e-02,
801,0.00e+00,1.60e-02,
802,-4.00e-01,1.60e-02,
803,2.00e+00,4.00e-02,
804,2.40e+00,2.00e-02,
805,8.00e-01,4.00e-02,
806,8.00e-01,3.60e-02,
807,2.40e+00,1.60e-02,
808,1.60e+00,1.60e-02,
809,4.00e-01,4.00e-02,
810,1.20e+00,3.60e-02,
811,4.00e-01,1.60e-02,
812,1.20e+00,3.60e-02,
813,0.00e+00,1.20e-02,
814,4.00e-01,1.60e-02,
815,1.60e+00,3.60e-02,
816,4.00e-01,3.60e-02,
817,2.00e+00,1.60e-02,
818,2.40e+00,1.60e-02,
819,8.00e-01,3.60e-02,
820,2.00e+00,3.60e-02,
821,8.00e-01,1.20e-02,
822,1.60e+00,3.60e-02,
823,8.00e-01,0.00e+00,
824,1.60e+00,3.60e-02,
825,8.00e-01,1.20e-02,
826,4.00e-01,1.20e-02,
827,2.00e+00,3.60e-02,
828,1.20e+00,3.60e-02,
829,2.40e+00,1.20e-02,
830,1.20e+00,3.20e-02,
831,2.80e+00,1.20e-02,
832,2.80e+00,3.20e-02,
833,8.00e-01,1.20e-02,
834,1.60e+00,8.00e-03,
835,3.60e+00,3.60e-02,
836,3.60e+00,3.20e-02,
837,2.40e+00,8.00e-03,
838,2.80e+00,3.20e-02,
839,1.60e+00,1.20e-02,
840,2.40e+00,3.20e-02,
841,1.20e+00,8.00e-03,
842,1.60e+00,3.20e-02,
843,2.80e+00,8.00e-03,
844,1.20e+00,2.80e-02,
845,2.40e+00,8.00e-03,
846,2.40e+00,2.80e-02,
847,0.00e+00,8.00e-03,
848,4.00e-01,8.00e-03,
849,-4.00e-01,3.20e-02,
850,-4.00e-01,8.00e-03,
851,8.00e-01,2.80e-02,
852,8.00e-01,2.80e-02,
853,-4.00e-01,8.00e-03,
854,0.00e+00,4.00e-03,
855,1.20e+00,2.80e-02,
856,0.00e+00,2.80e-02,
857,1.20e+00,4.00e-03,
