data/oscilloscope_data/NewFile39.csv

X,CH2,CH3,Start,Increment,
Sequence,Volt,Volt,-1.194000e+02,2.000000e-01
0,-2.00e+01,6.00e-01,
1,-3.20e+01,0.00e+00,
2,-2.00e+01,4.00e-01,
3,-3.20e+01,-2.00e-01,
4,-2.00e+01,0.00e+00,
5,-3.20e+01,6.00e-01,
6,-2.00e+01,0.00e+00,
7,-3.20e+01,6.00e-01,
8,-2.00e+01,4.00e-01,
9,-2.80e+01,-2.00e-01,
10,-2.00e+01,4.00e-01,
11,-2.80e+01,0.00e+00,
12,-2.00e+01,6.00e-01,
13,-2.80e+01,-2.00e-01,
14,-2.00e+01,4.00e-01,
15,-2.80e+01,-2.00e-01,
16,-2.80e+01,-2.00e-01,
17,-2.00e+01,4.00e-01,
18,-2.00e+01,4.00e-01,
19,-2.80e+01,-2.00e-01,
20,-2.80e+01,4.00e-01,
21,-2.00e+01,-2.00e-01,
22,-2.80e+01,4.00e-01,
23,-2.00e+01,-2.00e-01,
24,-2.00e+01,4.00e-01,
25,-2.80e+01,-2.00e-01,
26,-2.80e+01,4.00e-01,
27,-2.00e+01,-2.00e-01,
28,-2.80e+01,0.00e+00,
29,-2.00e+01,6.00e-01,
30,-2.00e+01,4.00e-01,
31,-2.80e+01,-2.00e-01,
32,-2.80e+01,0.00e+00,
33,-2.00e+01,6.00e-01,
34,-2.80e+01,0.00e+00,
35,-2.00e+01,6.00e-01,
36,-2.00e+01,6.00e-01,
37,-2.80e+01,0.00e+00,
38,-2.80e+01,0.00e+00,
39,-2.00e+01,6.00e-01,
40,-2.80e+01,6.00e-01,
41,-2.00e+01,0.00e+00,
42,-2.00e+01,6.00e-01,
43,-2.80e+01,0.00e+00,
44,-2.80e+01,2.00e-01,
45,-2.00e+01,8.00e-01,
46,-2.80e+01,6.00e-01,
47,-2.00e+01,0.00e+00,
48,-2.00e+01,0.00e+00,
49,-2.80e+01,6.00e-01,
50,-2.80e+01,6.00e-01,
51,-2.00e+01,0.00e+00,
52,-2.00e+01,6.00e-01,
53,-2.80e+01,0.00e+00,
54,-2.00e+01,6.00e-01,
55,-2.80e+01,0.00e+00,
56,-2.00e+01,6.00e-01,
57,-2.80e+01,0.00e+00,
58,-2.80e+01,0.00e+00,
59,-2.00e+01,6.00e-01,
60,-2.00e+01,4.00e-01,
61,-2.80e+01,-2.00e-01,
62,-2.80e+01,4.00e-01,
63,-2.00e+01,-2.00e-01,
64,-2.80e+01,4.00e-01,
65,-2.00e+01,-4.00e-01,
66,-2.00e+01,-2.00e-01,
67,-2.80e+01,4.00e-01,
68,-2.00e+01,-2.00e-01,
69,-2.80e+01,4.00e-01,
70,-2.80e+01,-2.00e-01,
71,-2.00e+01,4.00e-01,
72,-2.00e+01,4.00e-01,
73,-2.80e+01,-2.00e-01,
74,-2.00e+01,4.00e-01,
75,-2.80e+01,-2.00e-01,
76,-2.00e+01,-2.00e-01,
77,-2.80e+01,4.00e-01,
78,-2.00e+01,4.00e-01,
79,-2.80e+01,-2.00e-01,
80,-2.00e+01,-2.00e-01,
81,-2.80e+01,4.00e-01,
82,-2.00e+01,-2.00e-01,
83,-2.80e+01,4.00e-01,
84,-2.00e+01,4.00e-01,
85,-2.80e+01,-2.00e-01,
86,-2.80e+01,4.00e-01,
87,-2.00e+01,-2.00e-01,
88,-2.00e+01,-2.00e-01,
89,-2.80e+01,4.00e-01,
90,-2.80e+01,4.00e-01,
91,-2.00e+01,-2.00e-01,
92,-2.00e+01,-2.00e-01,
93,-2.80e+01,4.00e-01,
94,-2.00e+01,-2.00e-01,
95,-2.80e+01,4.00e-01,
96,-2.00e+01,-2.00e-01,
97,-2.80e+01,4.00e-01,
98,-2.80e+01,-2.00e-01,
99,-2.00e+01,4.00e-01,
100,-2.00e+01,4.00e-01,
101,-2.80e+01,-2.00e-01,
102,-2.80e+01,-2.00e-01,
103,-2.00e+01,4.00e-01,
104,-2.80e+01,-2.00e-01,
105,-2.00e+01,4.00e-01,
106,-2.00e+01,4.00e-01,
107,-2.80e+01,-2.00e-01,
108,-2.80e+01,-2.00e-01,
109,-1.60e+01,4.00e-01,
110,-1.60e+01,-2.00e-01,
111,-2.80e+01,4.00e-01,
112,-2.80e+01,-2.00e-01,
113,-1.60e+01,4.00e-01,
114,-2.80e+01,4.00e-01,
115,-1.60e+01,-2.00e-01,
116,-2.80e+01,4.00e-01,
117,-1.60e+01,-2.00e-01,
118,-1.60e+01,4.00e-01,
119,-2.80e+01,-2.00e-01,
120,-2.80e+01,4.00e-01,
121,-1.60e+01,-2.00e-01,
122,-2.80e+01,4.00e-01,
123,-1.60e+01,-2.00e-01,
124,-1.60e+01,4.00e-01,
125,-2.80e+01,-2.00e-01,
126,-1.60e+01,-2.00e-01,
127,-2.80e+01,4.00e-01,
128,-2.80e+01,0.00e+00,
129,-1.60e+01,6.00e-01,
130,-2.80e+01,0.00e+00,
131,-1.60e+01,6.00e-01,
132,-1.60e+01,0.00e+00,
133,-2.80e+01,6.00e-01,
134,-2.80e+01,6.00e-01,
135,-1.60e+01,0.00e+00,
136,-1.60e+01,0.00e+00,
137,-2.80e+01,6.00e-01,
138,-2.80e+01,0.00e+00,
139,-1.60e+01,6.00e-01,
140,-2.80e+01,0.00e+00,
141,-1.60e+01,6.00e-01,
142,-1.60e+01,0.00e+00,
143,-2.80e+01,6.00e-01,
144,-1.60e+01,0.00e+00,
145,-2.80e+01,6.00e-01,
146,-1.60e+01,6.00e-01,
147,-2.80e+01,0.00e+00,
148,-1.60e+01,0.00e+00,
149,-2.80e+01,6.00e-01,
150,-1.60e+01,-2.00e-01,
151,-2.80e+01,6.00e-01,
152,-1.60e+01,0.00e+00,
153,-2.80e+01,6.00e-01,
154,-1.60e+01,0.00e+00,
155,-2.80e+01,6.00e-01,
156,-1.60e+01,0.00e+00,
157,-2.80e+01,6.00e-01,
158,-2.80e+01,0.00e+00,
159,-1.60e+01,6.00e-01,
160,-1.60e+01,4.00e-01,
161,-2.80e+01,0.00e+00,
162,-1.60e+01,4.00e-01,
163,-2.80e+01,-2.00e-01,
164,-2.80e+01,4.00e-01,
165,-1.60e+01,-2.00e-01,
166,-1.60e+01,4.00e-01,
167,-2.80e+01,-2.00e-01,
168,-1.60e+01,0.00e+00,
169,-2.80e+01,4.00e-01,
170,-1.60e+01,4.00e-01,
171,-2.80e+01,-2.00e-01,
172,-1.60e+01,0.00e+00,
173,-2.80e+01,6.00e-01,
174,-1.60e+01,4.00e-01,
175,-2.80e+01,0.00e+00,
176,-2.80e+01,4.00e-01,
177,-1.60e+01,-2.00e-01,
178,-2.80e+01,4.00e-01,
179,-1.60e+01,-2.00e-01,
180,-1.60e+01,4.00e-01,
181,-2.80e+01,-2.00e-01,
182,-2.80e+01,6.00e-01,
183,-1.60e+01,-2.00e-01,
184,-1.60e+01,-2.00e-01,
185,-2.80e+01,6.00e-01,
186,-1.60e+01,0.00e+00,
187,-2.80e+01,6.00e-01,
188,-1.60e+01,0.00e+00,
189,-2.80e+01,6.00e-01,
190,-1.60e+01,6.00e-01,
191,-2.80e+01,0.00e+00,
192,-1.60e+01,0.00e+00,
193,-2.80e+01,6.00e-01,
194,-1.60e+01,0.00e+00,
195,-2.80e+01,6.00e-01,
196,-1.60e+01,6.00e-01,
197,-2.80e+01,0.00e+00,
198,-1.60e+01,0.00e+00,
199,-2.80e+01,6.00e-01,
200,-1.60e+01,6.00e-01,
201,-2.80e+01,0.00e+00,
202,-1.60e+01,6.00e-01,
203,-2.40e+01,0.00e+00,
204,-1.60e+01,0.00e+00,
205,-2.40e+01,6.00e-01,
206,-1.60e+01,0.00e+00,
207,-2.40e+01,4.00e-01,
208,-1.60e+01,4.00e-01,
209,-2.40e+01,-2.00e-01,
210,-1.60e+01,-2.00e-01,
211,-2.40e+01,4.00e-01,
212,-2.40e+01,-2.00e-01,
213,-1.60e+01,4.00e-01,
214,-1.60e+01,-2.00e-01,
215,-2.40e+01,4.00e-01,
216,-1.60e+01,4.00e-01,
217,-2.40e+01,-2.00e-01,
218,-1.60e+01,4.00e-01,
219,-2.40e+01,-2.00e-01,
220,-1.60e+01,-2.00e-01,
221,-2.40e+01,4.00e-01,
222,-1.60e+01,4.00e-01,
223,-2.40e+01,-2.00e-01,
224,-1.60e+01,4.00e-01,
225,-2.40e+01,-2.00e-01,
226,-1.60e+01,-2.00e-01,
227,-2.40e+01,6.00e-01,
228,-1.60e+01,4.00e-01,
229,-2.40e+01,-2.00e-01,
230,-1.60e+01,4.00e-01,
231,-2.40e+01,-2.00e-01,
232,-1.60e+01,4.00e-01,
233,-2.40e+01,-2.00e-01,
234,-1.60e+01,4.00e-01,
235,-2.40e+01,-2.00e-01,
236,-2.40e+01,4.00e-01,
237,-1.60e+01,-2.00e-01,
238,-1.60e+01,4.00e-01,
239,-2.40e+01,-2.00e-01,
240,-1.60e+01,2.00e-01,
241,-2.40e+01,-4.00e-01,
242,-1.60e+01,2.00e-01,
243,-2.40e+01,-4.00e-01,
244,-1.60e+01,2.00e-01,
245,-2.40e+01,-4.00e-01,
246,-1.60e+01,2.00e-01,
247,-2.40e+01,-4.00e-01,
248,-1.60e+01,-2.00e-01,
249,-2.40e+01,4.00e-01,
250,-2.40e+01,-2.00e-01,
251,-1.20e+01,4.00e-01,
252,-2.40e+01,-2.00e-01,
253,-1.20e+01,4.00e-01,
254,-2.40e+01,-2.00e-01,
255,-8.00e+00,4.00e-01,
256,-2.40e+01,4.00e-01,
257,-8.00e+00,-2.00e-01,
258,-8.00e+00,-2.00e-01,
259,-2.40e+01,4.00e-01,
260,-2.40e+01,-2.00e-01,
261,-8.00e+00,4.00e-01,
262,-2.40e+01,0.00e+00,
263,-8.00e+00,6.00e-01,
264,-2.00e+01,0.00e+00,
265,-8.00e+00,6.00e-01,
266,-2.40e+01,6.00e-01,
267,-8.00e+00,0.00e+00,
268,-2.40e+01,6.00e-01,
269,-8.00e+00,0.00e+00,
270,-1.20e+01,-2.00e-01,
271,-2.40e+01,4.00e-01,
272,-2.40e+01,6.00e-01,
273,-1.20e+01,0.00e+00,
274,-2.40e+01,0.00e+00,
275,-8.00e+00,4.00e-01,
276,-2.40e+01,-2.00e-01,
277,-8.00e+00,4.00e-01,
278,-2.40e+01,4.00e-01,
279,-8.00e+00,0.00e+00,
280,-2.40e+01,0.00e+00,
281,-8.00e+00,6.00e-01,
282,-2.40e+01,4.00e-01,
283,-8.00e+00,-2.00e-01,
284,-8.00e+00,4.00e-01,
285,-2.40e+01,-2.00e-01,
286,-2.40e+01,-2.00e-01,
287,-8.00e+00,4.00e-01,
288,-2.40e+01,-2.00e-01,
289,-8.00e+00,4.00e-01,
290,-2.40e+01,4.00e-01,
291,-1.20e+01,-2.00e-01,
292,-2.40e+01,4.00e-01,
293,-8.00e+00,-2.00e-01,
294,-2.00e+01,-2.00e-01,
295,-8.00e+00,4.00e-01,
296,-8.00e+00,4.00e-01,
297,-2.00e+01,-2.00e-01,
298,-8.00e+00,-2.00e-01,
299,-2.00e+01,4.00e-01,
300,-8.00e+00,-2.00e-01,
301,-2.00e+01,4.00e-01,
302,-2.00e+01,-2.00e-01,
303,-8.00e+00,2.00e-01,
304,-2.00e+01,2.00e-01,
305,-8.00e+00,-4.00e-01,
306,-2.00e+01,-2.00e-01,
307,-8.00e+00,4.00e-01,
308,-2.00e+01,4.00e-01,
309,-8.00e+00,-2.00e-01,
310,-8.00e+00,-2.00e-01,
311,-2.00e+01,4.00e-01,
312,-2.00e+01,0.00e+00,
313,-8.00e+00,6.00e-01,
314,-2.00e+01,4.00e-01,
315,-8.00e+00,-2.00e-01,
316,-8.00e+00,4.00e-01,
317,-2.00e+01,-2.00e-01,
318,-8.00e+00,0.00e+00,
319,-2.00e+01,6.00e-01,
320,-8.00e+00,4.00e-01,
321,-2.00e+01,-2.00e-01,
322,-2.00e+01,4.00e-01,
323,-8.00e+00,-2.00e-01,
324,-2.00e+01,0.00e+00,
325,-8.00e+00,6.00e-01,
326,-2.00e+01,6.00e-01,
327,-8.00e+00,0.00e+00,
328,-2.00e+01,2.00e-01,
329,-8.00e+00,8.00e-01,
330,-8.00e+00,6.00e-01,
331,-2.00e+01,2.00e-01,
332,-2.00e+01,6.00e-01,
333,-8.00e+00,0.00e+00,
334,-8.00e+00,6.00e-01,
335,-1.60e+01,0.00e+00,
336,-8.00e+00,6.00e-01,
337,-2.00e+01,0.00e+00,
338,-2.00e+01,0.00e+00,
339,-4.00e+00,6.00e-01,
340,-4.00e+00,4.00e-01,
341,-2.00e+01,0.00e+00,
342,-2.00e+01,4.00e-01,
343,-4.00e+00,-2.00e-01,
344,-4.00e+00,-2.00e-01,
345,-2.00e+01,4.00e-01,
346,-2.00e+01,4.00e-01,
347,-4.00e+00,-2.00e-01,
348,-4.00e+00,-2.00e-01,
349,-2.00e+01,4.00e-01,
350,-4.00e+00,-2.00e-01,
351,-2.00e+01,4.00e-01,
352,-8.00e+00,4.00e-01,
353,-2.00e+01,-2.00e-01,
354,-2.00e+01,4.00e-01,
355,-4.00e+00,-2.00e-01,
356,-1.60e+01,4.00e-01,
357,-4.00e+00,-2.00e-01,
358,-4.00e+00,-2.00e-01,
359,-2.00e+01,4.00e-01,
360,-1.60e+01,-2.00e-01,
361,-4.00e+00,4.00e-01,
362,-4.00e+00,-2.00e-01,
363,-2.00e+01,4.00e-01,
364,-1.60e+01,4.00e-01,
365,-4.00e+00,-2.00e-01,
366,-1.60e+01,0.00e+00,
367,-4.00e+00,4.00e-01,
368,-4.00e+00,0.00e+00,
369,-2.00e+01,6.00e-01,
370,-1.60e+01,0.00e+00,
371,-4.00e+00,4.00e-01,
372,-4.00e+00,0.00e+00,
373,-2.00e+01,6.00e-01,
374,-4.00e+00,6.00e-01,
375,-2.00e+01,0.00e+00,
376,-4.00e+00,0.00e+00,
377,-2.00e+01,6.00e-01,
378,-1.60e+01,0.00e+00,
379,-4.00e+00,6.00e-01,
380,-1.60e+01,0.00e+00,
381,-4.00e+00,6.00e-01,
382,-4.00e+00,4.00e-01,
383,-2.00e+01,0.00e+00,
384,-4.00e+00,0.00e+00,
385,-1.60e+01,6.00e-01,
386,-1.60e+01,0.00e+00,
387,-4.00e+00,6.00e-01,
388,-1.60e+01,0.00e+00,
389,-4.00e+00,6.00e-01,
390,-4.00e+00,0.00e+00,
391,-1.20e+01,6.00e-01,
392,-1.20e+01,6.00e-01,
393,-4.00e+00,0.00e+00,
394,-1.20e+01,6.00e-01,
395,-4.00e+00,0.00e+00,
396,-4.00e+00,0.00e+00,
397,-1.20e+01,6.00e-01,
398,-4.00e+00,2.00e-01,
399,-1.20e+01,8.00e-01,
400,-1.20e+01,6.00e-01,
401,-4.00e+00,0.00e+00,
402,-1.20e+01,6.00e-01,
403,-4.00e+00,0.00e+00,
404,-1.20e+01,6.00e-01,
405,-4.00e+00,2.00e-01,
406,-1.20e+01,6.00e-01,
407,-4.00e+00,0.00e+00,
408,-1.20e+01,0.00e+00,
409,-4.00e+00,6.00e-01,
410,-4.00e+00,0.00e+00,
411,-1.20e+01,6.00e-01,
412,-1.20e+01,4.00e-01,
413,-4.00e+00,-2.00e-01,
414,-1.20e+01,4.00e-01,
415,-4.00e+00,-2.00e-01,
416,-1.20e+01,4.00e-01,
417,-4.00e+00,-2.00e-01,
418,-1.20e+01,4.00e-01,
419,-4.00e+00,-2.00e-01,
420,-1.20e+01,-2.00e-01,
421,-4.00e+00,4.00e-01,
422,-1.20e+01,4.00e-01,
423,-4.00e+00,-2.00e-01,
424,-1.20e+01,4.00e-01,
425,0.00e+00,-2.00e-01,
426,-1.20e+01,4.00e-01,
427,0.00e+00,-2.00e-01,
428,-1.20e+01,0.00e+00,
429,0.00e+00,6.00e-01,
430,-1.20e+01,0.00e+00,
431,0.00e+00,6.00e-01,
432,-1.20e+01,6.00e-01,
433,0.00e+00,0.00e+00,
434,-1.20e+01,0.00e+00,
435,0.00e+00,6.00e-01,
436,-1.20e+01,6.00e-01,
437,0.00e+00,0.00e+00,
438,0.00e+00,8.00e-01,
439,-1.20e+01,2.00e-01,
440,-1.20e+01,2.00e-01,
441,0.00e+00,8.00e-01,
442,-1.20e+01,8.00e-01,
443,0.00e+00,0.00e+00,
444,-1.20e+01,6.00e-01,
445,0.00e+00,0.00e+00,
446,0.00e+00,0.00e+00,
447,-1.20e+01,6.00e-01,
448,-1.20e+01,0.00e+00,
449,0.00e+00,6.00e-01,
450,-1.20e+01,6.00e-01,
451,0.00e+00,0.00e+00,
452,-1.20e+01,0.00e+00,
453,0.00e+00,6.00e-01,
454,-1.20e+01,6.00e-01,
455,0.00e+00,0.00e+00,
456,-1.20e+01,6.00e-01,
457,0.00e+00,2.00e-01,
458,0.00e+00,6.00e-01,
459,-1.20e+01,0.00e+00,
460,-1.20e+01,6.00e-01,
461,0.00e+00,2.00e-01,
462,-1.20e+01,6.00e-01,
463,0.00e+00,0.00e+00,
464,-1.20e+01,6.00e-01,
465,0.00e+00,0.00e+00,
466,0.00e+00,6.00e-01,
467,-1.20e+01,0.00e+00,
468,-1.20e+01,0.00e+00,
469,0.00e+00,6.00e-01,
470,0.00e+00,0.00e+00,
471,-1.20e+01,6.00e-01,
472,-1.20e+01,0.00e+00,
473,0.00e+00,6.00e-01,
474,-1.20e+01,0.00e+00,
475,0.00e+00,4.00e-01,
476,0.00e+00,4.00e-01,
477,-1.20e+01,-2.00e-01,
478,-8.00e+00,0.00e+00,
479,0.00e+00,6.00e-01,
480,-8.00e+00,0.00e+00,
481,0.00e+00,6.00e-01,
482,0.00e+00,6.00e-01,
483,-8.00e+00,0.00e+00,
484,0.00e+00,6.00e-01,
485,-8.00e+00,0.00e+00,
486,0.00e+00,6.00e-01,
487,-8.00e+00,0.00e+00,
488,-8.00e+00,6.00e-01,
489,0.00e+00,0.00e+00,
490,0.00e+00,6.00e-01,
491,-8.00e+00,0.00e+00,
492,-8.00e+00,6.00e-01,
493,0.00e+00,0.00e+00,
494,-8.00e+00,6.00e-01,
495,0.00e+00,0.00e+00,
496,0.00e+00,0.00e+00,
497,-8.00e+00,6.00e-01,
498,-8.00e+00,0.00e+00,
499,0.00e+00,6.00e-01,
500,0.00e+00,4.00e-01,
501,-8.00e+00,0.00e+00,
502,0.00e+00,0.00e+00,
503,-8.00e+00,6.00e-01,
504,-8.00e+00,6.00e-01,
505,0.00e+00,2.00e-01,
506,-8.00e+00,8.00e-01,
507,0.00e+00,2.00e-01,
508,0.00e+00,2.00e-01,
509,-8.00e+00,8.00e-01,
510,-8.00e+00,1.00e+00,
511,4.00e+00,4.00e-01,
512,-8.00e+00,8.00e-01,
513,4.00e+00,2.00e-01,
514,4.00e+00,8.00e-01,
515,-8.00e+00,2.00e-01,
516,-8.00e+00,2.00e-01,
517,4.00e+00,8.00e-01,
518,-8.00e+00,2.00e-01,
519,4.00e+00,8.00e-01,
520,4.00e+00,8.00e-01,
521,-8.00e+00,0.00e+00,
522,-8.00e+00,6.00e-01,
523,4.00e+00,0.00e+00,
524,4.00e+00,4.00e-01,
525,-8.00e+00,-6.00e-01,
526,-8.00e+00,0.00e+00,
527,4.00e+00,-1.00e+00,
528,-8.00e+00,-1.40e+00,
529,4.00e+00,-2.00e-01,
530,-8.00e+00,-8.00e-01,
531,4.00e+00,8.00e-01,
532,4.00e+00,2.00e-01,
533,-8.00e+00,2.00e+00,
534,-8.00e+00,1.40e+00,
535,4.00e+00,3.20e+00,
536,-8.00e+00,2.80e+00,
537,4.00e+00,4.40e+00,
538,-8.00e+00,4.00e+00,
539,4.00e+00,6.20e+00,
540,-8.00e+00,5.80e+00,
541,4.00e+00,7.80e+00,
542,-8.00e+00,7.40e+00,
543,4.00e+00,8.80e+00,
544,4.00e+00,8.20e+00,
545,-8.00e+00,9.20e+00,
546,4.00e+00,8.40e+00,
547,-8.00e+00,9.40e+00,
548,-8.00e+00,9.40e+00,
549,4.00e+00,8.20e+00,
550,4.00e+00,8.80e+00,
551,-8.00e+00,7.40e+00,
552,4.00e+00,8.20e+00,
553,-8.00e+00,6.40e+00,
554,-8.00e+00,6.80e+00,
555,4.00e+00,5.40e+00,
556,-8.00e+00,5.80e+00,
557,4.00e+00,4.00e+00,
558,4.00e+00,4.80e+00,
559,-8.00e+00,3.20e+00,
560,-8.00e+00,3.80e+00,
561,4.00e+00,2.40e+00,
562,4.00e+00,3.00e+00,
563,-8.00e+00,1.60e+00,
564,-8.00e+00,2.40e+00,
565,4.00e+00,1.40e+00,
566,-8.00e+00,2.40e+00,
567,4.00e+00,1.20e+00,
568,4.00e+00,2.00e+00,
569,-8.00e+00,1.00e+00,
570,-4.00e+00,1.00e+00,
571,4.00e+00,1.80e+00,
572,-4.00e+00,1.60e+00,
573,4.00e+00,8.00e-01,
574,4.00e+00,1.60e+00,
575,-4.00e+00,6.00e-01,
576,-4.00e+00,1.60e+00,
577,4.00e+00,4.00e-01,
578,-4.00e+00,1.00e+00,
579,4.00e+00,-2.00e-01,
580,-4.00e+00,6.00e-01,
581,4.00e+00,-8.00e-01,
582,4.00e+00,-2.00e-01,
583,-4.00e+00,-2.20e+00,
584,4.00e+00,-1.60e+00,
585,-4.00e+00,-3.20e+00,
586,4.00e+00,-2.80e+00,
587,-4.00e+00,-4.40e+00,
588,4.00e+00,-3.80e+00,
589,-4.00e+00,-5.20e+00,
590,-4.00e+00,-4.60e+00,
591,4.00e+00,-5.60e+00,
592,4.00e+00,-5.20e+00,
593,-4.00e+00,-6.20e+00,
594,4.00e+00,-6.20e+00,
595,-4.00e+00,-5.20e+00,
596,4.00e+00,-5.80e+00,
597,-4.00e+00,-5.00e+00,
598,-4.00e+00,-5.00e+00,
599,4.00e+00,-5.80e+00,
600,4.00e+00,-5.00e+00,
601,-4.00e+00,-6.00e+00,
602,4.00e+00,-5.60e+00,
603,-4.00e+00,-3.80e+00,
604,-4.00e+00,-4.00e+00,
605,8.00e+00,-2.40e+00,
606,-4.00e+00,-2.60e+00,
607,8.00e+00,-1.60e+00,
608,-4.00e+00,-1.80e+00,
609,8.00e+00,-1.00e+00,
610,8.00e+00,-1.40e+00,
611,-4.00e+00,-6.00e-01,
612,8.00e+00,-1.00e+00,
613,-4.00e+00,-4.00e-01,
614,-4.00e+00,-8.00e-01,
615,8.00e+00,-2.00e-01,
616,-4.00e+00,-6.00e-01,
617,8.00e+00,0.00e+00,
618,-4.00e+00,0.00e+00,
619,8.00e+00,-6.00e-01,
620,-4.00e+00,0.00e+00,
621,8.00e+00,-6.00e-01,
622,-4.00e+00,0.00e+00,
623,8.00e+00,-4.00e-01,
624,-4.00e+00,2.00e-01,
625,8.00e+00,-6.00e-01,
626,-4.00e+00,2.00e-01,
627,8.00e+00,-4.00e-01,
628,8.00e+00,-4.00e-01,
629,-4.00e+00,2.00e-01,
630,8.00e+00,-4.00e-01,
631,-4.00e+00,2.00e-01,
632,8.00e+00,-4.00e-01,
633,-4.00e+00,2.00e-01,
634,-4.00e+00,-4.00e-01,
635,8.00e+00,2.00e-01,
636,-4.00e+00,2.00e-01,
637,8.00e+00,-4.00e-01,
638,8.00e+00,2.00e-01,
639,-4.00e+00,-4.00e-01,
640,-4.00e+00,-4.00e-01,
641,8.00e+00,2.00e-01,
642,8.00e+00,2.00e-01,
643,-4.00e+00,-4.00e-01,
644,8.00e+00,-4.00e-01,
645,-4.00e+00,2.00e-01,
646,-4.00e+00,-4.00e-01,
647,8.00e+00,2.00e-01,
648,8.00e+00,2.00e-01,
649,-4.00e+00,-4.00e-01,
650,-4.00e+00,-4.00e-01,
651,8.00e+00,2.00e-01,
652,-4.00e+00,-4.00e-01,
653,8.00e+00,2.00e-01,
654,8.00e+00,2.00e-01,
655,-4.00e+00,-4.00e-01,
656,-4.00e+00,-4.00e-01,
657,8.00e+00,2.00e-01,
658,8.00e+00,2.00e-01,
659,-4.00e+00,-4.00e-01,
660,8.00e+00,2.00e-01,
661,-4.00e+00,-4.00e-01,
662,8.00e+00,-4.00e-01,
663,-4.00e+00,2.00e-01,
664,-4.00e+00,-4.00e-01,
665,8.00e+00,2.00e-01,
666,8.00e+00,2.00e-01,
667,0.00e+00,-4.00e-01,
668,8.00e+00,2.00e-01,
669,0.00e+00,-4.00e-01,
670,0.00e+00,2.00e-01,
671,8.00e+00,-4.00e-01,
672,8.00e+00,-4.00e-01,
673,0.00e+00,4.00e-01,
674,8.00e+00,-2.00e-01,
675,0.00e+00,4.00e-01,
676,0.00e+00,2.00e-01,
677,8.00e+00,-2.00e-01,
678,8.00e+00,2.00e-01,
679,0.00e+00,-2.00e-01,
680,8.00e+00,-2.00e-01,
681,0.00e+00,2.00e-01,
682,0.00e+00,2.00e-01,
683,8.00e+00,-4.00e-01,
684,8.00e+00,-4.00e-01,
685,0.00e+00,4.00e-01,
686,8.00e+00,2.00e-01,
687,0.00e+00,-4.00e-01,
688,0.00e+00,4.00e-01,
689,8.00e+00,-2.00e-01,
690,8.00e+00,4.00e-01,
691,0.00e+00,0.00e+00,
692,8.00e+00,4.00e-01,
693,0.00e+00,0.00e+00,
694,0.00e+00,4.00e-01,
695,8.00e+00,-2.00e-01,
696,0.00e+00,-2.00e-01,
697,1.20e+01,4.00e-01,
698,0.00e+00,-2.00e-01,
699,1.20e+01,6.00e-01,
700,0.00e+00,4.00e-01,
701,1.20e+01,-2.00e-01,
702,1.20e+01,-2.00e-01,
703,0.00e+00,4.00e-01,
704,1.20e+01,0.00e+00,
705,0.00e+00,6.00e-01,
706,0.00e+00,0.00e+00,
707,1.20e+01,6.00e-01,
708,1.20e+01,0.00e+00,
709,0.00e+00,6.00e-01,
710,1.20e+01,6.00e-01,
711,0.00e+00,0.00e+00,
712,1.20e+01,0.00e+00,
713,0.00e+00,6.00e-01,
714,1.20e+01,6.00e-01,
715,0.00e+00,-2.00e-01,
716,0.00e+00,4.00e-01,
717,1.20e+01,0.00e+00,
718,0.00e+00,0.00e+00,
719,1.20e+01,4.00e-01,
720,0.00e+00,4.00e-01,
721,1.20e+01,-2.00e-01,
722,0.00e+00,4.00e-01,
723,1.20e+01,0.00e+00,
724,1.20e+01,4.00e-01,
725,0.00e+00,0.00e+00,
726,0.00e+00,6.00e-01,
727,1.20e+01,-2.00e-01,
728,1.20e+01,4.00e-01,
729,0.00e+00,-2.00e-01,
730,1.20e+01,-2.00e-01,
731,0.00e+00,4.00e-01,
732,0.00e+00,4.00e-01,
733,1.20e+01,-2.00e-01,
734,1.20e+01,4.00e-01,
735,0.00e+00,-2.00e-01,
736,1.20e+01,-2.00e-01,
737,0.00e+00,4.00e-01,
738,1.20e+01,4.00e-01,
739,0.00e+00,-2.00e-01,
740,1.20e+01,4.00e-01,
741,0.00e+00,0.00e+00,
742,0.00e+00,4.00e-01,
743,1.20e+01,-2.00e-01,
744,0.00e+00,-2.00e-01,
745,1.20e+01,4.00e-01,
746,0.00e+00,4.00e-01,
747,1.20e+01,-2.00e-01,
748,1.20e+01,4.00e-01,
749,0.00e+00,-2.00e-01,
750,0.00e+00,4.00e-01,
751,1.20e+01,-2.00e-01,
752,1.20e+01,4.00e-01,
753,4.00e+00,-2.00e-01,
754,4.00e+00,-2.00e-01,
755,1.20e+01,4.00e-01,
756,1.20e+01,4.00e-01,
757,4.00e+00,-2.00e-01,
758,4.00e+00,4.00e-01,
759,1.20e+01,0.00e+00,
760,4.00e+00,0.00e+00,
761,1.20e+01,6.00e-01,
762,4.00e+00,4.00e-01,
763,1.20e+01,-2.00e-01,
764,1.20e+01,4.00e-01,
765,4.00e+00,0.00e+00,
766,1.20e+01,0.00e+00,
767,4.00e+00,6.00e-01,
768,1.20e+01,6.00e-01,
769,4.00e+00,0.00e+00,
770,1.20e+01,0.00e+00,
771,4.00e+00,6.00e-01,
772,1.20e+01,0.00e+00,
773,4.00e+00,6.00e-01,
774,4.00e+00,6.00e-01,
775,1.20e+01,0.00e+00,
776,1.20e+01,0.00e+00,
777,4.00e+00,6.00e-01,
778,1.20e+01,0.00e+00,
779,4.00e+00,6.00e-01,
780,4.00e+00,6.00e-01,
781,1.20e+01,0.00e+00,
782,1.20e+01,0.00e+00,
783,4.00e+00,6.00e-01,
784,1.20e+01,0.00e+00,
785,4.00e+00,6.00e-01,
786,4.00e+00,6.00e-01,
787,1.60e+01,0.00e+00,
788,1.60e+01,0.00e+00,
789,4.00e+00,6.00e-01,
790,1.60e+01,6.00e-01,
791,4.00e+00,0.00e+00,
792,4.00e+00,0.00e+00,
793,1.60e+01,6.00e-01,
794,4.00e+00,4.00e-01,
795,1.60e+01,-2.00e-01,
796,1.60e+01,4.00e-01,
797,4.00e+00,-2.00e-01,
798,1.60e+01,4.00e-01,
799,4.00e+00,-2.00e-01,
800,4.00e+00,4.00e-01,
801,1.60e+01,0.00e+00,
802,1.60e+01,4.00e-01,
803,4.00e+00,0.00e+00,
804,1.60e+01,4.00e-01,
805,4.00e+00,-2.00e-01,
806,4.00e+00,0.00e+00,
807,1.60e+01,6.00e-01,
808,1.60e+01,0.00e+00,
809,4.00e+00,6.00e-01,
810,4.00e+00,4.00e-01,
811,1.60e+01,-2.00e-01,
812,1.60e+01,0.00e+00,
813,4.00e+00,6.00e-01,
814,4.00e+00,0.00e+00,
815,1.60e+01,6.00e-01,
816,1.60e+01,4.00e-01,
817,4.00e+00,-2.00e-01,
818,4.00e+00,4.00e-01,
819,1.60e+01,-2.00e-01,
820,1.60e+01,4.00e-01,
821,4.00e+00,-2.00e-01,
822,1.60e+01,-2.00e-01,
823,4.00e+00,4.00e-01,
824,4.00e+00,4.00e-01,
825,1.60e+01,-2.00e-01,
826,1.60e+01,-2.00e-01,
827,4.00e+00,4.00e-01,
828,1.60e+01,6.00e-01,
829,4.00e+00,-2.00e-01,
830,1.60e+01,4.00e-01,
831,4.00e+00,-2.00e-01,
832,4.00e+00,4.00e-01,
833,1.60e+01,-2.00e-01,
834,1.60e+01,-2.00e-01,
835,4.00e+00,4.00e-01,
836,4.00e+00,4.00e-01,
